…
To find 3000 recent tweets using the "rstats" hashtag:


```r
rt <- search_tweets(
  q = "#rstats",
  n = 3000,
  include_rts = FALSE
)
rt
```

```
## # A tibble: 3,000 × 90
##    user_id    status_id           created_at          screen_name text    source
##    <chr>      <chr>               <dttm>              <chr>       <chr>   <chr> 
##  1 4263007693 1496929184542867462 2022-02-24 19:25:03 gp_pulipaka "Top 1… Buffer
##  2 4263007693 1496711514069295107 2022-02-24 05:00:07 gp_pulipaka "6 Fre… Buffer
##  3 4263007693 1496696497039200256 2022-02-24 04:00:26 gp_pulipaka "A Lis… Buffer
##  4 4263007693 1496707222461718530 2022-02-24 04:43:03 gp_pulipaka "AI Be… Buffer
##  5 4263007693 1496695646891483145 2022-02-24 03:57:04 gp_pulipaka "#AI B… Buffer
##  6 4263007693 1496710741445025796 2022-02-24 04:57:02 gp_pulipaka "#AI B… Buffer
##  7 4263007693 1496172703681859584 2022-02-22 17:19:04 gp_pulipaka "The C… Buffer
##  8 4263007693 1496340562055778305 2022-02-23 04:26:05 gp_pulipaka "Autom… Buffer
##  9 4263007693 1496161379690106894 2022-02-22 16:34:04 gp_pulipaka "The C… Buffer
## 10 4263007693 1496303058275508228 2022-02-23 01:57:03 gp_pulipaka "#AI B… Buffer
## # … with 2,990 more rows, and 84 more variables: display_text_width <dbl>,
## #   reply_to_status_id <chr>, reply_to_user_id <chr>,
## #   reply_to_screen_name <chr>, is_quote <lgl>, is_retweet <lgl>,
## #   favorite_count <int>, retweet_count <int>, quote_count <int>,
## #   reply_count <int>, hashtags <list>, symbols <list>, urls_url <list>,
## #   urls_t.co <list>, urls_expanded_url <list>, media_url <list>,
## #   media_t.co <list>, media_expanded_url <list>, media_type <list>, …
```
…
Note that the Twitter REST API limits all searches to the past 6-9 days. **You will not retrieve any earlier results.**

## Searching users

Use `get_timeline()` or `get_timelines()` to retrieve tweets from one or more specified Twitter users. This only works for users with public profiles or those that have authorized your app.


```r
countvoncount <- get_timeline(user = "countvoncount", n = 1000)
countvoncount
```

```
## # A tibble: 1,000 × 90
##    user_id   status_id           created_at          screen_name   text   source
##    <chr>     <chr>               <dttm>              <chr>         <chr>  <chr> 
##  1 555129716 1468700740285874180 2021-12-08 21:55:18 CountVonCount Three… Count…
##  2 555129716 1468640341196738564 2021-12-08 17:55:18 CountVonCount Three… Count…
##  3 555129716 1468429755242455040 2021-12-08 03:58:30 CountVonCount Three… Count…
##  4 555129716 1468339156493426693 2021-12-07 21:58:29 CountVonCount Three… Count…
##  5 555129716 1468034370204221444 2021-12-07 01:47:23 CountVonCount Three… Count…
##  6 555129716 1467958871172034568 2021-12-06 20:47:22 CountVonCount Three… Count…
##  7 555129716 1467613900413992960 2021-12-05 21:56:35 CountVonCount Three… Count…
##  8 555129716 1467266070788595724 2021-12-04 22:54:26 CountVonCount Three… Count…
##  9 555129716 1466873476569092105 2021-12-03 20:54:24 CountVonCount Three… Count…
## 10 555129716 1466552417869312006 2021-12-02 23:38:38 CountVonCount Three… Count…
## # … with 990 more rows, and 84 more variables: display_text_width <dbl>,
## #   reply_to_status_id <lgl>, reply_to_user_id <lgl>,
## #   reply_to_screen_name <lgl>, is_quote <lgl>, is_retweet <lgl>,
## #   favorite_count <int>, retweet_count <int>, quote_count <int>,
## #   reply_count <int>, hashtags <list>, symbols <list>, urls_url <list>,
## #   urls_t.co <list>, urls_expanded_url <list>, media_url <list>,
## #   media_t.co <list>, media_expanded_url <list>, media_type <list>, …
```
…
