Getting data from the web: API access
…
---

## Retrieve the database

```r
(mpds <- mp_maindataset())
```

```
## Connecting to Manifesto Project DB API... 
## Connecting to Manifesto Project DB API... corpus version: 2021-1
```

```
## # A tibble: 4,739 × 174
##    country countryname oecdmember eumember edate        date party partyname    
##      <dbl> <chr>            <dbl>    <dbl> <date>      <dbl> <dbl> <chr>        
##  1      11 Sweden               0        0 1944-09-17 194409 11220 Communist Pa…
##  2      11 Sweden               0        0 1944-09-17 194409 11320 Social Democ…
##  3      11 Sweden               0        0 1944-09-17 194409 11420 People’s Par…
##  4      11 Sweden               0        0 1944-09-17 194409 11620 Right Party  
##  5      11 Sweden               0        0 1944-09-17 194409 11810 Agrarian Par…
##  6      11 Sweden               0        0 1948-09-19 194809 11220 Communist Pa…
##  7      11 Sweden               0        0 1948-09-19 194809 11320 Social Democ…
##  8      11 Sweden               0        0 1948-09-19 194809 11420 People’s Par…
##  9      11 Sweden               0        0 1948-09-19 194809 11620 Right Party  
## 10      11 Sweden               0        0 1948-09-19 194809 11810 Agrarian Par…
## # … with 4,729 more rows, and 166 more variables: partyabbrev <chr>,
## #   parfam <dbl>, coderid <dbl>, manual <dbl>, coderyear <dbl>,
## #   testresult <dbl>, testeditsim <dbl>, pervote <dbl>, voteest <dbl>,
## #   presvote <dbl>, absseat <dbl>, totseats <dbl>, progtype <dbl>,
## #   datasetorigin <dbl>, corpusversion <chr>, total <dbl>, peruncod <dbl>,
## #   per101 <dbl>, per102 <dbl>, per103 <dbl>, per104 <dbl>, per105 <dbl>,
## #   per106 <dbl>, per107 <dbl>, per108 <dbl>, per109 <dbl>, per110 <dbl>, …
```
…
---

## Obtain data

```r
usa_inc <- get_acs(
  geography = "state",
  variables = c(medincome = "B19013_001"),
  year = 2020
)
usa_inc
```

```
## # A tibble: 52 × 5
##    GEOID NAME                 variable  estimate   moe
##    <chr> <chr>                <chr>        <dbl> <dbl>
##  1 01    Alabama              medincome    52035   377
##  2 02    Alaska               medincome    77790  1134
##  3 04    Arizona              medincome    61529   286
##  4 05    Arkansas             medincome    49475   431
##  5 06    California           medincome    78672   270
##  6 08    Colorado             medincome    75231   379
##  7 09    Connecticut          medincome    79855   587
##  8 10    Delaware             medincome    69110  1112
##  9 11    District of Columbia medincome    90842  1580
## 10 12    Florida              medincome    57703   269
## # … with 42 more rows
```
…
---

# Searching tweets

```r
rt <- search_tweets(
  q = "#rstats",
  n = 3000,
  include_rts = FALSE
)
rt
```

```
## # A tibble: 3,000 × 43
##    created_at               id id_str       full_…¹ trunc…² displ…³ entities    
##    <dttm>                <dbl> <chr>        <chr>   <lgl>     <dbl> <list>      
##  1 2022-08-08 15:34:31 1.56e18 15567255626… "I'm p… FALSE       225 <named list>
##  2 2022-08-09 20:03:29 1.56e18 15571556395… "🫒 De… FALSE       250 <named list>
##  3 2022-08-07 18:56:34 1.56e18 15564140236… "100+ … FALSE       275 <named list>
##  4 2022-08-10 09:30:13 1.56e18 15573586603… "Read … FALSE       107 <named list>
##  5 2022-08-10 09:27:16 1.56e18 15573579189… "@luka… FALSE       121 <named list>
##  6 2022-08-10 09:26:20 1.56e18 15573576819… "Error… FALSE       104 <named list>
##  7 2022-08-10 09:26:20 1.56e18 15573576814… "How d… FALSE       108 <named list>
##  8 2022-08-10 09:26:19 1.56e18 15573576794… "The s… FALSE       262 <named list>
##  9 2022-08-10 09:23:05 1.56e18 15573568662… "Pytho… FALSE       270 <named list>
## 10 2022-08-10 09:19:40 1.56e18 15573560057… "On av… FALSE       146 <named list>
## # … with 2,990 more rows, 36 more variables: metadata <list>, source <chr>,
## #   in_reply_to_status_id <dbl>, in_reply_to_status_id_str <chr>,
## #   in_reply_to_user_id <dbl>, in_reply_to_user_id_str <chr>,
## #   in_reply_to_screen_name <chr>, geo <list>, coordinates <list>,
## #   place <list>, contributors <lgl>, is_quote_status <lgl>,
## #   quoted_status_id <dbl>, quoted_status_id_str <chr>, quoted_status <list>,
## #   retweet_count <int>, favorite_count <int>, favorited <lgl>, …
## # ℹ Use `print(n = ...)` to see more rows, and `colnames()` to see all variable names
```

---

# Searching users

```r
countvoncount <- get_timeline(user = "countvoncount", n = 4000)
countvoncount
```

```
## # A tibble: 3,250 × 43
##    created_at               id id_str       full_…¹ trunc…² displ…³ entities    
##    <dttm>                <dbl> <chr>        <chr>   <lgl>     <dbl> <list>      
##  1 2022-08-09 14:23:11 1.56e18 15570700013… Three … FALSE        36 <named list>
##  2 2022-08-08 12:22:48 1.56e18 15566773163… Three … FALSE        36 <named list>
##  3 2022-08-07 17:22:47 1.56e18 15563904200… Three … FALSE        37 <named list>
##  4 2022-08-07 09:22:46 1.56e18 15562696218… Three … FALSE        35 <named list>
##  5 2022-08-06 20:22:45 1.56e18 15560733242… Three … FALSE        35 <named list>
##  6 2022-08-06 11:22:45 1.56e18 15559374262… Three … FALSE        36 <named list>
##  7 2022-08-05 17:22:43 1.56e18 15556656300… Three … FALSE        36 <named list>
##  8 2022-08-05 12:22:43 1.56e18 15555901309… Three … FALSE        34 <named list>
##  9 2022-08-04 20:22:42 1.56e18 15553485341… Three … FALSE        44 <named list>
## 10 2022-08-04 08:22:41 1.56e18 15551673370… Three … FALSE        31 <named list>
## # … with 3,240 more rows, 36 more variables: source <chr>,
## #   in_reply_to_status_id <lgl>, in_reply_to_status_id_str <lgl>,
## #   in_reply_to_user_id <lgl>, in_reply_to_user_id_str <lgl>,
## #   in_reply_to_screen_name <lgl>, geo <list>, coordinates <list>,
## #   place <list>, contributors <lgl>, is_quote_status <lgl>,
## #   retweet_count <int>, favorite_count <int>, favorited <lgl>,
## #   retweeted <lgl>, lang <chr>, possibly_sensitive <list>, …
## # ℹ Use `print(n = ...)` to see more rows, and `colnames()` to see all variable names
```
…
---

## `unnest_longer()`

```r
repos <- repos %>%
  unnest_longer(col = repo)
repos
```

```
## # A tibble: 176 × 1
##    repo             
##    <list>           
##  1 <named list [68]>
##  2 <named list [68]>
##  3 <named list [68]>
##  4 <named list [68]>
##  5 <named list [68]>
##  6 <named list [68]>
##  7 <named list [68]>
##  8 <named list [68]>
##  9 <named list [68]>
## 10 <named list [68]>
## # … with 166 more rows
```
…
## `unnest_longer()`

```r
repos %>%
  hoist(
    .col = repo,
    login = c("owner", "login"),
    name = "name",
    homepage = "homepage",
    watchers = "watchers_count"
  )
```

```
## # A tibble: 176 × 5
##    login       name        homepage watchers repo             
##    <chr>       <chr>       <chr>       <int> <list>           
##  1 gaborcsardi after        <NA>           5 <named list [65]>
##  2 gaborcsardi argufy       <NA>          19 <named list [65]>
##  3 gaborcsardi ask          <NA>           5 <named list [65]>
##  4 gaborcsardi baseimports  <NA>           0 <named list [65]>
##  5 gaborcsardi citest       <NA>           0 <named list [65]>
##  6 gaborcsardi clisymbols  ""             18 <named list [65]>
##  7 gaborcsardi cmaker       <NA>           0 <named list [65]>
##  8 gaborcsardi cmark        <NA>           0 <named list [65]>
##  9 gaborcsardi conditions   <NA>           0 <named list [65]>
## 10 gaborcsardi crayon       <NA>          52 <named list [65]>
## # … with 166 more rows
```
…
---
count: false

.panel1-gh-repos-auto-auto[

```r
tibble(repo = gh_repos) %>%
* unnest_auto(col = repo)
```
]
 
.panel2-gh-repos-auto-auto[

```
## # A tibble: 176 × 1
##    repo             
##    <list>           
##  1 <named list [68]>
##  2 <named list [68]>
##  3 <named list [68]>
##  4 <named list [68]>
##  5 <named list [68]>
##  6 <named list [68]>
##  7 <named list [68]>
##  8 <named list [68]>
##  9 <named list [68]>
## 10 <named list [68]>
## # … with 166 more rows
```
…
.panel1-gh-repos-auto-auto[

```r
tibble(repo = gh_repos) %>%
  unnest_auto(col = repo) %>%
* unnest_auto(col = repo)
```
]
 
.panel2-gh-repos-auto-auto[

```
## # A tibble: 176 × 68
##         id name  full_name owner        private html_url description fork  url  
##      <int> <chr> <chr>     <list>       <lgl>   <chr>    <chr>       <lgl> <chr>
##  1  6.12e7 after gaborcsa… <named list> FALSE   https:/… Run Code i… FALSE http…
##  2  4.05e7 argu… gaborcsa… <named list> FALSE   https:/… Declarativ… FALSE http…
##  3  3.64e7 ask   gaborcsa… <named list> FALSE   https:/… Friendly C… FALSE http…
##  4  3.49e7 base… gaborcsa… <named list> FALSE   https:/… Do we get … FALSE http…
##  5  6.16e7 cite… gaborcsa… <named list> FALSE   https:/… Test R pac… TRUE  http…
##  6  3.39e7 clis… gaborcsa… <named list> FALSE   https:/… Unicode sy… FALSE http…
##  7  3.72e7 cmak… gaborcsa… <named list> FALSE   https:/… port of cm… TRUE  http…
##  8  6.80e7 cmark gaborcsa… <named list> FALSE   https:/… CommonMark… TRUE  http…
##  9  6.32e7 cond… gaborcsa… <named list> FALSE   https:/… <NA>        TRUE  http…
## 10  2.43e7 cray… gaborcsa… <named list> FALSE   https:/… R package … FALSE http…
## # … with 166 more rows, and 59 more variables: forks_url <chr>, keys_url <chr>,
## #   collaborators_url <chr>, teams_url <chr>, hooks_url <chr>,
## #   issue_events_url <chr>, events_url <chr>, assignees_url <chr>,
## #   branches_url <chr>, tags_url <chr>, blobs_url <chr>, git_tags_url <chr>,
## #   git_refs_url <chr>, trees_url <chr>, statuses_url <chr>,
## #   languages_url <chr>, stargazers_url <chr>, contributors_url <chr>,
## #   subscribers_url <chr>, subscription_url <chr>, commits_url <chr>, …
```
…
---

## ASOIAF characters

```r
chars <- tibble(char = got_chars)
chars
```

```
## # A tibble: 30 × 1
##    char             
##    <list>           
##  1 <named list [18]>
##  2 <named list [18]>
##  3 <named list [18]>
##  4 <named list [18]>
##  5 <named list [18]>
##  6 <named list [18]>
##  7 <named list [18]>
##  8 <named list [18]>
##  9 <named list [18]>
## 10 <named list [18]>
## # … with 20 more rows
```

---

## ASOIAF characters

```r
chars2 <- chars %>%
  unnest_wider(col = char)
chars2
```

```
## # A tibble: 30 × 18
##    url           id name  gender culture born  died  alive titles aliases father
##    <chr>      <int> <chr> <chr>  <chr>   <chr> <chr> <lgl> <list> <list>  <chr> 
##  1 https://w…  1022 Theo… Male   "Ironb… "In … ""    TRUE  <chr>  <chr>   ""    
##  2 https://w…  1052 Tyri… Male   ""      "In … ""    TRUE  <chr>  <chr>   ""    
##  3 https://w…  1074 Vict… Male   "Ironb… "In … ""    TRUE  <chr>  <chr>   ""    
##  4 https://w…  1109 Will  Male   ""      ""    "In … FALSE <chr>  <chr>   ""    
##  5 https://w…  1166 Areo… Male   "Norvo… "In … ""    TRUE  <chr>  <chr>   ""    
##  6 https://w…  1267 Chett Male   ""      "At … "In … FALSE <chr>  <chr>   ""    
##  7 https://w…  1295 Cres… Male   ""      "In … "In … FALSE <chr>  <chr>   ""    
##  8 https://w…   130 Aria… Female "Dorni… "In … ""    TRUE  <chr>  <chr>   ""    
##  9 https://w…  1303 Daen… Female "Valyr… "In … ""    TRUE  <chr>  <chr>   ""    
## 10 https://w…  1319 Davo… Male   "Weste… "In … ""    TRUE  <chr>  <chr>   ""    
## # … with 20 more rows, and 7 more variables: mother <chr>, spouse <chr>,
## #   allegiances <list>, books <list>, povBooks <list>, tvSeries <list>,
## #   playedBy <list>
```

---

## Nested list objects

```r
chars2 %>%
  select(where(is.list))
```

```
## # A tibble: 30 × 7
##    titles    aliases    allegiances books     povBooks  tvSeries  playedBy 
##    <list>    <list>     <list>      <list>    <list>    <list>    <list>   
##  1 <chr [3]> <chr [4]>  <chr [1]>   <chr [3]> <chr [2]> <chr [6]> <chr [1]>
##  2 <chr [2]> <chr [11]> <chr [1]>   <chr [2]> <chr [4]> <chr [6]> <chr [1]>
##  3 <chr [2]> <chr [1]>  <chr [1]>   <chr [3]> <chr [2]> <chr [1]> <chr [1]>
##  4 <chr [1]> <chr [1]>  <NULL>      <chr [1]> <chr [1]> <chr [1]> <chr [1]>
##  5 <chr [1]> <chr [1]>  <chr [1]>   <chr [3]> <chr [2]> <chr [2]> <chr [1]>
##  6 <chr [1]> <chr [1]>  <NULL>      <chr [2]> <chr [1]> <chr [1]> <chr [1]>
##  7 <chr [1]> <chr [1]>  <NULL>      <chr [2]> <chr [1]> <chr [1]> <chr [1]>
##  8 <chr [1]> <chr [1]>  <chr [1]>   <chr [4]> <chr [1]> <chr [1]> <chr [1]>
##  9 <chr [5]> <chr [11]> <chr [1]>   <chr [1]> <chr [4]> <chr [6]> <chr [1]>
## 10 <chr [4]> <chr [5]>  <chr [2]>   <chr [1]> <chr [3]> <chr [5]> <chr [1]>
## # … with 20 more rows
```
…
## Every appearance per book/season
.panel1-got-appearances-auto[

```r
*select(
* .data = chars2,
* name, books, tvSeries
*) 
```
]
 
.panel2-got-appearances-auto[

```
## # A tibble: 30 × 3
##    name               books     tvSeries 
##    <chr>              <list>    <list>   
##  1 Theon Greyjoy      <chr [3]> <chr [6]>
##  2 Tyrion Lannister   <chr [2]> <chr [6]>
##  3 Victarion Greyjoy  <chr [3]> <chr [1]>
##  4 Will               <chr [1]> <chr [1]>
##  5 Areo Hotah         <chr [3]> <chr [2]>
##  6 Chett              <chr [2]> <chr [1]>
##  7 Cressen            <chr [2]> <chr [1]>
##  8 Arianne Martell    <chr [4]> <chr [1]>
##  9 Daenerys Targaryen <chr [1]> <chr [6]>
## 10 Davos Seaworth     <chr [1]> <chr [5]>
## # … with 20 more rows
```
…
.panel2-got-appearances-auto[

```
## # A tibble: 60 × 3
##    name              media    value    
##    <chr>             <chr>    <list>   
##  1 Theon Greyjoy     books    <chr [3]>
##  2 Theon Greyjoy     tvSeries <chr [6]>
##  3 Tyrion Lannister  books    <chr [2]>
##  4 Tyrion Lannister  tvSeries <chr [6]>
##  5 Victarion Greyjoy books    <chr [3]>
##  6 Victarion Greyjoy tvSeries <chr [1]>
##  7 Will              books    <chr [1]>
##  8 Will              tvSeries <chr [1]>
##  9 Areo Hotah        books    <chr [3]>
## 10 Areo Hotah        tvSeries <chr [2]>
## # … with 50 more rows
```
…
.panel2-got-appearances-auto[

```
## # A tibble: 180 × 3
##    name             media    value            
##    <chr>            <chr>    <chr>            
##  1 Theon Greyjoy    books    A Game of Thrones
##  2 Theon Greyjoy    books    A Storm of Swords
##  3 Theon Greyjoy    books    A Feast for Crows
##  4 Theon Greyjoy    tvSeries Season 1         
##  5 Theon Greyjoy    tvSeries Season 2         
##  6 Theon Greyjoy    tvSeries Season 3         
##  7 Theon Greyjoy    tvSeries Season 4         
##  8 Theon Greyjoy    tvSeries Season 5         
##  9 Theon Greyjoy    tvSeries Season 6         
## 10 Tyrion Lannister books    A Feast for Crows
## # … with 170 more rows
```
…
```r
*select(
* .data = chars2,
* name,
* title = titles
*) 
```
]
 
.panel2-got-title-name-auto[

```
## # A tibble: 30 × 2
##    name               title    
##    <chr>              <list>   
##  1 Theon Greyjoy      <chr [3]>
##  2 Tyrion Lannister   <chr [2]>
##  3 Victarion Greyjoy  <chr [2]>
##  4 Will               <chr [1]>
##  5 Areo Hotah         <chr [1]>
##  6 Chett              <chr [1]>
##  7 Cressen            <chr [1]>
##  8 Arianne Martell    <chr [1]>
##  9 Daenerys Targaryen <chr [5]>
## 10 Davos Seaworth     <chr [4]>
## # … with 20 more rows
```
…
```r
select(
  .data = chars2,
  name,
  title = titles
) %>%
* unnest_longer(col = title)
```
]
 
.panel2-got-title-name-auto[

```
## # A tibble: 60 × 2
##    name              title                                                 
##    <chr>             <chr>                                                 
##  1 Theon Greyjoy     "Prince of Winterfell"                                
##  2 Theon Greyjoy     "Captain of Sea Bitch"                                
##  3 Theon Greyjoy     "Lord of the Iron Islands (by law of the green lands)"
##  4 Tyrion Lannister  "Acting Hand of the King (former)"                    
##  5 Tyrion Lannister  "Master of Coin (former)"                             
##  6 Victarion Greyjoy "Lord Captain of the Iron Fleet"                      
##  7 Victarion Greyjoy "Master of the Iron Victory"                          
##  8 Will              ""                                                    
##  9 Areo Hotah        "Captain of the Guard at Sunspear"                    
## 10 Chett             ""                                                    
## # … with 50 more rows
```
…
