…
### Search available data with `wb_search()`

`wb_search()` searches through the `wb_cachelist$indicators` data frame to find indicators that match the search pattern.^[Alternatively, you can use the [web interface](https://data.worldbank.org/indicator) to determine specific indicators and their IDs.]


```r
wb_search("unemployment")
```

```
## # A tibble: 61 x 3
##    indicator_id indicator                      indicator_desc                   
##    <chr>        <chr>                          <chr>                            
##  1 fin37.t.a    Received government transfers… The percentage of respondents wh…
##  2 fin37.t.a.1  Received government transfers… The percentage of respondents wh…
##  3 fin37.t.a.10 Received government transfers… The percentage of respondents wh…
##  4 fin37.t.a.11 Received government transfers… The percentage of respondents wh…
##  5 fin37.t.a.2  Received government transfers… The percentage of respondents wh…
##  6 fin37.t.a.3  Received government transfers… The percentage of respondents wh…
##  7 fin37.t.a.4  Received government transfers… The percentage of respondents wh…
##  8 fin37.t.a.5  Received government transfers… The percentage of respondents wh…
##  9 fin37.t.a.6  Received government transfers… The percentage of respondents wh…
## 10 fin37.t.a.7  Received government transfers… The percentage of respondents wh…
## # … with 51 more rows
```

```r
wb_search("labor force")
```

```
## # A tibble: 245 x 3
##    indicator_id   indicator                 indicator_desc                      
##    <chr>          <chr>                     <chr>                               
##  1 9.0.Employee.… Employees (%)             Share of the labor force (ages 18-6…
##  2 9.0.Employee.… Employees-Bottom 40 Perc… Share of the labor force (ages 18-6…
##  3 9.0.Employee.… Employees-Top 60 Percent… Share of the labor force (ages 18-6…
##  4 9.0.Employer.… Employers (%)             Share of the labor force (ages 18-6…
##  5 9.0.Employer.… Employers-Bottom 40 Perc… Share of the labor force (ages 18-6…
##  6 9.0.Employer.… Employers-Top 60 Percent… Share of the labor force (ages 18-6…
##  7 9.0.Labor.All  Labor Force Participatio… Share of the population (ages 18-65…
##  8 9.0.Labor.B40  Labor Force Participatio… Share of the population (ages 18-65…
##  9 9.0.Labor.T60  Labor Force Participatio… Share of the population (ages 18-65…
## 10 9.0.SelfEmp.A… Self-Employed (%)         Share of the labor force (ages 18-6…
## # … with 235 more rows
```

```r
wb_search("labor force", fields = "indicator")  # limit search to just the indicator name
```

```
## # A tibble: 176 x 3
##    indicator_id  indicator                   indicator_desc                     
##    <chr>         <chr>                       <chr>                              
##  1 9.0.Labor.All Labor Force Participation … Share of the population (ages 18-6…
##  2 9.0.Labor.B40 Labor Force Participation … Share of the population (ages 18-6…
##  3 9.0.Labor.T60 Labor Force Participation … Share of the population (ages 18-6…
##  4 9.1.Labor.All Labor Force Participation … Share of the male population (ages…
##  5 9.1.Labor.B40 Labor Force Participation … Share of the male population (ages…
##  6 9.1.Labor.T60 Labor Force Participation … Share of the male population (ages…
##  7 9.2.Labor.All Labor Force Participation … Share of the female population (ag…
##  8 9.2.Labor.B40 Labor Force Participation … Share of the female population (ag…
##  9 9.2.Labor.T60 Labor Force Participation … Share of the female population (ag…
## 10 account.t.d.… Account, in labor force (%… The percentage of respondents who …
## # … with 166 more rows
```
…
Once you have the set of indicators you would like to obtain, you can use the `wb_data()` function to generate the API query and download the results. Let's say we want to obtain information on [the percent of females participating in the labor force](https://data.worldbank.org/indicator/SL.TLF.TOTL.FE.ZS?view=chart). The indicator ID is `SL.TLF.TOTL.FE.ZS`. We can download the indicator for all countries from 1990-2020 using:


```r
female_labor <- wb_data(
  indicator = "SL.TLF.TOTL.FE.ZS",
  start_date = 1990,
  end_date = 2020
)
female_labor
```

```
## # A tibble: 6,727 x 9
##    iso2c iso3c country  date SL.TLF.TOTL.FE.… unit  obs_status footnote
##    <chr> <chr> <chr>   <dbl>            <dbl> <chr> <chr>      <chr>   
##  1 AW    ABW   Aruba    1990               NA <NA>  <NA>       <NA>    
##  2 AW    ABW   Aruba    1991               NA <NA>  <NA>       <NA>    
##  3 AW    ABW   Aruba    1992               NA <NA>  <NA>       <NA>    
##  4 AW    ABW   Aruba    1993               NA <NA>  <NA>       <NA>    
##  5 AW    ABW   Aruba    1994               NA <NA>  <NA>       <NA>    
##  6 AW    ABW   Aruba    1995               NA <NA>  <NA>       <NA>    
##  7 AW    ABW   Aruba    1996               NA <NA>  <NA>       <NA>    
##  8 AW    ABW   Aruba    1997               NA <NA>  <NA>       <NA>    
##  9 AW    ABW   Aruba    1998               NA <NA>  <NA>       <NA>    
## 10 AW    ABW   Aruba    1999               NA <NA>  <NA>       <NA>    
## # … with 6,717 more rows, and 1 more variable: last_updated <date>
```

Note the column containing our indicator uses the indicator ID as its name. This is rather unintuitive, so we can adjust it directly in the function.


```r
female_labor <- wb_data(
  indicator = c("fem_lab_part" = "SL.TLF.TOTL.FE.ZS"),
  start_date = 1990,
  end_date = 2020
)
female_labor
```

```
## # A tibble: 6,727 x 9
##    iso2c iso3c country  date fem_lab_part unit  obs_status footnote last_updated
##    <chr> <chr> <chr>   <dbl>        <dbl> <chr> <chr>      <chr>    <date>      
##  1 AW    ABW   Aruba    1990           NA <NA>  <NA>       <NA>     2020-12-14  
##  2 AW    ABW   Aruba    1991           NA <NA>  <NA>       <NA>     2020-12-14  
##  3 AW    ABW   Aruba    1992           NA <NA>  <NA>       <NA>     2020-12-14  
##  4 AW    ABW   Aruba    1993           NA <NA>  <NA>       <NA>     2020-12-14  
##  5 AW    ABW   Aruba    1994           NA <NA>  <NA>       <NA>     2020-12-14  
##  6 AW    ABW   Aruba    1995           NA <NA>  <NA>       <NA>     2020-12-14  
##  7 AW    ABW   Aruba    1996           NA <NA>  <NA>       <NA>     2020-12-14  
##  8 AW    ABW   Aruba    1997           NA <NA>  <NA>       <NA>     2020-12-14  
##  9 AW    ABW   Aruba    1998           NA <NA>  <NA>       <NA>     2020-12-14  
## 10 AW    ABW   Aruba    1999           NA <NA>  <NA>       <NA>     2020-12-14  
## # … with 6,717 more rows
```
…
```
## Connecting to Manifesto Project DB API... 
## Connecting to Manifesto Project DB API... corpus version: 2020-1
```

```
## Warning: `tbl_df()` is deprecated as of dplyr 1.0.0.
## Please use `tibble::as_tibble()` instead.
## This warning is displayed once every 8 hours.
## Call `lifecycle::last_warnings()` to see where this warning was generated.
```

```
## # A tibble: 4,582 x 174
##    country countryname oecdmember eumember edate        date party partyname
##      <dbl> <chr>            <dbl>    <dbl> <date>      <dbl> <dbl> <chr>    
##  1      11 Sweden               0        0 1944-09-17 194409 11220 Communis…
##  2      11 Sweden               0        0 1944-09-17 194409 11320 Social D…
##  3      11 Sweden               0        0 1944-09-17 194409 11420 People’s…
##  4      11 Sweden               0        0 1944-09-17 194409 11620 Right Pa…
##  5      11 Sweden               0        0 1944-09-17 194409 11810 Agrarian…
##  6      11 Sweden               0        0 1948-09-19 194809 11220 Communis…
##  7      11 Sweden               0        0 1948-09-19 194809 11320 Social D…
##  8      11 Sweden               0        0 1948-09-19 194809 11420 People’s…
##  9      11 Sweden               0        0 1948-09-19 194809 11620 Right Pa…
## 10      11 Sweden               0        0 1948-09-19 194809 11810 Agrarian…
## # … with 4,572 more rows, and 166 more variables: partyabbrev <chr>,
## #   parfam <dbl>, coderid <dbl>, manual <dbl>, coderyear <dbl>,
## #   testresult <dbl>, testeditsim <dbl>, pervote <dbl>, voteest <dbl>,
## #   presvote <dbl>, absseat <dbl>, totseats <dbl>, progtype <dbl>,
## #   datasetorigin <dbl>, corpusversion <chr>, total <dbl>, peruncod <dbl>,
## #   per101 <dbl>, per102 <dbl>, per103 <dbl>, per104 <dbl>, per105 <dbl>,
## #   per106 <dbl>, per107 <dbl>, per108 <dbl>, per109 <dbl>, per110 <dbl>,
## #   per201 <dbl>, per202 <dbl>, per203 <dbl>, per204 <dbl>, per301 <dbl>,
## #   per302 <dbl>, per303 <dbl>, per304 <dbl>, per305 <dbl>, per401 <dbl>,
…
```r
asia10 <- get_decennial(geography = "state", variables = "P008006", year = 2010)
```

```
## Getting data from the 2010 decennial Census
```

```r
asia10
```

```
## # A tibble: 52 x 4
##    GEOID NAME        variable   value
##    <chr> <chr>       <chr>      <dbl>
##  1 01    Alabama     P008006    53595
##  2 02    Alaska      P008006    38135
##  3 04    Arizona     P008006   176695
##  4 05    Arkansas    P008006    36102
##  5 06    California  P008006  4861007
##  6 22    Louisiana   P008006    70132
##  7 21    Kentucky    P008006    48930
##  8 08    Colorado    P008006   139028
##  9 09    Connecticut P008006   135565
## 10 10    Delaware    P008006    28549
## # … with 42 more rows
```
…
```
## Getting data from the 2010 decennial Census
```

```r
asia_pop
```

```
## # A tibble: 52 x 5
##    GEOID NAME                  P008001 P008006 pct_asia
##    <chr> <chr>                   <dbl>   <dbl>    <dbl>
##  1 01    Alabama               4779736   53595   0.0112
##  2 02    Alaska                 710231   38135   0.0537
##  3 04    Arizona               6392017  176695   0.0276
##  4 05    Arkansas              2915918   36102   0.0124
##  5 06    California           37253956 4861007   0.130 
##  6 08    Colorado              5029196  139028   0.0276
##  7 09    Connecticut           3574097  135565   0.0379
##  8 10    Delaware               897934   28549   0.0318
##  9 11    District of Columbia   601723   21056   0.0350
## 10 12    Florida              18801310  454821   0.0242
## # … with 42 more rows
```
…
```
## Getting data from the 2015-2019 5-year ACS
```

```r
usa_inc
```

```
## # A tibble: 52 x 5
##    GEOID NAME                 variable  estimate   moe
##    <chr> <chr>                <chr>        <dbl> <dbl>
##  1 01    Alabama              medincome    50536   304
##  2 02    Alaska               medincome    77640  1015
##  3 04    Arizona              medincome    58945   266
##  4 05    Arkansas             medincome    47597   328
##  5 06    California           medincome    75235   232
##  6 08    Colorado             medincome    72331   370
##  7 09    Connecticut          medincome    78444   553
##  8 10    Delaware             medincome    68287   696
##  9 11    District of Columbia medincome    86420  1008
## 10 12    Florida              medincome    55660   220
## # … with 42 more rows
```
…
