Visualizing spatial data II
…
## Points

```r
crimes <- here("data", "chicago-crimes.csv") %>%
  read_csv()
```

```r
crimes_homicide <- filter(.data = crimes, `Primary Type` == "HOMICIDE")
crimes_homicide
```

```
## # A tibble: 676 × 22
##        ID Case …¹ Date  Block IUCR  Prima…² Descr…³ Locat…⁴ Arrest Domes…⁵ Beat 
##     <dbl> <chr>   <chr> <chr> <chr> <chr>   <chr>   <chr>   <lgl>  <lgl>   <chr>
##  1 1.08e7 JA1194… 01/1… 023X… 0142  HOMICI… RECKLE… STREET  TRUE   FALSE   0911 
##  2 1.08e7 JA1383… 02/0… 013X… 0142  HOMICI… RECKLE… STREET  TRUE   FALSE   1022 
##  3 1.12e7 JA5493… 12/1… 038X… 0142  HOMICI… RECKLE… STREET  TRUE   FALSE   1112 
##  4 2.31e4 JA1002… 01/0… 046X… 0110  HOMICI… FIRST … TAVERN  TRUE   FALSE   1914 
##  5 2.31e4 JA1002… 01/0… 046X… 0110  HOMICI… FIRST … STREET  FALSE  FALSE   1113 
##  6 2.31e4 JA1026… 01/0… 034X… 0110  HOMICI… FIRST … STREET  FALSE  FALSE   1123 
##  7 2.31e4 JA1034… 01/0… 032X… 0110  HOMICI… FIRST … ALLEY   FALSE  FALSE   1134 
##  8 2.31e4 JA1026… 01/0… 034X… 0110  HOMICI… FIRST … STREET  FALSE  FALSE   1123 
##  9 2.31e4 JA1034… 01/0… 032X… 0110  HOMICI… FIRST … ALLEY   FALSE  FALSE   1134 
## 10 2.31e4 HZ5648… 01/0… 086X… 0110  HOMICI… FIRST … PORCH   FALSE  FALSE   0632 
## # … with 666 more rows, 11 more variables: District <chr>, Ward <dbl>,
## #   `Community Area` <dbl>, `FBI Code` <chr>, `X Coordinate` <dbl>,
## #   `Y Coordinate` <dbl>, Year <dbl>, `Updated On` <chr>, Latitude <dbl>,
## #   Longitude <dbl>, Location <chr>, and abbreviated variable names
## #   ¹​`Case Number`, ²​`Primary Type`, ³​Description, ⁴​`Location Description`,
## #   ⁵​Domestic
## # ℹ Use `print(n = ...)` to see more rows, and `colnames()` to see all variable names
```
…
## Converting to `sf` data frame

```r
crimes_homicide_sf <- st_as_sf(x = crimes_homicide, coords = c("Longitude", "Latitude"))
st_crs(crimes_homicide_sf) <- 4326 # set the coordinate reference system
crimes_homicide_sf
```

```
## Simple feature collection with 676 features and 20 fields
## Geometry type: POINT
## Dimension:     XY
## Bounding box:  xmin: -87.83662 ymin: 41.65306 xmax: -87.53287 ymax: 42.02164
## Geodetic CRS:  WGS 84
## # A tibble: 676 × 21
##        ID Case …¹ Date  Block IUCR  Prima…² Descr…³ Locat…⁴ Arrest Domes…⁵ Beat 
##  *  <dbl> <chr>   <chr> <chr> <chr> <chr>   <chr>   <chr>   <lgl>  <lgl>   <chr>
##  1 1.08e7 JA1194… 01/1… 023X… 0142  HOMICI… RECKLE… STREET  TRUE   FALSE   0911 
##  2 1.08e7 JA1383… 02/0… 013X… 0142  HOMICI… RECKLE… STREET  TRUE   FALSE   1022 
##  3 1.12e7 JA5493… 12/1… 038X… 0142  HOMICI… RECKLE… STREET  TRUE   FALSE   1112 
##  4 2.31e4 JA1002… 01/0… 046X… 0110  HOMICI… FIRST … TAVERN  TRUE   FALSE   1914 
##  5 2.31e4 JA1002… 01/0… 046X… 0110  HOMICI… FIRST … STREET  FALSE  FALSE   1113 
##  6 2.31e4 JA1026… 01/0… 034X… 0110  HOMICI… FIRST … STREET  FALSE  FALSE   1123 
##  7 2.31e4 JA1034… 01/0… 032X… 0110  HOMICI… FIRST … ALLEY   FALSE  FALSE   1134 
##  8 2.31e4 JA1026… 01/0… 034X… 0110  HOMICI… FIRST … STREET  FALSE  FALSE   1123 
##  9 2.31e4 JA1034… 01/0… 032X… 0110  HOMICI… FIRST … ALLEY   FALSE  FALSE   1134 
## 10 2.31e4 HZ5648… 01/0… 086X… 0110  HOMICI… FIRST … PORCH   FALSE  FALSE   0632 
## # … with 666 more rows, 10 more variables: District <chr>, Ward <dbl>,
## #   `Community Area` <dbl>, `FBI Code` <chr>, `X Coordinate` <dbl>,
## #   `Y Coordinate` <dbl>, Year <dbl>, `Updated On` <chr>, Location <chr>,
## #   geometry <POINT [°]>, and abbreviated variable names ¹​`Case Number`,
## #   ²​`Primary Type`, ³​Description, ⁴​`Location Description`, ⁵​Domestic
## # ℹ Use `print(n = ...)` to see more rows, and `colnames()` to see all variable names
```
…
---

## Fill (choropleths)

```r
fb_state <- read_csv(file = here("data", "foreign-born.csv"))
```

```r
fb_state
```

```
## # A tibble: 52 × 6
##    GEOID NAME                    total   native  foreign pct_foreign
##    <chr> <chr>                   <dbl>    <dbl>    <dbl>       <dbl>
##  1 01    Alabama               4876250  4703303   172947      0.0355
##  2 02    Alaska                 737068   679401    57667      0.0782
##  3 04    Arizona               7050299  6109648   940651      0.133 
##  4 05    Arkansas              2999370  2854323   145047      0.0484
##  5 06    California           39283497 28736287 10547210      0.268 
##  6 08    Colorado              5610349  5063836   546513      0.0974
##  7 10    Delaware               957248   865775    91473      0.0956
##  8 11    District of Columbia   692683   597618    95065      0.137 
##  9 09    Connecticut           3575074  3054123   520951      0.146 
## 10 12    Florida              20901636 16576836  4324800      0.207 
## # … with 42 more rows
## # ℹ Use `print(n = ...)` to see more rows
```
…
.panel2-crimes-agg-map-auto[

```
## Simple feature collection with 687 features and 29 fields
## Geometry type: MULTIPOLYGON
## Dimension:     XY
## Bounding box:  xmin: -87.94011 ymin: 41.64454 xmax: -87.52414 ymax: 42.02304
## Geodetic CRS:  WGS 84
## # A tibble: 687 × 30
## # Groups:   community [77]
##    community area  shape…¹ perim…² area_…³ area_…⁴ comar…⁵ comarea shape…⁶    ID
##    <chr>     <chr> <chr>   <chr>   <chr>   <chr>   <chr>   <chr>   <chr>   <dbl>
##  1 DOUGLAS   0     460046… 0       35      35      0       0       31027.… 23297
##  2 DOUGLAS   0     460046… 0       35      35      0       0       31027.… 23316
##  3 DOUGLAS   0     460046… 0       35      35      0       0       31027.… 23446
##  4 DOUGLAS   0     460046… 0       35      35      0       0       31027.… 23499
##  5 OAKLAND   0     169139… 0       36      36      0       0       19565.…    NA
##  6 FULLER P… 0     199167… 0       37      37      0       0       25339.… 23340
##  7 GRAND BO… 0     484925… 0       38      38      0       0       28196.… 23116
##  8 GRAND BO… 0     484925… 0       38      38      0       0       28196.… 23406
##  9 GRAND BO… 0     484925… 0       38      38      0       0       28196.… 23407
## 10 GRAND BO… 0     484925… 0       38      38      0       0       28196.… 23414
## # … with 677 more rows, 20 more variables: `Case Number` <chr>, Date <chr>,
## #   Block <chr>, IUCR <chr>, `Primary Type` <chr>, Description <chr>,
## #   `Location Description` <chr>, Arrest <lgl>, Domestic <lgl>, Beat <chr>,
## #   District <chr>, Ward <dbl>, `Community Area` <dbl>, `FBI Code` <chr>,
## #   `X Coordinate` <dbl>, `Y Coordinate` <dbl>, Year <dbl>, `Updated On` <chr>,
## #   Location <chr>, geometry <MULTIPOLYGON [°]>, and abbreviated variable names
## #   ¹​shape_area, ²​perimeter, ³​area_num_1, ⁴​area_numbe, ⁵​comarea_id, …
## # ℹ Use `print(n = ...)` to see more rows, and `colnames()` to see all variable names
```
…
.panel2-crimes-agg-map-auto[

```
## Simple feature collection with 77 features and 2 fields
## Geometry type: GEOMETRY
## Dimension:     XY
## Bounding box:  xmin: -87.94011 ymin: 41.64454 xmax: -87.52414 ymax: 42.02304
## Geodetic CRS:  WGS 84
## # A tibble: 77 × 3
##    community          n                                                 geometry
##  * <chr>          <int>                                            <POLYGON [°]>
##  1 ALBANY PARK        1 ((-87.70454 41.97382, -87.70478 41.97395, -87.70501 41.…
##  2 ARCHER HEIGHTS     3 ((-87.71437 41.82632, -87.71523 41.82605, -87.71573 41.…
##  3 ARMOUR SQUARE      1 ((-87.62918 41.84592, -87.62919 41.84613, -87.62919 41.…
##  4 ASHBURN            6 ((-87.71278 41.75739, -87.71297 41.75743, -87.71308 41.…
##  5 AUBURN GRESHAM    27 ((-87.64028 41.75614, -87.64052 41.75613, -87.64058 41.…
##  6 AUSTIN            83 ((-87.79152 41.91813, -87.79258 41.91852, -87.79387 41.…
##  7 AVALON PARK        4 ((-87.58582 41.75151, -87.58582 41.75167, -87.58587 41.…
##  8 AVONDALE           3 ((-87.688 41.93611, -87.68804 41.93614, -87.68808 41.93…
##  9 BELMONT CRAGIN     8 ((-87.74135 41.91422, -87.74137 41.91491, -87.74137 41.…
## 10 BEVERLY            1 ((-87.67337 41.73566, -87.67347 41.73566, -87.67349 41.…
## # … with 67 more rows
## # ℹ Use `print(n = ...)` to see more rows
```
…
