…
**Mapping** defines how the variables are applied to the plot. So if we were graphing information from `penguins`, we might map a penguin's flipper length to the $x$ position and body mass to the $y$ position.


```r
penguins %>%
  select(flipper_length_mm, body_mass_g) %>%
  rename(
    x = flipper_length_mm,
    y = body_mass_g
  )
```

```
## # A tibble: 344 × 2
##        x     y
##    <int> <int>
##  1   181  3750
##  2   186  3800
##  3   195  3250
##  4    NA    NA
##  5   193  3450
##  6   190  3650
##  7   181  3625
##  8   195  4675
##  9   193  3475
## 10   190  4250
## # … with 334 more rows
## # ℹ Use `print(n = ...)` to see more rows
```

## Statistical transformation

A **statistical transformation** (*stat*) transforms the data, generally by summarizing the information. For instance, in a bar graph you typically are not trying to graph the raw data because this doesn't make any inherent sense. Instead, you might summarize the data by graphing the total number of observations within a set of categories. Or if you have a dataset with many observations, you might transform the data into a smoothing line which summarizes the overall pattern of the relationship between variables by calculating the mean of $y$ conditional on $x$.

A stat is a function that takes in a dataset as the input and returns a dataset as the output; a stat can add new variables to the original dataset, or create an entirely new dataset. So instead of graphing this data in its raw form:


```r
penguins %>%
  select(island)
```

```
## # A tibble: 344 × 1
##    island   
##    <fct>    
##  1 Torgersen
##  2 Torgersen
##  3 Torgersen
##  4 Torgersen
##  5 Torgersen
##  6 Torgersen
##  7 Torgersen
##  8 Torgersen
##  9 Torgersen
## 10 Torgersen
## # … with 334 more rows
## # ℹ Use `print(n = ...)` to see more rows
```
…
