Exploratory data analysis
…
Resources for exploring and visualizing data

Data Visualization with ggplot2 Cheat Sheet - print this cheatsheet off! It is a great guide for implementing functions from ggplot2. I strongly encourage you to refer to the first page. If you ever wonder what type of graph is appropriate for the variables you wish to visualize, this chart will guide you a graph that makes sense given the number and type (continuous vs. discrete) of variables.

Exploring college education

The Department of Education collects annual statistics on colleges and universities in the United States. I have included a subset of this data from 2013 in the rcfss library from GitHub. To install the package, run the command devtools::install_github("uc-cfss/rcfss") in the console.

If you don’t already have the devtools library installed, you will get an error. Go back and install this first using install.packages("devtools"), then run devtools::install_github("uc-cfss/rcfss").

library(rcfss)
data("scorecard")
scorecard

## # A tibble: 1,849 × 12
##    unitid                                 name state                type
##     <int>                                <chr> <chr>               <chr>
## 1  450234      ITT Technical Institute-Wichita    KS Private, for-profit
## 2  448479 ITT Technical Institute-Swartz Creek    MI Private, for-profit
## 3  456427      ITT Technical Institute-Concord    CA Private, for-profit
## 4  459596  ITT Technical Institute-Tallahassee    FL Private, for-profit
## 5  459851        Herzing University-Brookfield    WI Private, for-profit
## 6  482477            DeVry University-Illinois    IL Private, for-profit
## 7  482547              DeVry University-Nevada    NV Private, for-profit
## 8  482592              DeVry University-Oregon    OR Private, for-profit
## 9  482617           DeVry University-Tennessee    TN Private, for-profit
## 10 482662          DeVry University-Washington    WA Private, for-profit
## # ... with 1,839 more rows, and 8 more variables: cost <int>,
## #   admrate <dbl>, satavg <dbl>, avgfacsal <dbl>, pctpell <dbl>,
## #   comprate <dbl>, firstgen <dbl>, debt <dbl>
…
