Pipes in R
…
## Loading tidyverse: ggplot2
## Loading tidyverse: tibble
## Loading tidyverse: tidyr
## Loading tidyverse: readr
## Loading tidyverse: purrr
## Loading tidyverse: dplyr

## Conflicts with tidy packages ----------------------------------------------

## filter(): dplyr, stats
## lag():    dplyr, stats

diamonds

## # A tibble: 53,940 × 10
##    carat       cut color clarity depth table price     x     y     z
##    <dbl>     <ord> <ord>   <ord> <dbl> <dbl> <int> <dbl> <dbl> <dbl>
## 1   0.23     Ideal     E     SI2  61.5    55   326  3.95  3.98  2.43
## 2   0.21   Premium     E     SI1  59.8    61   326  3.89  3.84  2.31
## 3   0.23      Good     E     VS1  56.9    65   327  4.05  4.07  2.31
## 4   0.29   Premium     I     VS2  62.4    58   334  4.20  4.23  2.63
## 5   0.31      Good     J     SI2  63.3    58   335  4.34  4.35  2.75
## 6   0.24 Very Good     J    VVS2  62.8    57   336  3.94  3.96  2.48
## 7   0.24 Very Good     I    VVS1  62.3    57   336  3.95  3.98  2.47
## 8   0.26 Very Good     H     SI1  61.9    55   337  4.07  4.11  2.53
## 9   0.22      Fair     E     VS2  65.1    61   337  3.87  3.78  2.49
## 10  0.23 Very Good     H     VS1  59.4    61   338  4.00  4.05  2.39
## # ... with 53,930 more rows
…
Write your code using all four methods:

Intermediate steps

Overwrite the original (make sure to save a copy of gun_deaths as gun_deaths2 for this code chunk)

Function composition

Piping

library(rcfss)
data("gun_deaths")
gun_deaths

## # A tibble: 100,798 × 10
##       id  year month       intent police   sex   age
##    <int> <int> <dbl>        <chr>  <int> <chr> <int>
## 1      1  2012     1      Suicide      0     M    34
## 2      2  2012     1      Suicide      0     F    21
## 3      3  2012     1      Suicide      0     M    60
## 4      4  2012     2      Suicide      0     M    64
## 5      5  2012     2      Suicide      0     M    31
## 6      6  2012     2      Suicide      0     M    17
## 7      7  2012     2 Undetermined      0     M    48
## 8      8  2012     3      Suicide      0     M    41
## 9      9  2012     2   Accidental      0     M    50
## 10    10  2012     2      Suicide      0     M    NA
## # ... with 100,788 more rows, and 3 more variables: race <chr>,
## #   place <chr>, education <fctr>
…
