Visualizations and the grammar of graphics
…
Mapping defines how the variables are applied to the graphic. So if we were graphing information from mpg, we might map a car’s engine displacement to the \(x\) position and highway mileage to the \(y\) position.

mpg %>%
  select(displ, hwy) %>%
  rename(x = displ,
         y = hwy)

## # A tibble: 234 × 2
##        x     y
##    <dbl> <int>
## 1    1.8    29
## 2    1.8    29
## 3    2.0    31
## 4    2.0    30
## 5    2.8    26
## 6    2.8    26
## 7    3.1    27
## 8    1.8    26
## 9    1.8    25
## 10   2.0    28
## # ... with 224 more rows

Statistical transformation

A statistical transformation (stat) transforms the data, generally by summarizing the information. For instance, in a bar graph you typically are not trying to graph the raw data because this doesn’t make any inherent sense. Instead, you might summarize the data by graphing the total number of observations within a set of categories. Or if you have a dataset with many observations, you might transform the data into a smoothing line which summarizes the overall pattern of the relationship between variables.

A stat takes a dataset as input and returns a dataset as output, and so a stat can add new variables to the original dataset. So instead of graphing this data in its raw form:

mpg %>%
  select(cyl)

## # A tibble: 234 × 1
##      cyl
##    <int>
## 1      4
## 2      4
## 3      4
## 4      4
## 5      6
## 6      6
## 7      6
## 8      4
## 9      4
## 10     4
## # ... with 224 more rows
…
“Carte figurative des pertes successives en hommes de l’Armee Français dans la campagne de Russe 1812–1813” by Charles Joseph Minard

The graphic is notable for its representation in two dimensions of six types of data: the number of Napoleon’s troops; distance; temperature; the latitude and longitude; direction of travel; and location relative to specific dates.

Building Minard’s map in R

# get data on troop movements and city names
troops <- read_table("data/minard-troops.txt")
cities <- read_table("data/minard-cities.txt")
troops

## # A tibble: 51 × 5
##     long   lat survivors direction group
##    <dbl> <dbl>     <int>     <chr> <int>
## 1   24.0  54.9    340000         A     1
## 2   24.5  55.0    340000         A     1
## 3   25.5  54.5    340000         A     1
## 4   26.0  54.7    320000         A     1
## 5   27.0  54.8    300000         A     1
## 6   28.0  54.9    280000         A     1
## 7   28.5  55.0    240000         A     1
## 8   29.0  55.1    210000         A     1
## 9   30.0  55.2    180000         A     1
## 10  30.3  55.3    175000         A     1
## # ... with 41 more rows
…
data("gapminder")
str(gapminder)

## Classes 'tbl_df', 'tbl' and 'data.frame':    1704 obs. of  6 variables:
##  $ country  : Factor w/ 142 levels "Afghanistan",..: 1 1 1 1 1 1 1 1 1 1 ...
##  $ continent: Factor w/ 5 levels "Africa","Americas",..: 3 3 3 3 3 3 3 3 3 3 ...
##  $ year     : int  1952 1957 1962 1967 1972 1977 1982 1987 1992 1997 ...
##  $ lifeExp  : num  28.8 30.3 32 34 36.1 ...
##  $ pop      : int  8425333 9240934 10267083 11537966 13079460 14880372 12881816 13867957 16317921 22227415 ...
##  $ gdpPercap: num  779 821 853 836 740 ...

gapminder

## # A tibble: 1,704 × 6
##        country continent  year lifeExp      pop gdpPercap
##         <fctr>    <fctr> <int>   <dbl>    <int>     <dbl>
## 1  Afghanistan      Asia  1952  28.801  8425333  779.4453
## 2  Afghanistan      Asia  1957  30.332  9240934  820.8530
## 3  Afghanistan      Asia  1962  31.997 10267083  853.1007
## 4  Afghanistan      Asia  1967  34.020 11537966  836.1971
## 5  Afghanistan      Asia  1972  36.088 13079460  739.9811
## 6  Afghanistan      Asia  1977  38.438 14880372  786.1134
## 7  Afghanistan      Asia  1982  39.854 12881816  978.0114
## 8  Afghanistan      Asia  1987  40.822 13867957  852.3959
## 9  Afghanistan      Asia  1992  41.674 16317921  649.3414
## 10 Afghanistan      Asia  1997  41.763 22227415  635.3414
## # ... with 1,694 more rows
…
