Data transformation
…
— Donald J. Trump ((???)) November 7, 2012

Therefore many R functions can be written using American or British variants:

summarize() = summarise()

color() = colour()

Saving transformed data

dplyr never overwrites existing data. If you want a copy of the transformed data for later use in the program, you need to explicitly save it. You can do this by using the assignment operator <-:

filter(diamonds, cut == "Ideal")  # printed, but not saved

## # A tibble: 21,551 × 10
##    carat   cut color clarity depth table price     x     y     z
##    <dbl> <ord> <ord>   <ord> <dbl> <dbl> <int> <dbl> <dbl> <dbl>
## 1   0.23 Ideal     E     SI2  61.5    55   326  3.95  3.98  2.43
## 2   0.23 Ideal     J     VS1  62.8    56   340  3.93  3.90  2.46
## 3   0.31 Ideal     J     SI2  62.2    54   344  4.35  4.37  2.71
## 4   0.30 Ideal     I     SI2  62.0    54   348  4.31  4.34  2.68
## 5   0.33 Ideal     I     SI2  61.8    55   403  4.49  4.51  2.78
## 6   0.33 Ideal     I     SI2  61.2    56   403  4.49  4.50  2.75
## 7   0.33 Ideal     J     SI1  61.1    56   403  4.49  4.55  2.76
## 8   0.23 Ideal     G     VS1  61.9    54   404  3.93  3.95  2.44
## 9   0.32 Ideal     I     SI1  60.9    55   404  4.45  4.48  2.72
## 10  0.30 Ideal     I     SI2  61.0    59   405  4.30  4.33  2.63
## # ... with 21,541 more rows

diamonds_ideal <- filter(diamonds, cut == "Ideal")  # saved, but not printed
(diamonds_ideal <- filter(diamonds, cut == "Ideal"))  # saved and printed

## # A tibble: 21,551 × 10
##    carat   cut color clarity depth table price     x     y     z
##    <dbl> <ord> <ord>   <ord> <dbl> <dbl> <int> <dbl> <dbl> <dbl>
## 1   0.23 Ideal     E     SI2  61.5    55   326  3.95  3.98  2.43
## 2   0.23 Ideal     J     VS1  62.8    56   340  3.93  3.90  2.46
## 3   0.31 Ideal     J     SI2  62.2    54   344  4.35  4.37  2.71
## 4   0.30 Ideal     I     SI2  62.0    54   348  4.31  4.34  2.68
## 5   0.33 Ideal     I     SI2  61.8    55   403  4.49  4.51  2.78
## 6   0.33 Ideal     I     SI2  61.2    56   403  4.49  4.50  2.75
## 7   0.33 Ideal     J     SI1  61.1    56   403  4.49  4.55  2.76
## 8   0.23 Ideal     G     VS1  61.9    54   404  3.93  3.95  2.44
## 9   0.32 Ideal     I     SI1  60.9    55   404  4.45  4.48  2.72
## 10  0.30 Ideal     I     SI2  61.0    59   405  4.30  4.33  2.63
## # ... with 21,541 more rows
…
Complete set of boolean operations (Wickham 2016)

For example, using the flights data demonstrated in Chapter 5 of R for Data Science, to find all flights that departed in January or February:

library(nycflights13)
filter(flights, month == 1 | month == 2)

## # A tibble: 51,955 × 19
##     year month   day dep_time sched_dep_time dep_delay arr_time
##    <int> <int> <int>    <int>          <int>     <dbl>    <int>
## 1   2013     1     1      517            515         2      830
## 2   2013     1     1      533            529         4      850
## 3   2013     1     1      542            540         2      923
## 4   2013     1     1      544            545        -1     1004
## 5   2013     1     1      554            600        -6      812
## 6   2013     1     1      554            558        -4      740
## 7   2013     1     1      555            600        -5      913
## 8   2013     1     1      557            600        -3      709
## 9   2013     1     1      557            600        -3      838
## 10  2013     1     1      558            600        -2      753
## # ... with 51,945 more rows, and 12 more variables: sched_arr_time <int>,
## #   arr_delay <dbl>, carrier <chr>, flight <int>, tailnum <chr>,
## #   origin <chr>, dest <chr>, air_time <dbl>, distance <dbl>, hour <dbl>,
## #   minute <dbl>, time_hour <dttm>
…
summarize() collapses a data frame to a single row:

summarize(flights, delay = mean(dep_delay, na.rm = TRUE))

## # A tibble: 1 × 1
##      delay
##      <dbl>
## 1 12.63907

Alone, summarize() is not terribly useful unless we pair it with group_by(). This changes the unit of analysis from the complete dataset to individual groups. Then, when you use the dplyr verbs on a grouped data frame they’ll be automatically applied “by group”. For example, if we applied exactly the same code to a data frame grouped by date, we get the average delay per date:

by_day <- group_by(flights, year, month, day)
summarize(by_day, delay = mean(dep_delay, na.rm = TRUE))

## Source: local data frame [365 x 4]
## Groups: year, month [?]
## 
##     year month   day     delay
##    <int> <int> <int>     <dbl>
## 1   2013     1     1 11.548926
## 2   2013     1     2 13.858824
## 3   2013     1     3 10.987832
## 4   2013     1     4  8.951595
## 5   2013     1     5  5.732218
## 6   2013     1     6  7.148014
## 7   2013     1     7  5.417204
## 8   2013     1     8  2.553073
## 9   2013     1     9  2.276477
## 10  2013     1    10  2.844995
## # ... with 355 more rows
…
