Iteration
…
Here, preallocating space for the vector cuts the computation time by a factor of 3.

Exercise: write a for loop

Mean of columns in mtcars

Write a for loop that calculates the arithmetic mean for every column in mtcars.

as_tibble(mtcars)

## # A tibble: 32 × 11
##      mpg   cyl  disp    hp  drat    wt  qsec    vs    am  gear  carb
## *  <dbl> <dbl> <dbl> <dbl> <dbl> <dbl> <dbl> <dbl> <dbl> <dbl> <dbl>
## 1   21.0     6 160.0   110  3.90 2.620 16.46     0     1     4     4
## 2   21.0     6 160.0   110  3.90 2.875 17.02     0     1     4     4
## 3   22.8     4 108.0    93  3.85 2.320 18.61     1     1     4     1
## 4   21.4     6 258.0   110  3.08 3.215 19.44     1     0     3     1
## 5   18.7     8 360.0   175  3.15 3.440 17.02     0     0     3     2
## 6   18.1     6 225.0   105  2.76 3.460 20.22     1     0     3     1
## 7   14.3     8 360.0   245  3.21 3.570 15.84     0     0     3     4
## 8   24.4     4 146.7    62  3.69 3.190 20.00     1     0     4     2
## 9   22.8     4 140.8    95  3.92 3.150 22.90     1     0     4     2
## 10  19.2     6 167.6   123  3.92 3.440 18.30     1     0     4     4
## # ... with 22 more rows
…
output

##  [1]  20.090625   6.187500 230.721875 146.687500   3.596563   3.217250
##  [7]  17.848750   0.437500   0.406250   3.687500   2.812500

Maximum value in each column of diamonds

Write a for loop that calculates the maximum value in each column of diamonds.

diamonds

## # A tibble: 53,940 × 10
##    carat       cut color clarity depth table price     x     y     z
##    <dbl>     <ord> <ord>   <ord> <dbl> <dbl> <int> <dbl> <dbl> <dbl>
## 1   0.23     Ideal     E     SI2  61.5    55   326  3.95  3.98  2.43
## 2   0.21   Premium     E     SI1  59.8    61   326  3.89  3.84  2.31
## 3   0.23      Good     E     VS1  56.9    65   327  4.05  4.07  2.31
## 4   0.29   Premium     I     VS2  62.4    58   334  4.20  4.23  2.63
## 5   0.31      Good     J     SI2  63.3    58   335  4.34  4.35  2.75
## 6   0.24 Very Good     J    VVS2  62.8    57   336  3.94  3.96  2.48
## 7   0.24 Very Good     I    VVS1  62.3    57   336  3.95  3.98  2.47
## 8   0.26 Very Good     H     SI1  61.9    55   337  4.07  4.11  2.53
## 9   0.22      Fair     E     VS2  65.1    61   337  3.87  3.78  2.49
## 10  0.23 Very Good     H     VS1  59.4    61   338  4.00  4.05  2.39
## # ... with 53,930 more rows
…
df %>%
  map_dbl(mean, na.rm = TRUE)

##          a          b          c          d 
## -0.3831574 -0.1181707 -0.3879468 -0.7661931

Exercise: rewrite our for loops using a map() function

Mean of columns in mtcars

Write a map() function that calculates the arithmetic mean for every column in mtcars.

as_tibble(mtcars)

## # A tibble: 32 × 11
##      mpg   cyl  disp    hp  drat    wt  qsec    vs    am  gear  carb
## *  <dbl> <dbl> <dbl> <dbl> <dbl> <dbl> <dbl> <dbl> <dbl> <dbl> <dbl>
## 1   21.0     6 160.0   110  3.90 2.620 16.46     0     1     4     4
## 2   21.0     6 160.0   110  3.90 2.875 17.02     0     1     4     4
## 3   22.8     4 108.0    93  3.85 2.320 18.61     1     1     4     1
## 4   21.4     6 258.0   110  3.08 3.215 19.44     1     0     3     1
## 5   18.7     8 360.0   175  3.15 3.440 17.02     0     0     3     2
## 6   18.1     6 225.0   105  2.76 3.460 20.22     1     0     3     1
## 7   14.3     8 360.0   245  3.21 3.570 15.84     0     0     3     4
## 8   24.4     4 146.7    62  3.69 3.190 20.00     1     0     4     2
## 9   22.8     4 140.8    95  3.92 3.150 22.90     1     0     4     2
## 10  19.2     6 167.6   123  3.92 3.440 18.30     1     0     4     4
## # ... with 22 more rows
…
map_dbl(mtcars, mean)

##        mpg        cyl       disp         hp       drat         wt 
##  20.090625   6.187500 230.721875 146.687500   3.596563   3.217250 
##       qsec         vs         am       gear       carb 
##  17.848750   0.437500   0.406250   3.687500   2.812500

Maximum value in each column of diamonds

Write a map() function that calculates the maximum value in each column of diamonds.

diamonds

## # A tibble: 53,940 × 10
##    carat       cut color clarity depth table price     x     y     z
##    <dbl>     <ord> <ord>   <ord> <dbl> <dbl> <int> <dbl> <dbl> <dbl>
## 1   0.23     Ideal     E     SI2  61.5    55   326  3.95  3.98  2.43
## 2   0.21   Premium     E     SI1  59.8    61   326  3.89  3.84  2.31
## 3   0.23      Good     E     VS1  56.9    65   327  4.05  4.07  2.31
## 4   0.29   Premium     I     VS2  62.4    58   334  4.20  4.23  2.63
## 5   0.31      Good     J     SI2  63.3    58   335  4.34  4.35  2.75
## 6   0.24 Very Good     J    VVS2  62.8    57   336  3.94  3.96  2.48
## 7   0.24 Very Good     I    VVS1  62.3    57   336  3.95  3.98  2.47
## 8   0.26 Very Good     H     SI1  61.9    55   337  4.07  4.11  2.53
## 9   0.22      Fair     E     VS2  65.1    61   337  3.87  3.78  2.49
## 10  0.23 Very Good     H     VS1  59.4    61   338  4.00  4.05  2.39
## # ... with 53,930 more rows
…
