Tidy data
…
Important info:

Name - pretty obvious

50:350 - column names define different lengths of time

Cell values are scores associated with each name and length of time

 Click for a hint

Tidy data structure

## # A tibble: 28 × 3
##      Name  Time Score
##    <fctr> <int> <dbl>
## 1   Carla    50   1.2
## 2   Carla   100   1.8
## 3   Carla   150   2.2
## 4   Carla   200   2.3
## 5   Carla   250   3.0
## 6   Carla   300   2.5
## 7   Carla   350   1.8
## 8   Karen    50   1.3
## 9   Karen   100   1.7
## 10  Karen   150   1.9
## # ... with 18 more rows

 Click for the solution

This is essentially a gathering operation. Except for the Name column, the remaining columns are actually one variable spread across multiple columns. The column names are a distinct variable, and the columns’ values are another variable. We want to gather these columns. The key will tell us the original column name, and the value will give us the values in the cells. Because the column names are actually numeric values, we set convert = TRUE to coerce the new Time column into a numeric column (or vector). (The last line isn’t necessary, but sorts the data frame in a consistent manner.)

race %>%
  gather(Time, Score, -Name, convert = TRUE) %>%
  arrange(Name, Time)

## # A tibble: 28 × 3
##      Name  Time Score
##    <fctr> <int> <dbl>
## 1   Carla    50   1.2
## 2   Carla   100   1.8
## 3   Carla   150   2.2
## 4   Carla   200   2.3
## 5   Carla   250   3.0
## 6   Carla   300   2.5
## 7   Carla   350   1.8
## 8   Karen    50   1.3
## 9   Karen   100   1.7
## 10  Karen   150   1.9
## # ... with 18 more rows
…
 Click for the solution

In this example, the basic unit of observation is the test. Each individual takes two separate tests (labeled 1 and 2) at multiple points in time: during each quarter (Fall, Winter, Spring) as well as in multiple years (2008 and 2009). So our final data frame should contain five columns: ID (identifying the student), Year (year the test was taken), Quarter (quarter in which the test was taken), Test1 (score on the first test), and Test2 (score on the second test).

Let’s start with the gathering operation: we want to gather Fall, Winter, and Spring into a single column (we can use the inclusive select function : to gather these three columns):

grades %>%
  gather(key = Quarter, value = Score, Fall:Winter)

## # A tibble: 36 × 5
##       ID  Test  Year Quarter Score
##    <int> <int> <int>   <chr> <int>
## 1      1     1  2008    Fall    15
## 2      1     1  2009    Fall    12
## 3      1     2  2008    Fall    22
## 4      1     2  2009    Fall    10
## 5      2     1  2008    Fall    12
## 6      2     1  2009    Fall    16
## 7      2     2  2008    Fall    13
## 8      2     2  2009    Fall    23
## 9      3     1  2008    Fall    11
## 10     3     1  2009    Fall    13
## # ... with 26 more rows
…
This is an acceptable solution, but look what happened to the column names for each test: they’re labeled as numbers (1 and 2). We’d rather give columns text labels, since those are easier to reference in our code. We can use a function called str_c() from the stringr library to add text to the Test column before we spread it. str_c() combines two or more values together to create a single value:1

library(stringr)

grades %>%
  gather(Quarter, Score, Fall:Winter) %>%
  mutate(Test = str_c("Test", Test))

## # A tibble: 36 × 5
##       ID  Test  Year Quarter Score
##    <int> <chr> <int>   <chr> <int>
## 1      1 Test1  2008    Fall    15
## 2      1 Test1  2009    Fall    12
## 3      1 Test2  2008    Fall    22
## 4      1 Test2  2009    Fall    10
## 5      2 Test1  2008    Fall    12
## 6      2 Test1  2009    Fall    16
## 7      2 Test2  2008    Fall    13
## 8      2 Test2  2009    Fall    23
## 9      3 Test1  2008    Fall    11
## 10     3 Test1  2009    Fall    13
## # ... with 26 more rows
…
You might think to use the unite() function here, but it won’t work unless you first create a column which only contains the value Test, like so:

grades %>%
  gather(Quarter, Score, Fall:Winter) %>%
  mutate(test_label = "Test") %>%
  unite(col = Test, test_label, Test)

## # A tibble: 36 × 5
##       ID   Test  Year Quarter Score
## *  <int>  <chr> <int>   <chr> <int>
## 1      1 Test_1  2008    Fall    15
## 2      1 Test_1  2009    Fall    12
## 3      1 Test_2  2008    Fall    22
## 4      1 Test_2  2009    Fall    10
## 5      2 Test_1  2008    Fall    12
## 6      2 Test_1  2009    Fall    16
## 7      2 Test_2  2008    Fall    13
## 8      2 Test_2  2009    Fall    23
## 9      3 Test_1  2008    Fall    11
## 10     3 Test_1  2009    Fall    13
## # ... with 26 more rows
…
