Functions in R
…
But this can get tedious if you need to consider many conditions. There are alternatives in R for some of these long conditional statements. For instance, if you want to convert a continuous (or numeric) variable to categories, use cut():

diamonds %>%
  select(carat) %>%
  mutate(carat_autobin = cut(carat, breaks = 5),
         carat_manbin = cut(carat,
                            breaks = c(0, 1, 2, 3, 6),
                            labels = c("Small", "Medium", "Large", "Huge")))

## # A tibble: 53,940 × 3
##    carat carat_autobin carat_manbin
##    <dbl>        <fctr>       <fctr>
## 1   0.23  (0.195,1.16]        Small
## 2   0.21  (0.195,1.16]        Small
## 3   0.23  (0.195,1.16]        Small
## 4   0.29  (0.195,1.16]        Small
## 5   0.31  (0.195,1.16]        Small
## 6   0.24  (0.195,1.16]        Small
## 7   0.24  (0.195,1.16]        Small
## 8   0.26  (0.195,1.16]        Small
## 9   0.22  (0.195,1.16]        Small
## 10  0.23  (0.195,1.16]        Small
## # ... with 53,930 more rows

if versus ifelse()

Because if-else conditional statements like the ones outlined above must always resolve to a single TRUE or FALSE, they cannot be used for vector operations. Consider the gun_deaths data and say you wanted to create a new column identifying whether or not an individual had at least a high school education.

library(rcfss)
data("gun_deaths")

(educ <- select(gun_deaths, education))

## # A tibble: 100,798 × 1
##       education
##          <fctr>
## 1           BA+
## 2  Some college
## 3           BA+
## 4           BA+
## 5        HS/GED
## 6  Less than HS
## 7        HS/GED
## 8        HS/GED
## 9  Some college
## 10           NA
## # ... with 100,788 more rows

This sounds like a classic if-else operation. For each individual, if education equals “Less than HS”, then the value in the new column should be “Less than HS”. Otherwise, it should be “HS+”. But what happens if we try to implement this using an if-else operation like above?

(educ_if <- educ %>%
  mutate(hsPlus = if(education == "Less than HS"){
    "Less than HS"
  } else{
    "HS+"
  }))

## Warning in if (structure(c(4L, 3L, 4L, 4L, 2L, 1L, 2L, 2L, 3L, NA, 3L,
## 2L, : the condition has length > 1 and only the first element will be used

## # A tibble: 100,798 × 2
##       education hsPlus
##          <fctr>  <chr>
## 1           BA+    HS+
## 2  Some college    HS+
## 3           BA+    HS+
## 4           BA+    HS+
## 5        HS/GED    HS+
## 6  Less than HS    HS+
## 7        HS/GED    HS+
## 8        HS/GED    HS+
## 9  Some college    HS+
## 10           NA    HS+
## # ... with 100,788 more rows
This did not work correctly. Because if() can only handle a single TRUE/FALSE value, it only checked the first row of the data frame. That row contained “BA+” for the individual, so it generated a vector of length 100798 with each value being “HS+”.

count(educ_if, hsPlus)

## # A tibble: 1 × 2
##   hsPlus      n
##    <chr>  <int>
## 1    HS+ 100798

Because we in fact want to make this if-else comparison 100798 times, we should instead use ifelse(). This vectorizes the if-else comparison and makes a separate comparison for each row of the data frame. This allows us to correctly generate this new column.1

(educ_ifelse <- educ %>%
  mutate(hsPlus = ifelse(education == "Less than HS", "Less than HS", "HS+")))

## # A tibble: 100,798 × 2
##       education       hsPlus
##          <fctr>        <chr>
## 1           BA+          HS+
## 2  Some college          HS+
## 3           BA+          HS+
## 4           BA+          HS+
## 5        HS/GED          HS+
## 6  Less than HS Less than HS
## 7        HS/GED          HS+
## 8        HS/GED          HS+
## 9  Some college          HS+
## 10           NA         <NA>
## # ... with 100,788 more rows
…
