Geospatial visualization
…
These are fine, but we’d rather use them with our friendly ggplot2 library. We can do this by converting the geodatabases into data frames for plotting with ggplot2.

# map of the world
map_data("world") %>%
  as_tibble

## # A tibble: 99,338 x 6
##     long   lat group order region subregion
##  * <dbl> <dbl> <dbl> <int>  <chr>     <chr>
##  1 -69.9  12.5     1     1  Aruba      <NA>
##  2 -69.9  12.4     1     2  Aruba      <NA>
##  3 -69.9  12.4     1     3  Aruba      <NA>
##  4 -70.0  12.5     1     4  Aruba      <NA>
##  5 -70.1  12.5     1     5  Aruba      <NA>
##  6 -70.1  12.6     1     6  Aruba      <NA>
##  7 -70.0  12.6     1     7  Aruba      <NA>
##  8 -70.0  12.6     1     8  Aruba      <NA>
##  9 -69.9  12.5     1     9  Aruba      <NA>
## 10 -69.9  12.5     1    10  Aruba      <NA>
## # ... with 99,328 more rows

# usa boundaries
map_data("usa") %>%
  as_tibble

## # A tibble: 7,243 x 6
##     long   lat group order region subregion
##  * <dbl> <dbl> <dbl> <int>  <chr>     <chr>
##  1  -101  29.7     1     1   main      <NA>
##  2  -101  29.7     1     2   main      <NA>
##  3  -101  29.7     1     3   main      <NA>
##  4  -101  29.6     1     4   main      <NA>
##  5  -101  29.6     1     5   main      <NA>
##  6  -101  29.6     1     6   main      <NA>
##  7  -101  29.6     1     7   main      <NA>
##  8  -101  29.6     1     8   main      <NA>
##  9  -101  29.6     1     9   main      <NA>
## 10  -101  29.6     1    10   main      <NA>
## # ... with 7,233 more rows

map_data("state") %>%
  as_tibble

## # A tibble: 15,537 x 6
##     long   lat group order  region subregion
##  * <dbl> <dbl> <dbl> <int>   <chr>     <chr>
##  1 -87.5  30.4     1     1 alabama      <NA>
##  2 -87.5  30.4     1     2 alabama      <NA>
##  3 -87.5  30.4     1     3 alabama      <NA>
##  4 -87.5  30.3     1     4 alabama      <NA>
##  5 -87.6  30.3     1     5 alabama      <NA>
##  6 -87.6  30.3     1     6 alabama      <NA>
##  7 -87.6  30.3     1     7 alabama      <NA>
##  8 -87.6  30.3     1     8 alabama      <NA>
##  9 -87.7  30.3     1     9 alabama      <NA>
## 10 -87.8  30.3     1    10 alabama      <NA>
## # ... with 15,527 more rows

# county map of illinois
map_data("county", "illinois") %>%
  as_tibble

## # A tibble: 1,697 x 6
##     long   lat group order   region subregion
##  * <dbl> <dbl> <dbl> <int>    <chr>     <chr>
##  1 -91.5  40.2     1     1 illinois     adams
##  2 -90.9  40.2     1     2 illinois     adams
##  3 -90.9  40.2     1     3 illinois     adams
##  4 -90.9  40.1     1     4 illinois     adams
##  5 -90.9  39.8     1     5 illinois     adams
##  6 -90.9  39.8     1     6 illinois     adams
##  7 -91.4  39.8     1     7 illinois     adams
##  8 -91.4  39.8     1     8 illinois     adams
##  9 -91.4  39.9     1     9 illinois     adams
## 10 -91.5  39.9     1    10 illinois     adams
## # ... with 1,687 more rows
…
Let’s draw a map of the United States. First we need to store the USA map boundaries in a data frame:

usa <- map_data("usa") %>%
  as_tibble
usa

## # A tibble: 7,243 x 6
##     long   lat group order region subregion
##  * <dbl> <dbl> <dbl> <int>  <chr>     <chr>
##  1  -101  29.7     1     1   main      <NA>
##  2  -101  29.7     1     2   main      <NA>
##  3  -101  29.7     1     3   main      <NA>
##  4  -101  29.6     1     4   main      <NA>
##  5  -101  29.6     1     5   main      <NA>
##  6  -101  29.6     1     6   main      <NA>
##  7  -101  29.6     1     7   main      <NA>
##  8  -101  29.6     1     8   main      <NA>
##  9  -101  29.6     1     9   main      <NA>
## 10  -101  29.6     1    10   main      <NA>
## # ... with 7,233 more rows
…
Oops. The map doesn’t connect the dots in the correct order.

State maps

maps also comes with a state boundaries geodatabase:

states <- map_data("state") %>%
  as_tibble()
states

## # A tibble: 15,537 x 6
##     long   lat group order  region subregion
##  * <dbl> <dbl> <dbl> <int>   <chr>     <chr>
##  1 -87.5  30.4     1     1 alabama      <NA>
##  2 -87.5  30.4     1     2 alabama      <NA>
##  3 -87.5  30.4     1     3 alabama      <NA>
##  4 -87.5  30.3     1     4 alabama      <NA>
##  5 -87.6  30.3     1     5 alabama      <NA>
##  6 -87.6  30.3     1     6 alabama      <NA>
##  7 -87.6  30.3     1     7 alabama      <NA>
##  8 -87.6  30.3     1     8 alabama      <NA>
##  9 -87.7  30.3     1     9 alabama      <NA>
## 10 -87.8  30.3     1    10 alabama      <NA>
## # ... with 15,527 more rows
…
Zoom in on Illinois and its counties

First let’s get the Illinois boundaries:

il_df <- filter(states, region == "illinois")

Now let’s get the accompanying counties:

counties <- map_data("county") %>%
  as_tibble
il_county <- filter(counties, region == "illinois")
il_county

## # A tibble: 1,696 x 6
##     long   lat group order   region subregion
##    <dbl> <dbl> <dbl> <int>    <chr>     <chr>
##  1 -91.5  40.2   561 21883 illinois     adams
##  2 -90.9  40.2   561 21884 illinois     adams
##  3 -90.9  40.1   561 21885 illinois     adams
##  4 -90.9  39.8   561 21886 illinois     adams
##  5 -90.9  39.8   561 21887 illinois     adams
##  6 -91.4  39.8   561 21888 illinois     adams
##  7 -91.4  39.8   561 21889 illinois     adams
##  8 -91.4  39.9   561 21890 illinois     adams
##  9 -91.5  39.9   561 21891 illinois     adams
## 10 -91.4  39.9   561 21892 illinois     adams
## # ... with 1,686 more rows
…
Yup, that doesn’t look right. Most maps of the United States place Alaska and Hawaii as insets to the south of California. Until recently, in R this was an extremely tedious task that required manually changing the latitude and longitude coordinates for these states to place them in the correct location. Fortunately a new package is available that has already done the work for you. fiftystater includes the fifty_states data frame which contains adjusted coordinates for Alaska and Hawaii to plot them with the mainland:

library(fiftystater)

data("fifty_states")
fifty_states %>%
  as_tibble

## # A tibble: 13,694 x 7
##     long   lat order  hole  piece      id     group
##    <dbl> <dbl> <int> <lgl> <fctr>   <chr>    <fctr>
##  1 -85.1  32.0     1 FALSE      1 alabama Alabama.1
##  2 -85.1  31.9     2 FALSE      1 alabama Alabama.1
##  3 -85.1  31.9     3 FALSE      1 alabama Alabama.1
##  4 -85.1  31.8     4 FALSE      1 alabama Alabama.1
##  5 -85.1  31.8     5 FALSE      1 alabama Alabama.1
##  6 -85.1  31.7     6 FALSE      1 alabama Alabama.1
##  7 -85.1  31.7     7 FALSE      1 alabama Alabama.1
##  8 -85.1  31.7     8 FALSE      1 alabama Alabama.1
##  9 -85.1  31.6     9 FALSE      1 alabama Alabama.1
## 10 -85.0  31.6    10 FALSE      1 alabama Alabama.1
## # ... with 13,684 more rows
…
##    long  lat order  hole piece id group
## 1 -88.5 31.9     1 FALSE     1  0   0.1
## 2 -88.5 31.9     2 FALSE     1  0   0.1
## 3 -88.5 31.9     3 FALSE     1  0   0.1
## 4 -88.5 31.9     4 FALSE     1  0   0.1
## 5 -88.5 32.0     5 FALSE     1  0   0.1
## 6 -88.5 32.0     6 FALSE     1  0   0.1

Under this approach, the id variable is just a number assigned to each region (in this case, each state/territory). However the shapefile contains linked data with attributes for each region. We can access this using the @data accessor:

usa@data %>%
  as_tibble

## # A tibble: 52 x 9
##    STATEFP  STATENS    AFFGEOID  GEOID STUSPS        NAME   LSAD
##  *  <fctr>   <fctr>      <fctr> <fctr> <fctr>      <fctr> <fctr>
##  1      01 01779775 0400000US01     01     AL     Alabama     00
##  2      05 00068085 0400000US05     05     AR    Arkansas     00
##  3      06 01779778 0400000US06     06     CA  California     00
##  4      09 01779780 0400000US09     09     CT Connecticut     00
##  5      12 00294478 0400000US12     12     FL     Florida     00
##  6      13 01705317 0400000US13     13     GA     Georgia     00
##  7      16 01779783 0400000US16     16     ID       Idaho     00
##  8      17 01779784 0400000US17     17     IL    Illinois     00
##  9      18 00448508 0400000US18     18     IN     Indiana     00
## 10      20 00481813 0400000US20     20     KS      Kansas     00
## # ... with 42 more rows, and 2 more variables: ALAND <fctr>, AWATER <fctr>
…
##    long  lat order  hole piece id group
## 1 -88.5 31.9     1 FALSE     1 01  01.1
## 2 -88.5 31.9     2 FALSE     1 01  01.1
## 3 -88.5 31.9     3 FALSE     1 01  01.1
## 4 -88.5 31.9     4 FALSE     1 01  01.1
## 5 -88.5 32.0     5 FALSE     1 01  01.1
## 6 -88.5 32.0     6 FALSE     1 01  01.1

# keep it all
(usa2 <- usa %>%
  fortify(region = "NAME") %>%
  as_tibble %>%
  left_join(usa@data, by = c("id" = "NAME")))

## # A tibble: 46,174 x 15
##     long   lat order  hole  piece      id     group STATEFP  STATENS
##    <dbl> <dbl> <int> <lgl> <fctr>   <chr>    <fctr>  <fctr>   <fctr>
##  1 -88.5  31.9     1 FALSE      1 Alabama Alabama.1      01 01779775
##  2 -88.5  31.9     2 FALSE      1 Alabama Alabama.1      01 01779775
##  3 -88.5  31.9     3 FALSE      1 Alabama Alabama.1      01 01779775
##  4 -88.5  31.9     4 FALSE      1 Alabama Alabama.1      01 01779775
##  5 -88.5  32.0     5 FALSE      1 Alabama Alabama.1      01 01779775
##  6 -88.5  32.0     6 FALSE      1 Alabama Alabama.1      01 01779775
##  7 -88.5  32.1     7 FALSE      1 Alabama Alabama.1      01 01779775
##  8 -88.4  32.2     8 FALSE      1 Alabama Alabama.1      01 01779775
##  9 -88.4  32.2     9 FALSE      1 Alabama Alabama.1      01 01779775
## 10 -88.4  32.2    10 FALSE      1 Alabama Alabama.1      01 01779775
## # ... with 46,164 more rows, and 6 more variables: AFFGEOID <fctr>,
## #   GEOID <fctr>, STUSPS <fctr>, LSAD <fctr>, ALAND <fctr>, AWATER <fctr>
…
Adding data to the map

Region boundaries serve as the background in geospatial data visualization - so now we need to add data. Some types of channels (points and symbols) are overlaid on top of the boundaries, whereas other channels (fill) are incorporated into the region layer itself. Let’s look at the first set of channels.

Points

Let’s use our usa2 map data to add some points. The airports data frame in the nycflights13 package includes geographic info on airports in the United States.

library(nycflights13)
airports

## # A tibble: 1,458 x 8
##      faa                           name   lat    lon   alt    tz   dst
##    <chr>                          <chr> <dbl>  <dbl> <int> <dbl> <chr>
##  1   04G              Lansdowne Airport  41.1  -80.6  1044    -5     A
##  2   06A  Moton Field Municipal Airport  32.5  -85.7   264    -6     A
##  3   06C            Schaumburg Regional  42.0  -88.1   801    -6     A
##  4   06N                Randall Airport  41.4  -74.4   523    -5     A
##  5   09J          Jekyll Island Airport  31.1  -81.4    11    -5     A
##  6   0A9 Elizabethton Municipal Airport  36.4  -82.2  1593    -5     A
##  7   0G6        Williams County Airport  41.5  -84.5   730    -5     A
##  8   0G7  Finger Lakes Regional Airport  42.9  -76.8   492    -5     A
##  9   0P2   Shoestring Aviation Airfield  39.8  -76.6  1000    -5     U
## 10   0S9          Jefferson County Intl  48.1 -122.8   108    -8     A
## # ... with 1,448 more rows, and 1 more variables: tzone <chr>
…
We’ll draw choropleths for the number of foreign-born individuals in each region (state or county). We can get those files from the census_bureau folder. Let’s also normalize our measure by the total population to get the rate of foreign-born individuals in the population:

(fb_state <- read_csv("data/census_bureau/ACS_13_5YR_B05012_state/ACS_13_5YR_B05012.csv") %>%
  mutate(rate = HD01_VD03 / HD01_VD01))

## # A tibble: 51 x 10
##         GEO.id GEO.id2  `GEO.display-label` HD01_VD01 HD02_VD01 HD01_VD02
##          <chr>   <chr>                <chr>     <int>     <chr>     <int>
##  1 0400000US01      01              Alabama   4799277      <NA>   4631045
##  2 0400000US02      02               Alaska    720316      <NA>    669941
##  3 0400000US04      04              Arizona   6479703      <NA>   5609835
##  4 0400000US05      05             Arkansas   2933369      <NA>   2799972
##  5 0400000US06      06           California  37659181      <NA>  27483342
##  6 0400000US08      08             Colorado   5119329      <NA>   4623809
##  7 0400000US09      09          Connecticut   3583561      <NA>   3096374
##  8 0400000US10      10             Delaware    908446      <NA>    831683
##  9 0400000US11      11 District of Columbia    619371      <NA>    534142
## 10 0400000US12      12              Florida  19091156      <NA>  15392410
## # ... with 41 more rows, and 4 more variables: HD02_VD02 <int>,
## #   HD01_VD03 <int>, HD02_VD03 <int>, rate <dbl>

(fb_county <- read_csv("data/census_bureau/ACS_13_5YR_B05012_county/ACS_13_5YR_B05012.csv") %>%
  mutate(rate = HD01_VD03 / HD01_VD01))

## # A tibble: 3,143 x 10
##            GEO.id GEO.id2      `GEO.display-label` HD01_VD01 HD02_VD01
##             <chr>   <chr>                    <chr>     <int>     <int>
##  1 0500000US01001   01001  Autauga County, Alabama     54907        NA
##  2 0500000US01003   01003  Baldwin County, Alabama    187114        NA
##  3 0500000US01005   01005  Barbour County, Alabama     27321        NA
##  4 0500000US01007   01007     Bibb County, Alabama     22754        NA
##  5 0500000US01009   01009   Blount County, Alabama     57623        NA
##  6 0500000US01011   01011  Bullock County, Alabama     10746        NA
##  7 0500000US01013   01013   Butler County, Alabama     20624        NA
##  8 0500000US01015   01015  Calhoun County, Alabama    117714        NA
##  9 0500000US01017   01017 Chambers County, Alabama     34145        NA
## 10 0500000US01019   01019 Cherokee County, Alabama     26034        NA
## # ... with 3,133 more rows, and 5 more variables: HD01_VD02 <int>,
## #   HD02_VD02 <int>, HD01_VD03 <int>, HD02_VD03 <int>, rate <dbl>
…
