Practice transforming college education (data)
…
Type ?scorecard in the console to open up the help file for this data set. This includes the documentation for all the variables. Use your knowledge of the dplyr functions to perform the following tasks.

Generate a data frame of schools with a greater than 40% share of first-generation students

 Click for the solution

filter(scorecard, firstgen > .40)

## # A tibble: 578 x 12
##    unitid                                 name state                type
##     <int>                                <chr> <chr>               <chr>
##  1 450234      ITT Technical Institute-Wichita    KS Private, for-profit
##  2 448479 ITT Technical Institute-Swartz Creek    MI Private, for-profit
##  3 456427      ITT Technical Institute-Concord    CA Private, for-profit
##  4 459596  ITT Technical Institute-Tallahassee    FL Private, for-profit
##  5 459851        Herzing University-Brookfield    WI Private, for-profit
##  6 482477            DeVry University-Illinois    IL Private, for-profit
##  7 482547              DeVry University-Nevada    NV Private, for-profit
##  8 482592              DeVry University-Oregon    OR Private, for-profit
##  9 482617           DeVry University-Tennessee    TN Private, for-profit
## 10 482662          DeVry University-Washington    WA Private, for-profit
## # ... with 568 more rows, and 8 more variables: cost <int>, admrate <dbl>,
## #   satavg <dbl>, avgfacsal <dbl>, pctpell <dbl>, comprate <dbl>,
## #   firstgen <dbl>, debt <dbl>
…
Calculate for each school how many students it takes to pay the average faculty member’s salary and generate a data frame with the school’s name and the calculated value

 Click for the solution

scorecard %>%
  mutate(ratio = avgfacsal / cost) %>%
  select(name, ratio)

## # A tibble: 1,849 x 2
##                                    name    ratio
##                                   <chr>    <dbl>
##  1      ITT Technical Institute-Wichita 1.591677
##  2 ITT Technical Institute-Swartz Creek 1.958102
##  3      ITT Technical Institute-Concord       NA
##  4  ITT Technical Institute-Tallahassee 1.633419
##  5        Herzing University-Brookfield 2.302282
##  6            DeVry University-Illinois 2.450459
##  7              DeVry University-Nevada 1.959860
##  8              DeVry University-Oregon       NA
##  9           DeVry University-Tennessee 2.461993
## 10          DeVry University-Washington 2.552843
## # ... with 1,839 more rows
…
