How to build a complicated, layered graphic
…
cities <- read_table("data/minard-cities.txt")

## Parsed with column specification:
## cols(
##   long = col_double(),
##   lat = col_double(),
##   city = col_character()
## )

troops

## # A tibble: 51 x 5
##     long   lat survivors direction group
##    <dbl> <dbl>     <int>     <chr> <int>
##  1  24.0  54.9    340000         A     1
##  2  24.5  55.0    340000         A     1
##  3  25.5  54.5    340000         A     1
##  4  26.0  54.7    320000         A     1
##  5  27.0  54.8    300000         A     1
##  6  28.0  54.9    280000         A     1
##  7  28.5  55.0    240000         A     1
##  8  29.0  55.1    210000         A     1
##  9  30.0  55.2    180000         A     1
## 10  30.3  55.3    175000         A     1
## # ... with 41 more rows
…
