Practice tidying data
…
Important info:

Name - pretty obvious

50:350 - column names define different lengths of time

Cell values are scores associated with each name and length of time

 Click for a hint

Tidy data structure

## # A tibble: 28 x 3
##    Name   Time Score
##    <fct> <int> <dbl>
##  1 Carla    50  1.20
##  2 Carla   100  1.80
##  3 Carla   150  2.20
##  4 Carla   200  2.30
##  5 Carla   250  3.00
##  6 Carla   300  2.50
##  7 Carla   350  1.80
##  8 Karen    50  1.30
##  9 Karen   100  1.70
## 10 Karen   150  1.90
## # ... with 18 more rows

 Click for the solution

This is essentially a gathering operation. Except for the Name column, the remaining columns are actually one variable spread across multiple columns. The column names are a distinct variable, and the columns’ values are another variable. We want to gather these columns. The key will tell us the original column name, and the value will give us the values in the cells. Because the column names are actually numeric values, we set convert = TRUE to coerce the new Time column into a numeric column (or vector). (The last line isn’t necessary, but sorts the data frame in a consistent manner.)

race %>%
  gather(key = Time, value = Score, -Name, convert = TRUE) %>%
  arrange(Name, Time)

## # A tibble: 28 x 3
##    Name   Time Score
##    <fct> <int> <dbl>
##  1 Carla    50  1.20
##  2 Carla   100  1.80
##  3 Carla   150  2.20
##  4 Carla   200  2.30
##  5 Carla   250  3.00
##  6 Carla   300  2.50
##  7 Carla   350  1.80
##  8 Karen    50  1.30
##  9 Karen   100  1.70
## 10 Karen   150  1.90
## # ... with 18 more rows
…
 Click for the solution

In this example, the basic unit of observation is the test. Each individual takes two separate tests (labeled 1 and 2) at multiple points in time: during each quarter (Fall, Winter, Spring) as well as in multiple years (2008 and 2009). So our final data frame should contain five columns: ID (identifying the student), Year (year the test was taken), Quarter (quarter in which the test was taken), Test1 (score on the first test), and Test2 (score on the second test).

Let’s start with the gathering operation: we want to gather Fall, Winter, and Spring into a single column (we can use the inclusive select function : to gather these three columns):

grades %>%
  gather(key = Quarter, value = Score, Fall:Winter)

## # A tibble: 36 x 5
##       ID  Test  Year Quarter Score
##    <int> <int> <int>   <chr> <int>
##  1     1     1  2008    Fall    15
##  2     1     1  2009    Fall    12
##  3     1     2  2008    Fall    22
##  4     1     2  2009    Fall    10
##  5     2     1  2008    Fall    12
##  6     2     1  2009    Fall    16
##  7     2     2  2008    Fall    13
##  8     2     2  2009    Fall    23
##  9     3     1  2008    Fall    11
## 10     3     1  2009    Fall    13
## # ... with 26 more rows
…
This is an acceptable solution, but look what happened to the column names for each test: they’re labeled as numbers (1 and 2). We’d rather give columns text labels, since those are easier to reference in our code. We can use a function called str_c() from the stringr library to add text to the Test column before we spread it. str_c() combines two or more values together to create a single value:1

library(stringr)

grades %>%
  gather(key = Quarter, value = Score, Fall:Winter) %>%
  mutate(Test = str_c("Test", Test))

## # A tibble: 36 x 5
##       ID Test   Year Quarter Score
##    <int> <chr> <int> <chr>   <int>
##  1     1 Test1  2008 Fall       15
##  2     1 Test1  2009 Fall       12
##  3     1 Test2  2008 Fall       22
##  4     1 Test2  2009 Fall       10
##  5     2 Test1  2008 Fall       12
##  6     2 Test1  2009 Fall       16
##  7     2 Test2  2008 Fall       13
##  8     2 Test2  2009 Fall       23
##  9     3 Test1  2008 Fall       11
## 10     3 Test1  2009 Fall       13
## # ... with 26 more rows
…
 Click for the solution

This is a more complex operation. The basic problem is that we have variables stored in multiple columns (location, with possible values of work, play, and talk). We need to gather these columns into a single column for each variable. But what happens if we just gather them?

activities %>%
  gather(key = key, value = value, -id, -trt)

## # A tibble: 60 x 4
##    id    trt   key      value
##    <chr> <chr> <chr>    <dbl>
##  1 x1    tr    work.T1 0.652 
##  2 x2    cnt   work.T1 0.568 
##  3 x3    cnt   work.T1 0.114 
##  4 x4    tr    work.T1 0.596 
##  5 x5    cnt   work.T1 0.358 
##  6 x6    cnt   work.T1 0.429 
##  7 x7    cnt   work.T1 0.0519
##  8 x8    cnt   work.T1 0.264 
##  9 x9    tr    work.T1 0.399 
## 10 x10   cnt   work.T1 0.836 
## # ... with 50 more rows

We’ve created a new problem! Actually, two problems:

We have a single observation stored across multiple rows: we want a single row for each id x trt pairing

We have two variables stored in a single column: key contains the information on both location (work, play, and talk) as well as when the measurement was taken (T1 or T2)

The best approach is to fix the second problem by separating the columns, then spreading the different types of measurements back into their own columns.

activities %>%
  gather(key = key, value = value, -id, -trt) %>%
  separate(col = key, into = c("location", "time"))

## # A tibble: 60 x 5
##    id    trt   location time   value
##    <chr> <chr> <chr>    <chr>  <dbl>
##  1 x1    tr    work     T1    0.652 
##  2 x2    cnt   work     T1    0.568 
##  3 x3    cnt   work     T1    0.114 
##  4 x4    tr    work     T1    0.596 
##  5 x5    cnt   work     T1    0.358 
##  6 x6    cnt   work     T1    0.429 
##  7 x7    cnt   work     T1    0.0519
##  8 x8    cnt   work     T1    0.264 
##  9 x9    tr    work     T1    0.399 
## 10 x10   cnt   work     T1    0.836 
## # ... with 50 more rows
…
You might think to use the unite() function here, but it won’t work unless you first create a column which only contains the value Test, like so:

grades %>%
  gather(key = Quarter, value = Score, Fall:Winter) %>%
  mutate(test_label = "Test") %>%
  unite(col = Test, test_label, Test)

## # A tibble: 36 x 5
##       ID Test    Year Quarter Score
##    <int> <chr>  <int> <chr>   <int>
##  1     1 Test_1  2008 Fall       15
##  2     1 Test_1  2009 Fall       12
##  3     1 Test_2  2008 Fall       22
##  4     1 Test_2  2009 Fall       10
##  5     2 Test_1  2008 Fall       12
##  6     2 Test_1  2009 Fall       16
##  7     2 Test_2  2008 Fall       13
##  8     2 Test_2  2009 Fall       23
##  9     3 Test_1  2008 Fall       11
## 10     3 Test_1  2009 Fall       13
## # ... with 26 more rows
…
