Distributed learning
…
Now we finally communicate with the database, but only retrieved the first 10 rows (notice the ?? in query [?? x 8]). This is a built-in feature to avoid downloading an extremely large data frame our machine cannot handle. To obtain the full results, use collect():

collect(c4)

## # A tibble: 842 × 8
##     year month   day carrier dep_delay air_time distance    speed
##    <int> <int> <int>   <chr>     <dbl>    <dbl>    <dbl>    <dbl>
## 1   2013     1     1      9E         0      189     1029 326.6667
## 2   2013     1     1      9E        -9       57      228 240.0000
## 3   2013     1     1      9E        -3       68      301 265.5882
## 4   2013     1     1      9E        -6       57      209 220.0000
## 5   2013     1     1      9E        -8       66      264 240.0000
## 6   2013     1     1      9E         0       40      184 276.0000
## 7   2013     1     1      9E         6      146      740 304.1096
## 8   2013     1     1      9E         0      139      665 287.0504
## 9   2013     1     1      9E        -8      150      765 306.0000
## 10  2013     1     1      9E        -6       41      187 273.6585
## # ... with 832 more rows
…
nest() and map()

# function to estimate linear model for gapminder subsets
le_vs_yr <- function(df) {
  lm(lifeExp ~ year, data = df)
}

# split data into nests
(gap_nested <- gapminder %>% 
   group_by(continent, country) %>% 
   nest())

## # A tibble: 142 × 3
##    continent     country              data
##       <fctr>      <fctr>            <list>
## 1       Asia Afghanistan <tibble [12 × 4]>
## 2     Europe     Albania <tibble [12 × 4]>
## 3     Africa     Algeria <tibble [12 × 4]>
## 4     Africa      Angola <tibble [12 × 4]>
## 5   Americas   Argentina <tibble [12 × 4]>
## 6    Oceania   Australia <tibble [12 × 4]>
## 7     Europe     Austria <tibble [12 × 4]>
## 8       Asia     Bahrain <tibble [12 × 4]>
## 9       Asia  Bangladesh <tibble [12 × 4]>
## 10    Europe     Belgium <tibble [12 × 4]>
## # ... with 132 more rows

# apply a linear model to each nested data frame
(gap_nested <- gap_nested %>% 
   mutate(fit = map(data, le_vs_yr)))

## # A tibble: 142 × 4
##    continent     country              data      fit
##       <fctr>      <fctr>            <list>   <list>
## 1       Asia Afghanistan <tibble [12 × 4]> <S3: lm>
## 2     Europe     Albania <tibble [12 × 4]> <S3: lm>
## 3     Africa     Algeria <tibble [12 × 4]> <S3: lm>
## 4     Africa      Angola <tibble [12 × 4]> <S3: lm>
## 5   Americas   Argentina <tibble [12 × 4]> <S3: lm>
## 6    Oceania   Australia <tibble [12 × 4]> <S3: lm>
## 7     Europe     Austria <tibble [12 × 4]> <S3: lm>
## 8       Asia     Bahrain <tibble [12 × 4]> <S3: lm>
## 9       Asia  Bangladesh <tibble [12 × 4]> <S3: lm>
## 10    Europe     Belgium <tibble [12 × 4]> <S3: lm>
## # ... with 132 more rows

# combine the results back into a single data frame
library(broom)
(gap_nested <- gap_nested %>% 
  mutate(tidy = map(fit, tidy)))

## # A tibble: 142 × 5
##    continent     country              data      fit                 tidy
##       <fctr>      <fctr>            <list>   <list>               <list>
## 1       Asia Afghanistan <tibble [12 × 4]> <S3: lm> <data.frame [2 × 5]>
## 2     Europe     Albania <tibble [12 × 4]> <S3: lm> <data.frame [2 × 5]>
## 3     Africa     Algeria <tibble [12 × 4]> <S3: lm> <data.frame [2 × 5]>
## 4     Africa      Angola <tibble [12 × 4]> <S3: lm> <data.frame [2 × 5]>
## 5   Americas   Argentina <tibble [12 × 4]> <S3: lm> <data.frame [2 × 5]>
## 6    Oceania   Australia <tibble [12 × 4]> <S3: lm> <data.frame [2 × 5]>
## 7     Europe     Austria <tibble [12 × 4]> <S3: lm> <data.frame [2 × 5]>
## 8       Asia     Bahrain <tibble [12 × 4]> <S3: lm> <data.frame [2 × 5]>
## 9       Asia  Bangladesh <tibble [12 × 4]> <S3: lm> <data.frame [2 × 5]>
## 10    Europe     Belgium <tibble [12 × 4]> <S3: lm> <data.frame [2 × 5]>
## # ... with 132 more rows

(gap_coefs <- gap_nested %>% 
   select(continent, country, tidy) %>% 
   unnest(tidy))

## # A tibble: 284 × 7
##    continent     country        term      estimate    std.error  statistic
##       <fctr>      <fctr>       <chr>         <dbl>        <dbl>      <dbl>
## 1       Asia Afghanistan (Intercept)  -507.5342716 40.484161954 -12.536613
## 2       Asia Afghanistan        year     0.2753287  0.020450934  13.462890
## 3     Europe     Albania (Intercept)  -594.0725110 65.655359062  -9.048348
## 4     Europe     Albania        year     0.3346832  0.033166387  10.091036
## 5     Africa     Algeria (Intercept) -1067.8590396 43.802200843 -24.379118
## 6     Africa     Algeria        year     0.5692797  0.022127070  25.727749
## 7     Africa      Angola (Intercept)  -376.5047531 46.583370599  -8.082385
## 8     Africa      Angola        year     0.2093399  0.023532003   8.895964
## 9   Americas   Argentina (Intercept)  -389.6063445  9.677729641 -40.258031
## 10  Americas   Argentina        year     0.2317084  0.004888791  47.395847
## # ... with 274 more rows, and 1 more variables: p.value <dbl>
…
library(multidplyr)
library(nycflights13)

Next, partition the flights data by flight number, compute the average delay per flight, and then collect the results:

flights1 <- partition(flights, flight)
flights2 <- summarize(flights1, dep_delay = mean(dep_delay, na.rm = TRUE))
flights3 <- collect(flights2)

The dplyr code looks the same as usual, but behind the scenes things are very different. flights1 and flights2 are party dfs. These look like normal data frames, but have an additional attribute: the number of shards. In this example, it tells us that flights2 is spread across three nodes, and the size on each node varies from 1275 to 1286 rows. partition() always makes sure a group is kept together on one node.

flights2

## Source: party_df [3,844 x 2]
## Shards: 3 [1,243--1,308 rows]
## 
## # S3: party_df
##    flight  dep_delay
##     <int>      <dbl>
## 1       2 -0.5686275
## 2       3  3.6650794
## 3       4  7.5166240
## 4       6  8.5024155
## 5       8  6.9358974
## 6      10 24.3114754
## 7      11  6.8242991
## 8      12 28.2834646
## 9      15 10.2643080
## 10     20  3.7053571
## # ... with 3,834 more rows
…
flights_tbl <- copy_to(sc, nycflights13::flights, "flights", overwrite = TRUE)
airlines_tbl <- copy_to(sc, nycflights13::airlines, "airlines", overwrite = TRUE)
airports_tbl <- copy_to(sc, nycflights13::airports, "airports", overwrite = TRUE)
planes_tbl <- copy_to(sc, nycflights13::planes, "planes", overwrite = TRUE)
weather_tbl <- copy_to(sc, nycflights13::weather, "weather", overwrite = TRUE)

Using dplyr

Interacting with a Spark database uses the same dplyr functions as you would with a data frame or SQL database.

flights_tbl %>%
  filter(dep_delay == 2)

## Source:   query [6,233 x 19]
## Database: spark connection master=local[4] app=sparklyr local=TRUE
## 
##     year month   day dep_time sched_dep_time dep_delay arr_time
##    <int> <int> <int>    <int>          <int>     <dbl>    <int>
## 1   2013     1     1      517            515         2      830
## 2   2013     1     1      542            540         2      923
## 3   2013     1     1      702            700         2     1058
## 4   2013     1     1      715            713         2      911
## 5   2013     1     1      752            750         2     1025
## 6   2013     1     1      917            915         2     1206
## 7   2013     1     1      932            930         2     1219
## 8   2013     1     1     1028           1026         2     1350
## 9   2013     1     1     1042           1040         2     1325
## 10  2013     1     1     1231           1229         2     1523
## # ... with 6,223 more rows, and 12 more variables: sched_arr_time <int>,
## #   arr_delay <dbl>, carrier <chr>, flight <int>, tailnum <chr>,
## #   origin <chr>, dest <chr>, air_time <dbl>, distance <dbl>, hour <dbl>,
## #   minute <dbl>, time_hour <dbl>
…
There really isn’t much new here, so I’m not going to hammer this point home any further. Read Manipulating Data with dplyr for more information on Spark-specific examples of dplyr code.

Machine learning with Spark

You can use sparklyr to fit a wide range of machine learning algorithms in Apache Spark. Rather than using caret::train(), you use a set of ml_ functions depending on which algorithm you want to employ.

Load the data

Let’s continue using the Titanic dataset. First, load the titanic package, which contains the data files we have been using for past statistical learning exercises, into the local Spark cluster:

library(titanic)
(titanic_tbl <- copy_to(sc, titanic::titanic_train, "titanic", overwrite = TRUE))

## Source:   query [891 x 12]
## Database: spark connection master=local[4] app=sparklyr local=TRUE
## 
##    PassengerId Survived Pclass
##          <int>    <int>  <int>
## 1            1        0      3
## 2            2        1      1
## 3            3        1      3
## 4            4        1      1
## 5            5        0      3
## 6            6        0      3
## 7            7        0      1
## 8            8        0      3
## 9            9        1      3
## 10          10        1      2
## # ... with 881 more rows, and 9 more variables: Name <chr>, Sex <chr>,
## #   Age <dbl>, SibSp <int>, Parch <int>, Ticket <chr>, Fare <dbl>,
## #   Cabin <chr>, Embarked <chr>
…
