Split-apply-combine and parallel computing
…
nest() and map()

# function to estimate linear model for gapminder subsets
le_vs_yr <- function(df) {
  lm(lifeExp ~ year, data = df)
}

# split data into nests
(gap_nested <- gapminder %>% 
   group_by(continent, country) %>% 
   nest())

## # A tibble: 142 x 3
##    continent     country              data
##       <fctr>      <fctr>            <list>
##  1      Asia Afghanistan <tibble [12 x 4]>
##  2    Europe     Albania <tibble [12 x 4]>
##  3    Africa     Algeria <tibble [12 x 4]>
##  4    Africa      Angola <tibble [12 x 4]>
##  5  Americas   Argentina <tibble [12 x 4]>
##  6   Oceania   Australia <tibble [12 x 4]>
##  7    Europe     Austria <tibble [12 x 4]>
##  8      Asia     Bahrain <tibble [12 x 4]>
##  9      Asia  Bangladesh <tibble [12 x 4]>
## 10    Europe     Belgium <tibble [12 x 4]>
## # ... with 132 more rows

# apply a linear model to each nested data frame
(gap_nested <- gap_nested %>% 
   mutate(fit = map(data, le_vs_yr)))

## # A tibble: 142 x 4
##    continent     country              data      fit
##       <fctr>      <fctr>            <list>   <list>
##  1      Asia Afghanistan <tibble [12 x 4]> <S3: lm>
##  2    Europe     Albania <tibble [12 x 4]> <S3: lm>
##  3    Africa     Algeria <tibble [12 x 4]> <S3: lm>
##  4    Africa      Angola <tibble [12 x 4]> <S3: lm>
##  5  Americas   Argentina <tibble [12 x 4]> <S3: lm>
##  6   Oceania   Australia <tibble [12 x 4]> <S3: lm>
##  7    Europe     Austria <tibble [12 x 4]> <S3: lm>
##  8      Asia     Bahrain <tibble [12 x 4]> <S3: lm>
##  9      Asia  Bangladesh <tibble [12 x 4]> <S3: lm>
## 10    Europe     Belgium <tibble [12 x 4]> <S3: lm>
## # ... with 132 more rows

# combine the results back into a single data frame
library(broom)
(gap_nested <- gap_nested %>% 
  mutate(tidy = map(fit, tidy)))

## # A tibble: 142 x 5
##    continent     country              data      fit                 tidy
##       <fctr>      <fctr>            <list>   <list>               <list>
##  1      Asia Afghanistan <tibble [12 x 4]> <S3: lm> <data.frame [2 x 5]>
##  2    Europe     Albania <tibble [12 x 4]> <S3: lm> <data.frame [2 x 5]>
##  3    Africa     Algeria <tibble [12 x 4]> <S3: lm> <data.frame [2 x 5]>
##  4    Africa      Angola <tibble [12 x 4]> <S3: lm> <data.frame [2 x 5]>
##  5  Americas   Argentina <tibble [12 x 4]> <S3: lm> <data.frame [2 x 5]>
##  6   Oceania   Australia <tibble [12 x 4]> <S3: lm> <data.frame [2 x 5]>
##  7    Europe     Austria <tibble [12 x 4]> <S3: lm> <data.frame [2 x 5]>
##  8      Asia     Bahrain <tibble [12 x 4]> <S3: lm> <data.frame [2 x 5]>
##  9      Asia  Bangladesh <tibble [12 x 4]> <S3: lm> <data.frame [2 x 5]>
## 10    Europe     Belgium <tibble [12 x 4]> <S3: lm> <data.frame [2 x 5]>
## # ... with 132 more rows

(gap_coefs <- gap_nested %>% 
   select(continent, country, tidy) %>% 
   unnest(tidy))

## # A tibble: 284 x 7
##    continent     country        term      estimate    std.error  statistic
##       <fctr>      <fctr>       <chr>         <dbl>        <dbl>      <dbl>
##  1      Asia Afghanistan (Intercept)  -507.5342716 40.484161954 -12.536613
##  2      Asia Afghanistan        year     0.2753287  0.020450934  13.462890
##  3    Europe     Albania (Intercept)  -594.0725110 65.655359062  -9.048348
##  4    Europe     Albania        year     0.3346832  0.033166387  10.091036
##  5    Africa     Algeria (Intercept) -1067.8590396 43.802200843 -24.379118
##  6    Africa     Algeria        year     0.5692797  0.022127070  25.727749
##  7    Africa      Angola (Intercept)  -376.5047531 46.583370599  -8.082385
##  8    Africa      Angola        year     0.2093399  0.023532003   8.895964
##  9  Americas   Argentina (Intercept)  -389.6063445  9.677729641 -40.258031
## 10  Americas   Argentina        year     0.2317084  0.004888791  47.395847
## # ... with 274 more rows, and 1 more variables: p.value <dbl>
…
library(multidplyr)
library(nycflights13)

Next, partition the flights data by flight number, compute the average delay per flight, and then collect the results:

flights1 <- partition(flights, flight)
flights2 <- summarize(flights1, dep_delay = mean(dep_delay, na.rm = TRUE))
flights3 <- collect(flights2)

The dplyr code looks the same as usual, but behind the scenes things are very different. flights1 and flights2 are party dfs. These look like normal data frames, but have an additional attribute: the number of shards. In this example, it tells us that flights2 is spread across three nodes, and the size on each node varies from 1275 to 1286 rows. partition() always makes sure a group is kept together on one node.

flights2

## Source: party_df [3,844 x 2]
## Shards: 3 [1,237--1,304 rows]
## 
## # S3: party_df
##    flight  dep_delay
##     <int>      <dbl>
##  1      2 -0.5686275
##  2      3  3.6650794
##  3      4  7.5166240
##  4      6  8.5024155
##  5      8  6.9358974
##  6     10 24.3114754
##  7     11  6.8242991
##  8     12 28.2834646
##  9     15 10.2643080
## 10     19 10.0500000
## # ... with 3,834 more rows
…
