Accessing databases using dbplyr
…
Now we finally communicate with the database, but only retrieved the first 10 rows (notice the ?? in query [?? x 8]). This is a built-in feature to avoid downloading an extremely large data frame our machine cannot handle. To obtain the full results, use collect():

collect(c4)

## # A tibble: 842 x 8
##     year month   day carrier dep_delay air_time distance    speed
##    <int> <int> <int>   <chr>     <dbl>    <dbl>    <dbl>    <dbl>
##  1  2013     1     1      9E         0      189     1029 326.6667
##  2  2013     1     1      9E        -9       57      228 240.0000
##  3  2013     1     1      9E        -3       68      301 265.5882
##  4  2013     1     1      9E        -6       57      209 220.0000
##  5  2013     1     1      9E        -8       66      264 240.0000
##  6  2013     1     1      9E         0       40      184 276.0000
##  7  2013     1     1      9E         6      146      740 304.1096
##  8  2013     1     1      9E         0      139      665 287.0504
##  9  2013     1     1      9E        -8      150      765 306.0000
## 10  2013     1     1      9E        -6       41      187 273.6585
## # ... with 832 more rows
…
