Drawing vector maps with ggplot2 and sf
…
Add data to the map

Region boundaries serve as the background in geospatial data visualization - so now we need to add data. Some types of geographic data (points and symbols) are overlaid on top of the boundaries, whereas other data (fill) are incorporated into the region layer itself.

Points

Let’s use our usa_48 map data to add some points. The airports data frame in the nycflights13 package includes geographic info on airports in the United States.

library(nycflights13)
airports

## # A tibble: 1,458 x 8
##    faa   name                   lat    lon   alt    tz dst   tzone        
##    <chr> <chr>                <dbl>  <dbl> <int> <dbl> <chr> <chr>        
##  1 04G   Lansdowne Airport     41.1  -80.6  1044    -5 A     America/New_…
##  2 06A   Moton Field Municip…  32.5  -85.7   264    -6 A     America/Chic…
##  3 06C   Schaumburg Regional   42.0  -88.1   801    -6 A     America/Chic…
##  4 06N   Randall Airport       41.4  -74.4   523    -5 A     America/New_…
##  5 09J   Jekyll Island Airpo…  31.1  -81.4    11    -5 A     America/New_…
##  6 0A9   Elizabethton Munici…  36.4  -82.2  1593    -5 A     America/New_…
##  7 0G6   Williams County Air…  41.5  -84.5   730    -5 A     America/New_…
##  8 0G7   Finger Lakes Region…  42.9  -76.8   492    -5 A     America/New_…
##  9 0P2   Shoestring Aviation…  39.8  -76.6  1000    -5 U     America/New_…
## 10 0S9   Jefferson County In…  48.1 -123.    108    -8 A     America/Los_…
## # ... with 1,448 more rows
…
Alternatively, we can use st_as_sf() to convert airports to a simple features data frame.

airports_sf <- st_as_sf(airports, coords = c("lon", "lat"))
st_crs(airports_sf) <- 4326   # set the coordinate reference system
airports_sf

## Simple feature collection with 1458 features and 6 fields
## geometry type:  POINT
## dimension:      XY
## bbox:           xmin: -177 ymin: 19.7 xmax: 174 ymax: 72.3
## epsg (SRID):    4326
## proj4string:    +proj=longlat +datum=WGS84 +no_defs
## # A tibble: 1,458 x 7
##    faa   name              alt    tz dst   tzone                  geometry
##    <chr> <chr>           <int> <dbl> <chr> <chr>               <POINT [°]>
##  1 04G   Lansdowne Airp…  1044    -5 A     America/N…         (-80.6 41.1)
##  2 06A   Moton Field Mu…   264    -6 A     America/C…         (-85.7 32.5)
##  3 06C   Schaumburg Reg…   801    -6 A     America/C…           (-88.1 42)
##  4 06N   Randall Airport   523    -5 A     America/N…         (-74.4 41.4)
##  5 09J   Jekyll Island …    11    -5 A     America/N…         (-81.4 31.1)
##  6 0A9   Elizabethton M…  1593    -5 A     America/N…         (-82.2 36.4)
##  7 0G6   Williams Count…   730    -5 A     America/N…         (-84.5 41.5)
##  8 0G7   Finger Lakes R…   492    -5 A     America/N…         (-76.8 42.9)
##  9 0P2   Shoestring Avi…  1000    -5 U     America/N…         (-76.6 39.8)
## 10 0S9   Jefferson Coun…   108    -8 A     America/L…          (-123 48.1)
## # ... with 1,448 more rows
…
airports contains a list of virtually all commercial airports in the United States. However flights only contains data on flights departing from New York City airports (JFK, LaGuardia, or Newark) and only services a few airports around the country.

Fill (choropleths)

Choropleth maps encode information by assigning shades of colors to defined areas on a map (e.g. countries, states, counties, zip codes). There are lots of ways to tweak and customize these graphs, which is generally a good idea because remember that color is one of the harder-to-decode channels.

We will continue to use the usa_48 simple features data frame and draw a choropleth for the number of foreign-born individuals in each state. We get those files from the census_bureau folder. Let’s also normalize our measure by the total population to get the rate of foreign-born individuals in the population:

(fb_state <- read_csv("data/census_bureau/ACS_13_5YR_B05012_state/ACS_13_5YR_B05012.csv") %>%
  mutate(rate = HD01_VD03 / HD01_VD01))

## # A tibble: 51 x 10
##    GEO.id GEO.id2 `GEO.display-la… HD01_VD01 HD02_VD01 HD01_VD02 HD02_VD02
##    <chr>  <chr>   <chr>                <int> <chr>         <int>     <int>
##  1 04000… 01      Alabama            4799277 <NA>        4631045      2881
##  2 04000… 02      Alaska              720316 <NA>         669941      1262
##  3 04000… 04      Arizona            6479703 <NA>        5609835      7725
##  4 04000… 05      Arkansas           2933369 <NA>        2799972      2568
##  5 04000… 06      California        37659181 <NA>       27483342     30666
##  6 04000… 08      Colorado           5119329 <NA>        4623809      5778
##  7 04000… 09      Connecticut        3583561 <NA>        3096374      5553
##  8 04000… 10      Delaware            908446 <NA>         831683      2039
##  9 04000… 11      District of Col…    619371 <NA>         534142      2017
## 10 04000… 12      Florida           19091156 <NA>       15392410     16848
## # ... with 41 more rows, and 3 more variables: HD01_VD03 <int>,
## #   HD02_VD03 <int>, rate <dbl>
…
