Drawing interactive maps with leaflet
…
m %>% addProviderTiles(providers$Esri.NatGeoWorldMap)

m %>% addProviderTiles(providers$Wikimedia)

Add markers

Markers are used to identify points on the map. Each point needs to be defined in terms of latitude/longitude coordinates. These can come from a variety of sources, most commonly either a map data file such as a shapefile or GeoJSON (imported using sf) or a data frame with latitude and longitude columns.

Let’s use the Chicago crimes data to draw a map of the city identifying the location of each reported homicide:

(homicides <- crimes %>%
  filter(`Primary Type` == "HOMICIDE"))

## # A tibble: 671 x 22
##         ID `Case Number` Date    Block   IUCR  `Primary Type` Description 
##      <int> <chr>         <chr>   <chr>   <chr> <chr>          <chr>       
##  1  2.31e4 JA149608      02/11/… 001XX … 0110  HOMICIDE       FIRST DEGRE…
##  2  2.39e4 JA530946      11/30/… 088XX … 0110  HOMICIDE       FIRST DEGRE…
##  3  2.34e4 JA302423      06/11/… 047XX … 0110  HOMICIDE       FIRST DEGRE…
##  4  2.34e4 JA312425      06/18/… 006XX … 0110  HOMICIDE       FIRST DEGRE…
##  5  2.37e4 JA490016      10/28/… 048XX … 0110  HOMICIDE       FIRST DEGRE…
##  6  2.32e4 JA210752      04/03/… 013XX … 0110  HOMICIDE       FIRST DEGRE…
##  7  2.36e4 JA461918      10/07/… 018XX … 0110  HOMICIDE       FIRST DEGRE…
##  8  2.36e4 JA461918      10/07/… 018XX … 0110  HOMICIDE       FIRST DEGRE…
##  9  1.08e7 JA138326      02/01/… 013XX … 0142  HOMICIDE       RECKLESS HO…
## 10  2.35e4 JA364517      07/26/… 047XX … 0110  HOMICIDE       FIRST DEGRE…
## # ... with 661 more rows, and 15 more variables: `Location
## #   Description` <chr>, Arrest <chr>, Domestic <chr>, Beat <chr>,
## #   District <chr>, Ward <int>, `Community Area` <int>, `FBI Code` <chr>,
## #   `X Coordinate` <int>, `Y Coordinate` <int>, Year <int>, `Updated
## #   On` <chr>, Latitude <dbl>, Longitude <dbl>, Location <chr>
…
