Drawing raster maps with ggmap
…
There is a large difference in the geographic density of narcotics crimes relative to the other catgories. While burglaries, motor vehicle thefts, and robberies are reasonably prevalent all across the city, the vast majority of narcotics crimes occur in the west and south sides of the city.

Locations of murders

While geom_point() was not appropriate for graphing a large number of observations in a dense geographic location, it does work rather well for less dense areas. Now let’s limit our analysis strictly to reported incidents of homicide in 2017.

(homicides <- crimes %>%
  filter(`Primary Type` == "HOMICIDE"))

## # A tibble: 671 x 23
##         ID `Case Number` Date                Block    IUCR  `Primary Type`
##      <int> <chr>         <dttm>              <chr>    <chr> <chr>         
##  1  2.31e4 JA149608      2017-02-11 07:05:00 001XX N… 0110  HOMICIDE      
##  2  2.39e4 JA530946      2017-11-30 11:45:00 088XX S… 0110  HOMICIDE      
##  3  2.34e4 JA302423      2017-06-11 18:48:00 047XX S… 0110  HOMICIDE      
##  4  2.34e4 JA312425      2017-06-18 16:23:00 006XX E… 0110  HOMICIDE      
##  5  2.37e4 JA490016      2017-10-28 22:50:00 048XX W… 0110  HOMICIDE      
##  6  2.32e4 JA210752      2017-04-03 12:34:00 013XX S… 0110  HOMICIDE      
##  7  2.36e4 JA461918      2017-10-07 11:11:00 018XX S… 0110  HOMICIDE      
##  8  2.36e4 JA461918      2017-10-07 11:11:00 018XX S… 0110  HOMICIDE      
##  9  1.08e7 JA138326      2017-02-01 18:37:57 013XX S… 0142  HOMICIDE      
## 10  2.35e4 JA364517      2017-07-26 17:04:00 047XX W… 0110  HOMICIDE      
## # ... with 661 more rows, and 17 more variables: Description <chr>,
## #   `Location Description` <chr>, Arrest <chr>, Domestic <chr>,
## #   Beat <chr>, District <chr>, Ward <int>, `Community Area` <int>, `FBI
## #   Code` <chr>, `X Coordinate` <int>, `Y Coordinate` <int>, Year <int>,
## #   `Updated On` <chr>, Latitude <dbl>, Longitude <dbl>, Location <chr>,
## #   wday <ord>
…
North Lawndale had the most reported homicides in 2017, whereas Kenwood had only a handful.

All the other aesthetic customizations of geom_point() work with ggmap. So we could expand these neighborhood maps to include all violent crime categories3 and distinguish each type by color:

(violent <- crimes %>%
  filter(`Primary Type` %in% c("HOMICIDE", "CRIM SEXUAL ASSAULT", "ROBBERY")))

## # A tibble: 14,146 x 23
##         ID `Case Number` Date                Block    IUCR  `Primary Type`
##      <int> <chr>         <dttm>              <chr>    <chr> <chr>         
##  1  1.12e7 JA531910      2017-12-01 06:20:00 022XX W… 0265  CRIM SEXUAL A…
##  2  1.10e7 JA322389      2017-06-25 19:00:00 003XX W… 031A  ROBBERY       
##  3  1.12e7 JA545986      2017-12-11 19:15:00 007XX N… 031A  ROBBERY       
##  4  1.12e7 JA546734      2017-12-12 18:00:00 007XX N… 031A  ROBBERY       
##  5  1.12e7 JB147188      2017-10-08 03:00:00 092XX S… 0281  CRIM SEXUAL A…
##  6  1.12e7 JB147599      2017-08-26 10:00:00 001XX W… 0281  CRIM SEXUAL A…
##  7  2.31e4 JA149608      2017-02-11 07:05:00 001XX N… 0110  HOMICIDE      
##  8  1.10e7 JA378592      2017-08-05 15:45:00 038XX W… 0313  ROBBERY       
##  9  1.12e7 JA538651      2017-12-06 09:15:00 092XX S… 031A  ROBBERY       
## 10  1.12e7 JB149656      2017-12-24 02:00:00 005XX S… 0330  ROBBERY       
## # ... with 14,136 more rows, and 17 more variables: Description <chr>,
## #   `Location Description` <chr>, Arrest <chr>, Domestic <chr>,
## #   Beat <chr>, District <chr>, Ward <int>, `Community Area` <int>, `FBI
## #   Code` <chr>, `X Coordinate` <int>, `Y Coordinate` <int>, Year <int>,
## #   `Updated On` <chr>, Latitude <dbl>, Longitude <dbl>, Location <chr>,
## #   wday <ord>
…
