R Markdown, git, and stuff
…
Make sure to use the proper program when entering the shell. For Mac users, that is Terminal. For Windows users, that is GitBash: if you followed the setup instructions properly, you should have this program on your computer. Look for it under the Start Menu > Git > GitBash. If you try to use the Command Prompt, you will run into errors because it uses different commands than GitBash.

Variable assignment vs. piping

Remember that with pipes, we don’t have to save all of our intermediate steps. We only use one assignment, like this:

(diamonds_summary <- diamonds %>%
  filter(carat > .2, carat < 2) %>%
  group_by(cut, color) %>%
  summarize(price = mean(price, na.rm = TRUE),
            depth = mean(depth, na.rm = TRUE))
 )

## Source: local data frame [35 x 4]
## Groups: cut [?]
## 
##      cut color    price    depth
##    <ord> <ord>    <dbl>    <dbl>
## 1   Fair     D 3865.121 64.02866
## 2   Fair     E 3406.472 63.29174
## 3   Fair     F 3441.201 63.48188
## 4   Fair     G 3331.885 64.19928
## 5   Fair     H 3922.667 64.53566
## 6   Fair     I 3516.860 64.05733
## 7   Fair     J 3323.617 64.10638
## 8   Good     D 3234.587 62.36570
## 9   Good     E 3246.772 62.22587
## 10  Good     F 3286.783 62.19631
## # ... with 25 more rows
…
