Statistical learning: generalized linear models
…
\[\mu_i = \ln(\eta_i)\]

So after substituting terms, we need to estimate the parameters that maximize the log-likelihood of:

\[P(Y_i = y_i | \beta_0, \beta_1) = \frac{\ln(\beta_0 + \beta_{1}X_i)^{k} e^{-y_i}}{y_i!}\]

Let’s test this method using some real-world data.

Internal armed conflict in Africa

africa <- read_dta("data/internal-conflict.dta")
africa

## # A tibble: 650 × 12
##    ccode  year cabbr INTERNAL latitude longitude literacy refugees
##    <dbl> <dbl> <chr>    <dbl>    <dbl>     <dbl>    <dbl>    <dbl>
## 1    404  1995              0 12.07582 -14.64071     44.0    15400
## 2    404  1996              0 12.07582 -14.64071     42.5    15400
## 3    404  1997   GNB        0 12.07582 -14.64071     41.0    16000
## 4    404  1998              0 12.07582 -14.64071     39.5     6600
## 5    404  1999   GNB        0 12.07582 -14.64071     38.0     7100
## 6    404  2000              0 12.07582 -14.64071     40.0     7600
## 7    404  2001   GNB        0 12.07582 -14.64071     42.0     7300
## 8    404  2002              0 12.07582 -14.64071     44.0     7600
## 9    404  2003              0 12.07582 -14.64071     46.0     7600
## 10   404  2004              0 12.07582 -14.64071     48.0     7536
## # ... with 640 more rows, and 4 more variables: lnRefs <dbl>, lnGDP <dbl>,
## #   lnTrade <dbl>, PolityLag <dbl>
…
Still quite similar to 1.

Ordinal logistic regression

Consider the case where your response variable contains more than 2 possible values and they are inherently ordered. Survey research typically contains answers measured using a Likert scale (strongly agree, agree, neither agree nor disagree, disagree, strongly disagree). What method should you use? Linear regression is not appropriate because the variable is discrete. Depending on the number of levels, some researchers may attempt to treat it as a continuous variable but when you only have 3-5 values this doesn’t work very well. Logistic regression sounds like it would work but so far we have only used it in situations where there are two possible outcomes. Can we generalize it to a larger number of response values?

Yes we can. This is called ordinal logistic regression. It works in situations where you have more than two possible outcomes and they contain an inherent ordering. Let’s see how this works using a simulated dataset of individuals applying to graduate school.

dat <- read_csv("http://www.ats.ucla.edu/stat/data/ologit.csv") %>%
  mutate(apply = factor(apply, levels = 0:2,
                        labels = c("Unlikely", "Somewhat unlikely", "Very likely")))
dat

## # A tibble: 400 × 4
##                apply pared public   gpa
##               <fctr> <int>  <int> <dbl>
## 1        Very likely     0      0  3.26
## 2  Somewhat unlikely     1      0  3.21
## 3           Unlikely     1      1  3.94
## 4  Somewhat unlikely     0      0  2.81
## 5  Somewhat unlikely     0      0  2.53
## 6           Unlikely     0      1  2.59
## 7  Somewhat unlikely     0      0  2.56
## 8  Somewhat unlikely     0      0  2.73
## 9           Unlikely     0      0  3.00
## 10 Somewhat unlikely     1      0  3.50
## # ... with 390 more rows
…
