Statistical learning: unsupervised learning
…
ap_lda <- LDA(ap_dtm, k = 12, control = list(seed = 1234))
ap_lda

## A LDA_VEM topic model with 12 topics.

ap_lda_td <- tidy(ap_lda)

top_terms <- ap_lda_td %>%
  group_by(topic) %>%
  top_n(5, beta) %>%
  ungroup() %>%
  arrange(topic, -beta)
top_terms

## # A tibble: 60 × 3
##    topic       term    beta
##    <int>      <chr>   <dbl>
## 1      1        air 0.00847
## 2      1     people 0.00613
## 3      1      miles 0.00601
## 4      1  officials 0.00573
## 5      1       fire 0.00570
## 6      2       bush 0.01805
## 7      2    dukakis 0.01612
## 8      2   campaign 0.01273
## 9      2  president 0.00990
## 10     2 democratic 0.00841
## # ... with 50 more rows
…
It looks like the 100-topic model has the lowest perplexity score. What kind of topics does this generate? Let’s look just at the first 12 topics produced by the model (ggplot2 has difficulty rendering a graph for 100 separate facets):

ap_lda_td <- tidy(ap_lda_compare[[6]])

top_terms <- ap_lda_td %>%
  group_by(topic) %>%
  top_n(5, beta) %>%
  ungroup() %>%
  arrange(topic, -beta)
top_terms

## # A tibble: 500 × 3
##    topic       term    beta
##    <int>      <chr>   <dbl>
## 1      1  president 0.00802
## 2      1        oil 0.00562
## 3      1     people 0.00553
## 4      1    embassy 0.00526
## 5      1 television 0.00518
## 6      2 convention 0.01627
## 7      2       york 0.01024
## 8      2    dukakis 0.00849
## 9      2   national 0.00693
## 10     2    jackson 0.00647
## # ... with 490 more rows
…
