Statistical learning: support vector machines
…
Based on our predictions from the test set, the radial SVM performs the best on the AUC, followed by the linear SVM, and worst of all the polynomial SVM.

Voter turnout

Let’s test the SVM method on our voter turnout data. Again, let’s start by splitting the data into training and test sets.4

(mh <- read_csv("data/mental_health.csv") %>%
  mutate_each(funs(as.factor(.)), vote96, black, female, married) %>%
  na.omit)

## # A tibble: 1,165 × 8
##    vote96 mhealth_sum   age  educ  black female married inc10
##    <fctr>       <dbl> <dbl> <dbl> <fctr> <fctr>  <fctr> <dbl>
## 1       1           0    60    12      0      0       0  4.81
## 2       1           1    36    12      0      0       1  8.83
## 3       0           7    21    13      0      0       0  1.74
## 4       0           6    29    13      0      0       0 10.70
## 5       1           1    41    15      1      1       1  8.83
## 6       1           2    48    20      0      0       1  8.83
## 7       0           9    20    12      0      1       0  7.22
## 8       0          12    27    11      0      1       0  1.20
## 9       1           2    28    16      0      0       1  7.22
## 10      1           0    72    14      0      0       1  4.01
## # ... with 1,155 more rows
…
