Statistical learning: resampling methods
…
\(n =\) the total number of observations

The MSE is an absolute measure of fit because its value depends on the measurement units of the response variable \(Y\). It will be small if predicted values \(\hat{Y}\) are close to the actual values \(Y\), and will be large if for some/all observations the predicted and actual values differ significantly.

Root mean squared error (RMSE) is the square root of MSE. It is also commonly seen in statistical packages as a model accuracy metric. You can use that as well, however we will use MSE because it is associated with variance (\(\sigma^2\)), whereas RMSE is associated with standard deviation (\(\sigma\)). Variance has certain statistical properties that are missing from standard deviation, so we will use MSE.

Consider the relationship between horsepower and car mileage in the Auto dataset (found in library(ISLR)):

library(ISLR)

Auto <- Auto %>%
  tbl_df()
Auto

## # A tibble: 392 × 9
##      mpg cylinders displacement horsepower weight acceleration  year
## *  <dbl>     <dbl>        <dbl>      <dbl>  <dbl>        <dbl> <dbl>
## 1     18         8          307        130   3504         12.0    70
## 2     15         8          350        165   3693         11.5    70
## 3     18         8          318        150   3436         11.0    70
## 4     16         8          304        150   3433         12.0    70
## 5     17         8          302        140   3449         10.5    70
## 6     15         8          429        198   4341         10.0    70
## 7     14         8          454        220   4354          9.0    70
## 8     14         8          440        215   4312          8.5    70
## 9     14         8          455        225   4425         10.0    70
## 10    15         8          390        190   3850          8.5    70
## # ... with 382 more rows, and 2 more variables: origin <dbl>, name <fctr>
…
