Statistical learning: non-parametric methods
…
Parametric methods

Parametric methods involve a two-stage process:

First make an assumption about the functional form of \(f\). For instance, OLS assumes that the relationship between \(X\) and \(Y\) is linear. This greatly simplifies the problem of estimating the model because we know a great deal about the properties of linear models.

After a model has been selected, we need to fit or train the model using the actual data. We demonstrated this previously with ordinary least squares. The estimation procedure minimizes the sum of the squares of the differences between the observed responses \(Y\) and those predicted by a linear function \(\hat{Y}\).

# get advertising data
(advertising <- read_csv("data/Advertising.csv") %>%
  tbl_df() %>%
  # remove id column
  select(-X1))

## # A tibble: 200 × 4
##       TV Radio Newspaper Sales
##    <dbl> <dbl>     <dbl> <dbl>
## 1  230.1  37.8      69.2  22.1
## 2   44.5  39.3      45.1  10.4
## 3   17.2  45.9      69.3   9.3
## 4  151.5  41.3      58.5  18.5
## 5  180.8  10.8      58.4  12.9
## 6    8.7  48.9      75.0   7.2
## 7   57.5  32.8      23.5  11.8
## 8  120.2  19.6      11.6  13.2
## 9    8.6   2.1       1.0   4.8
## 10 199.8   2.6      21.2  10.6
## # ... with 190 more rows
…
