Diagnostic tests for OLS/GLM
…
Non-normally distributed errors

Recall that OLS assumes errors are distributed normally:

\[\epsilon \sim N(0, \sigma_\epsilon^2)\]

However according to the central limit theorem, inference based on the least-squares estimator is approximately valid under broad conditions.3 So while the validity of the estimates is robust to violating this assumption, the efficiency of the estimates is not robust. Recall that efficiency guarantees us the smallest possible sampling variance and therefore the smallest possible mean squared error (MSE). Heavy-tailed or skewed distributions of the errors will therefore give rise to outliers (which we just recognized as a problem). Alternatively, we interpret the least-squares fit as a conditional mean \(Y | X\). But arithmetic means are not good measures of the center of a highly skewed distribution.

Detecting non-normally distributed errors

Graphical interpretations are easiest to detect non-normality in the errors. Consider a regression model using survey data from the 1994 wave of Statistics Canada’s Survey of Labour and Income Dynamics (SLID), explaining hourly wages as an outcome of sex, education, and age:

(slid <- read_tsv("http://socserv.socsci.mcmaster.ca/jfox/Books/Applied-Regression-3E/datasets/SLID-Ontario.txt"))

## # A tibble: 3,997 × 4
##      age    sex compositeHourlyWages yearsEducation
##    <int>  <chr>                <dbl>          <int>
##  1    40   Male                10.56             15
##  2    19   Male                11.00             13
##  3    46   Male                17.76             14
##  4    50 Female                14.00             16
##  5    31   Male                 8.20             15
##  6    30 Female                16.97             13
##  7    61 Female                 6.70             12
##  8    46 Female                14.00             14
##  9    43   Male                19.20             18
## 10    17   Male                 7.25             11
## # ... with 3,987 more rows
…
