Iteration
…
Here, preallocating space for the vector cuts the computation time by a factor of 3.

Exercise: write a for loop

Mean of columns in mtcars

Write a for loop that calculates the arithmetic mean for every column in mtcars.

as_tibble(mtcars)

## # A tibble: 32 x 11
##      mpg   cyl  disp    hp  drat    wt  qsec    vs    am  gear  carb
##  * <dbl> <dbl> <dbl> <dbl> <dbl> <dbl> <dbl> <dbl> <dbl> <dbl> <dbl>
##  1  21.0     6 160.0   110  3.90 2.620 16.46     0     1     4     4
##  2  21.0     6 160.0   110  3.90 2.875 17.02     0     1     4     4
##  3  22.8     4 108.0    93  3.85 2.320 18.61     1     1     4     1
##  4  21.4     6 258.0   110  3.08 3.215 19.44     1     0     3     1
##  5  18.7     8 360.0   175  3.15 3.440 17.02     0     0     3     2
##  6  18.1     6 225.0   105  2.76 3.460 20.22     1     0     3     1
##  7  14.3     8 360.0   245  3.21 3.570 15.84     0     0     3     4
##  8  24.4     4 146.7    62  3.69 3.190 20.00     1     0     4     2
##  9  22.8     4 140.8    95  3.92 3.150 22.90     1     0     4     2
## 10  19.2     6 167.6   123  3.92 3.440 18.30     1     0     4     4
## # ... with 22 more rows
…
output

##  [1]  20.090625   6.187500 230.721875 146.687500   3.596563   3.217250
##  [7]  17.848750   0.437500   0.406250   3.687500   2.812500

Maximum value in each column of diamonds

Write a for loop that calculates the maximum value in each column of diamonds.

diamonds

## # A tibble: 53,940 x 10
##    carat       cut color clarity depth table price     x     y     z
##    <dbl>     <ord> <ord>   <ord> <dbl> <dbl> <int> <dbl> <dbl> <dbl>
##  1  0.23     Ideal     E     SI2  61.5    55   326  3.95  3.98  2.43
##  2  0.21   Premium     E     SI1  59.8    61   326  3.89  3.84  2.31
##  3  0.23      Good     E     VS1  56.9    65   327  4.05  4.07  2.31
##  4  0.29   Premium     I     VS2  62.4    58   334  4.20  4.23  2.63
##  5  0.31      Good     J     SI2  63.3    58   335  4.34  4.35  2.75
##  6  0.24 Very Good     J    VVS2  62.8    57   336  3.94  3.96  2.48
##  7  0.24 Very Good     I    VVS1  62.3    57   336  3.95  3.98  2.47
##  8  0.26 Very Good     H     SI1  61.9    55   337  4.07  4.11  2.53
##  9  0.22      Fair     E     VS2  65.1    61   337  3.87  3.78  2.49
## 10  0.23 Very Good     H     VS1  59.4    61   338  4.00  4.05  2.39
## # ... with 53,930 more rows
…
df %>%
  map_dbl(mean, na.rm = TRUE)

##          a          b          c          d 
## -0.3831574 -0.1181707 -0.3879468 -0.7661931

Exercise: rewrite our for loops using a map() function

Mean of columns in mtcars

Write a map() function that calculates the arithmetic mean for every column in mtcars.

as_tibble(mtcars)

## # A tibble: 32 x 11
##      mpg   cyl  disp    hp  drat    wt  qsec    vs    am  gear  carb
##  * <dbl> <dbl> <dbl> <dbl> <dbl> <dbl> <dbl> <dbl> <dbl> <dbl> <dbl>
##  1  21.0     6 160.0   110  3.90 2.620 16.46     0     1     4     4
##  2  21.0     6 160.0   110  3.90 2.875 17.02     0     1     4     4
##  3  22.8     4 108.0    93  3.85 2.320 18.61     1     1     4     1
##  4  21.4     6 258.0   110  3.08 3.215 19.44     1     0     3     1
##  5  18.7     8 360.0   175  3.15 3.440 17.02     0     0     3     2
##  6  18.1     6 225.0   105  2.76 3.460 20.22     1     0     3     1
##  7  14.3     8 360.0   245  3.21 3.570 15.84     0     0     3     4
##  8  24.4     4 146.7    62  3.69 3.190 20.00     1     0     4     2
##  9  22.8     4 140.8    95  3.92 3.150 22.90     1     0     4     2
## 10  19.2     6 167.6   123  3.92 3.440 18.30     1     0     4     4
## # ... with 22 more rows
…
map_dbl(mtcars, mean)

##        mpg        cyl       disp         hp       drat         wt 
##  20.090625   6.187500 230.721875 146.687500   3.596563   3.217250 
##       qsec         vs         am       gear       carb 
##  17.848750   0.437500   0.406250   3.687500   2.812500

Maximum value in each column of diamonds

Write a map() function that calculates the maximum value in each column of diamonds.

diamonds

## # A tibble: 53,940 x 10
##    carat       cut color clarity depth table price     x     y     z
##    <dbl>     <ord> <ord>   <ord> <dbl> <dbl> <int> <dbl> <dbl> <dbl>
##  1  0.23     Ideal     E     SI2  61.5    55   326  3.95  3.98  2.43
##  2  0.21   Premium     E     SI1  59.8    61   326  3.89  3.84  2.31
##  3  0.23      Good     E     VS1  56.9    65   327  4.05  4.07  2.31
##  4  0.29   Premium     I     VS2  62.4    58   334  4.20  4.23  2.63
##  5  0.31      Good     J     SI2  63.3    58   335  4.34  4.35  2.75
##  6  0.24 Very Good     J    VVS2  62.8    57   336  3.94  3.96  2.48
##  7  0.24 Very Good     I    VVS1  62.3    57   336  3.95  3.98  2.47
##  8  0.26 Very Good     H     SI1  61.9    55   337  4.07  4.11  2.53
##  9  0.22      Fair     E     VS2  65.1    61   337  3.87  3.78  2.49
## 10  0.23 Very Good     H     VS1  59.4    61   338  4.00  4.05  2.39
## # ... with 53,930 more rows
…
##   cyl_min disp_min hp_min drat_min wt_min qsec_min vs_min am_min gear_min
## 1       4     71.1     52     2.76  1.513     14.5      0      0        3
##   carb_min cyl_max disp_max hp_max drat_max wt_max qsec_max vs_max am_max
## 1        1       8      472    335     4.93  5.424     22.9      1      1
##   gear_max carb_max
## 1        5        8

summarize_if()

summarize_at() allows you to pick variables to summarize based on their name, whereas summarize_if() allows you to pick variables to summarize based on some property of the column. Typically this is their type because you want to (e.g.) apply a numeric summary function only to numeric columns:

starwars

## # A tibble: 87 x 13
##                  name height  mass    hair_color  skin_color eye_color
##                 <chr>  <int> <dbl>         <chr>       <chr>     <chr>
##  1     Luke Skywalker    172    77         blond        fair      blue
##  2              C-3PO    167    75          <NA>        gold    yellow
##  3              R2-D2     96    32          <NA> white, blue       red
##  4        Darth Vader    202   136          none       white    yellow
##  5        Leia Organa    150    49         brown       light     brown
##  6          Owen Lars    178   120   brown, grey       light      blue
##  7 Beru Whitesun lars    165    75         brown       light      blue
##  8              R5-D4     97    32          <NA>  white, red       red
##  9  Biggs Darklighter    183    84         black       light     brown
## 10     Obi-Wan Kenobi    182    77 auburn, white        fair blue-gray
## # ... with 77 more rows, and 7 more variables: birth_year <dbl>,
## #   gender <chr>, homeworld <chr>, species <chr>, films <list>,
## #   vehicles <list>, starships <list>

starwars %>%
  group_by(species) %>%
  summarize_if(is.numeric, mean, na.rm = TRUE)

## # A tibble: 38 x 4
##      species   height   mass birth_year
##        <chr>    <dbl>  <dbl>      <dbl>
##  1    Aleena  79.0000  15.00        NaN
##  2  Besalisk 198.0000 102.00        NaN
##  3    Cerean 198.0000  82.00   92.00000
##  4  Chagrian 196.0000    NaN        NaN
##  5  Clawdite 168.0000  55.00        NaN
##  6     Droid 140.0000  69.75   53.33333
##  7       Dug 112.0000  40.00        NaN
##  8      Ewok  88.0000  20.00    8.00000
##  9 Geonosian 183.0000  80.00        NaN
## 10    Gungan 208.6667  74.00   52.00000
## # ... with 28 more rows
…
Filter

filter_all() is the most useful of the three filter() variants. You use it conjunction with all_vars() or any_vars() depending on whether or not you want rows where all variables meet the criterion, or where just one variable meets it.

It’s particularly useful finding missing values:

library(nycflights13)

# Rows where any value is missing
filter_all(weather, any_vars(is.na(.)))

## # A tibble: 3,109 x 15
##    origin  year month   day  hour  temp  dewp humid wind_dir wind_speed
##     <chr> <dbl> <dbl> <int> <int> <dbl> <dbl> <dbl>    <dbl>      <dbl>
##  1    EWR  2013     1     1    17 39.20 28.40 64.93      270   16.11092
##  2    EWR  2013     1     1    18 39.20 28.40 64.93      330   14.96014
##  3    EWR  2013     1     3    16 30.92 14.00 49.01       NA    4.60312
##  4    EWR  2013     1     6    10 33.80 30.20 86.49      210    4.60312
##  5    EWR  2013     1     6    12 33.80 32.00 93.03      220    9.20624
##  6    EWR  2013     1     6    13 35.60 32.00 86.59      240    8.05546
##  7    EWR  2013     1     6    14 35.60 32.00 86.59      230    8.05546
##  8    EWR  2013     1     6    15 37.40 30.20 74.98      250   11.50780
##  9    EWR  2013     1    11    17 44.96 35.96 70.52       NA    4.60312
## 10    EWR  2013     1    11    21 46.40 39.20 75.84       90    4.60312
## # ... with 3,099 more rows, and 5 more variables: wind_gust <dbl>,
## #   precip <dbl>, pressure <dbl>, visib <dbl>, time_hour <dttm>
…
