Practice the pipe
…
Write your code using all four methods:

Intermediate steps

Overwrite the original

Function composition

Piping

data("gun_deaths")
gun_deaths

## # A tibble: 100,798 x 10
##       id  year month       intent police   sex   age
##    <int> <int> <dbl>        <chr>  <int> <chr> <int>
##  1     1  2012     1      Suicide      0     M    34
##  2     2  2012     1      Suicide      0     F    21
##  3     3  2012     1      Suicide      0     M    60
##  4     4  2012     2      Suicide      0     M    64
##  5     5  2012     2      Suicide      0     M    31
##  6     6  2012     2      Suicide      0     M    17
##  7     7  2012     2 Undetermined      0     M    48
##  8     8  2012     3      Suicide      0     M    41
##  9     9  2012     2   Accidental      0     M    50
## 10    10  2012     2      Suicide      0     M    NA
## # ... with 100,788 more rows, and 3 more variables: race <chr>,
## #   place <chr>, education <fctr>
…
