Statistical learning: logistic regression
…
No more predictions that a 200 year old has a \(-.1\) probability of surviving!

Adding predictions

To visualise the predictions from a model, we start by generating an evenly spaced grid of values that covers the region where our data lies. First we use modelr::data_grid() to create a cleaned data frame of potential values:

titanic_age <- titanic %>%
  data_grid(Age)
titanic_age

## # A tibble: 88 × 1
##      Age
##    <dbl>
## 1   0.42
## 2   0.67
## 3   0.75
## 4   0.83
## 5   0.92
## 6   1.00
## 7   2.00
## 8   3.00
## 9   4.00
## 10  5.00
## # ... with 78 more rows

Next we could use the add_predictions function to produce the predicted probabilities. This worked very well for linear models; unfortunately it is not perfect for logistic regression. This is because, in truth, logistic regression directly estimates the log-odds for the outcome. Instead, we want the plain old predicted probability. To do this, use this custom function to convert from log-odds to predicted probabilties:3

logit2prob <- function(x){
  exp(x) / (1 + exp(x))
}

library(modelr)

titanic_age <- titanic_age %>%
  add_predictions(survive_age) %>%
  mutate(pred = logit2prob(pred))
titanic_age

## # A tibble: 88 × 2
##      Age      pred
##    <dbl>     <dbl>
## 1   0.42 0.4846727
## 2   0.67 0.4839882
## 3   0.75 0.4837691
## 4   0.83 0.4835501
## 5   0.92 0.4833037
## 6   1.00 0.4830847
## 7   2.00 0.4803475
## 8   3.00 0.4776115
## 9   4.00 0.4748768
## 10  5.00 0.4721436
## # ... with 78 more rows
…
The coefficients essentially tell us the relationship between each individual predictor and the response, independent of other predictors. So this model tells us the relationship between age and survival, after controlling for the effects of gender. Likewise, it also tells us the relationship between gender and survival, after controlling for the effects of age. To get a better visualization of this, let’s use data_grid() and add_predictions() again:

titanic_age_sex <- titanic %>%
  data_grid(Age, Sex) %>%
  add_predictions(survive_age_woman) %>%
  mutate(pred = logit2prob(pred))
titanic_age_sex

## # A tibble: 176 × 3
##      Age    Sex      pred
##    <dbl>  <chr>     <dbl>
## 1   0.42 female 0.7815965
## 2   0.42   male 0.2330934
## 3   0.67 female 0.7813649
## 4   0.67   male 0.2328510
## 5   0.75 female 0.7812907
## 6   0.75   male 0.2327735
## 7   0.83 female 0.7812165
## 8   0.83   male 0.2326960
## 9   0.92 female 0.7811330
## 10  0.92   male 0.2326088
## # ... with 166 more rows
…
As before, let’s estimate predicted probabilities and plot the interactive effects of age and gender.

titanic_age_sex_x <- titanic %>%
  data_grid(Age, Sex) %>%
  add_predictions(survive_age_woman_x) %>%
  mutate(pred = logit2prob(pred))
titanic_age_sex_x

## # A tibble: 176 × 3
##      Age    Sex      pred
##    <dbl>  <chr>     <dbl>
## 1   0.42 female 0.6461311
## 2   0.42   male 0.3245488
## 3   0.67 female 0.6472564
## 4   0.67   male 0.3233762
## 5   0.75 female 0.6476162
## 6   0.75   male 0.3230014
## 7   0.83 female 0.6479758
## 8   0.83   male 0.3226269
## 9   0.92 female 0.6483802
## 10  0.92   male 0.3222058
## # ... with 166 more rows
…
## [1] 0.7636364

This is reassuring. \(76.4\%\) of the test set observations were accurately predicted. Remember, we explicitly set this up so that the model never saw the test observations, and they never factored into our decisionmaking process when we generated the model. This tells us that we did a pretty good job estimating the functional form \(f\) for the entire dataset, not just the training set.

Exercise: logistic regression with mental_health

Why do some people vote in elections while others do not? Typical explanations focus on a resource model of participation – individuals with greater resources, such as time, money, and civic skills, are more likely to participate in politics. An emerging theory assesses an individual’s mental health and its effect on political participation.6 Depression increases individuals’ feelings of hopelessness and political efficacy, so depressed individuals will have less desire to participate in politics. More importantly to our resource model of participation, individuals with depression suffer physical ailments such as a lack of energy, headaches, and muscle soreness which drain an individual’s energy and requires time and money to receive treatment. For these reasons, we should expect that individuals with depression are less likely to participate in election than those without symptoms of depression.

Use the mental_health data set in library(rcfss) and logistic regression to predict whether or not an individual voted in the 1996 presidental election.7

library(rcfss)
mental_health

## # A tibble: 1,317 × 5
##    vote96   age  educ female mhealth
##     <dbl> <dbl> <dbl>  <dbl>   <dbl>
## 1       1    60    12      0       0
## 2       1    36    12      0       1
## 3       0    21    13      0       7
## 4       0    29    13      0       6
## 5       1    39    18      1       2
## 6       1    41    15      1       1
## 7       1    48    20      0       2
## 8       0    20    12      1       9
## 9       0    27    11      1       9
## 10      0    34     7      1       2
## # ... with 1,307 more rows
…
General at least as applied to the Titanic. I’d like to think technology has advanced some since the early 20th century that the same patterns do not apply today. Not that sinking ships have gone away.↩

The threshold can be adjusted depending on how conservative or risky of a prediction you wish to make.↩

Alternatively, we can use broom::augment to add predicted probabilities for the original dataset:

library(broom)

augment(survive_age, newdata = titanic_age, type.predict = "response") %>%
  as_tibble()

## # A tibble: 88 × 4
##      Age      pred   .fitted    .se.fit
##    <dbl>     <dbl>     <dbl>      <dbl>
## 1   0.42 0.4846727 0.4846727 0.04285304
## 2   0.67 0.4839882 0.4839882 0.04255168
## 3   0.75 0.4837691 0.4837691 0.04245533
## 4   0.83 0.4835501 0.4835501 0.04235903
## 5   0.92 0.4833037 0.4833037 0.04225074
## 6   1.00 0.4830847 0.4830847 0.04215452
## 7   2.00 0.4803475 0.4803475 0.04095580
## 8   3.00 0.4776115 0.4776115 0.03976503
## 9   4.00 0.4748768 0.4748768 0.03858327
## 10  5.00 0.4721436 0.4721436 0.03741165
## # ... with 78 more rows
…
