Statistical learning: decision trees and random forests
…
We reach a terminal node (Died). We would predict the passenger in question died in the sinking of the Titanic.

Estimating a decision tree

First we need to load the tree library and prepare the data. tree is somewhat finicky about how data must be formatted in order to estimate the tree. For the Titanic data, we need to convert all qualitiative variables to factors using the as.factor() function. To make interpretation easier, I also recoded Survived from its 0/1 coding to explicitly identify which passengers survived and which died.

library(tree)

titanic_tree_data <- titanic %>%
  mutate(Survived = if_else(Survived == 1, "Survived", "Died"),
         Survived = as.factor(Survived),
         Sex = as.factor(Sex))
titanic_tree_data

## # A tibble: 891 x 12
##    PassengerId Survived Pclass
##          <int>   <fctr>  <int>
##  1           1     Died      3
##  2           2 Survived      1
##  3           3 Survived      3
##  4           4 Survived      1
##  5           5     Died      3
##  6           6     Died      3
##  7           7     Died      1
##  8           8     Died      3
##  9           9 Survived      3
## 10          10 Survived      2
## # ... with 881 more rows, and 9 more variables: Name <chr>, Sex <fctr>,
## #   Age <dbl>, SibSp <int>, Parch <int>, Ticket <chr>, Fare <dbl>,
## #   Cabin <chr>, Embarked <chr>
…
Estimating a random forest

We will reuse titanic_tree_full_data with the adjustment that we need to remove observations with missing values. In the process, lets pare the data frame down to only columns that will be used the model:

titanic_rf_data <- titanic_tree_full_data %>%
  select(Survived, Pclass, Sex, Age, SibSp, Parch, Fare, Embarked) %>%
  na.omit()
titanic_rf_data

## # A tibble: 714 x 8
##    Survived Pclass    Sex   Age SibSp Parch    Fare Embarked
##      <fctr>  <int> <fctr> <dbl> <int> <int>   <dbl>   <fctr>
##  1     Died      3   male    22     1     0  7.2500        S
##  2 Survived      1 female    38     1     0 71.2833        C
##  3 Survived      3 female    26     0     0  7.9250        S
##  4 Survived      1 female    35     1     0 53.1000        S
##  5     Died      3   male    35     0     0  8.0500        S
##  6     Died      1   male    54     0     0 51.8625        S
##  7     Died      3   male     2     3     1 21.0750        S
##  8 Survived      3 female    27     0     2 11.1333        S
##  9 Survived      2 female    14     1     0 30.0708        C
## 10 Survived      3 female     4     1     1 16.7000        S
## # ... with 704 more rows
…
