Statistical learning: linear regression
…
This looks like the line from before, but without the confidence interval. This is a bit more involved of a process, but it can work with any type of model you create - not just very basic, linear models.

Residuals

We can also calculate the residuals, or that distance between the actual and predicted values of \(y\). To do that, we again use augment() but do not input a new data frame:

sim1_resid <- augment(sim1_mod)
sim1_resid

## # A tibble: 30 x 9
##        y     x .fitted .se.fit   .resid   .hat .sigma   .cooksd .std.resid
##  * <dbl> <int>   <dbl>   <dbl>    <dbl>  <dbl>  <dbl>     <dbl>      <dbl>
##  1  4.20     1    6.27   0.748 -2.07    0.115    2.20   6.51e-2   -1.00   
##  2  7.51     1    6.27   0.748  1.24    0.115    2.23   2.32e-2    0.598  
##  3  2.13     1    6.27   0.748 -4.15    0.115    2.08   2.61e-1   -2.00   
##  4  8.99     2    8.32   0.634  0.665   0.0828   2.24   4.49e-3    0.315  
##  5 10.2      2    8.32   0.634  1.92    0.0828   2.21   3.74e-2    0.910  
##  6 11.3      2    8.32   0.634  2.97    0.0828   2.16   8.97e-2    1.41   
##  7  7.36     3   10.4    0.533 -3.02    0.0586   2.16   6.21e-2   -1.41   
##  8 10.5      3   10.4    0.533  0.130   0.0586   2.24   1.15e-4    0.0608 
##  9 10.5      3   10.4    0.533  0.136   0.0586   2.24   1.26e-4    0.0637 
## 10 12.4      4   12.4    0.454  0.00763 0.0424   2.24   2.78e-7    0.00354
## # ... with 20 more rows
…
Reviewing your residuals can be helpful. Sometimes your model is better at predicting some types of observations better than others. This could help you isolate further patterns and improve the predictive accuracy of your model.

Estimating a linear model(s) using gapminder

Overall model

Recall the gapminder dataset, which includes measures of life expectancy over time for all countries in the world.

library(gapminder)
gapminder

## # A tibble: 1,704 x 6
##    country     continent  year lifeExp      pop gdpPercap
##    <fct>       <fct>     <int>   <dbl>    <int>     <dbl>
##  1 Afghanistan Asia       1952    28.8  8425333      779.
##  2 Afghanistan Asia       1957    30.3  9240934      821.
##  3 Afghanistan Asia       1962    32.0 10267083      853.
##  4 Afghanistan Asia       1967    34.0 11537966      836.
##  5 Afghanistan Asia       1972    36.1 13079460      740.
##  6 Afghanistan Asia       1977    38.4 14880372      786.
##  7 Afghanistan Asia       1982    39.9 12881816      978.
##  8 Afghanistan Asia       1987    40.8 13867957      852.
##  9 Afghanistan Asia       1992    41.7 16317921      649.
## 10 Afghanistan Asia       1997    41.8 22227415      635.
## # ... with 1,694 more rows
…
grid <- gapminder %>% 
  data_grid(year, country) 
grid

## # A tibble: 1,704 x 2
##     year country    
##    <int> <fct>      
##  1  1952 Afghanistan
##  2  1952 Albania    
##  3  1952 Algeria    
##  4  1952 Angola     
##  5  1952 Argentina  
##  6  1952 Australia  
##  7  1952 Austria    
##  8  1952 Bahrain    
##  9  1952 Bangladesh 
## 10  1952 Belgium    
## # ... with 1,694 more rows

grid <- augment(gapminder_mod, newdata = grid) 
grid

## # A tibble: 1,704 x 4
##     year country     .fitted .se.fit
##  * <int> <fct>         <dbl>   <dbl>
##  1  1952 Afghanistan    50.5   0.530
##  2  1952 Albania        50.5   0.530
##  3  1952 Algeria        50.5   0.530
##  4  1952 Angola         50.5   0.530
##  5  1952 Argentina      50.5   0.530
##  6  1952 Australia      50.5   0.530
##  7  1952 Austria        50.5   0.530
##  8  1952 Bahrain        50.5   0.530
##  9  1952 Bangladesh     50.5   0.530
## 10  1952 Belgium        50.5   0.530
## # ... with 1,694 more rows
…
Notice that the structure of the resulting object is a tidy data frame. Every row contains a single parameter, every column contains a single statistic, and every cell contains exactly one value.

augment()

augment() adds columns to the original data that was modeled. This could include predictions, residuals, and other observation-level statistics.

augment(gapminder_mod) %>%
  as_tibble()

## # A tibble: 1,704 x 9
##    lifeExp  year .fitted .se.fit .resid     .hat .sigma  .cooksd .std.resid
##  *   <dbl> <int>   <dbl>   <dbl>  <dbl>    <dbl>  <dbl>    <dbl>      <dbl>
##  1    28.8  1952    50.5   0.530  -21.7 0.00208    11.6 0.00363       -1.87
##  2    30.3  1957    52.1   0.463  -21.8 0.00158    11.6 0.00279       -1.88
##  3    32.0  1962    53.8   0.401  -21.8 0.00119    11.6 0.00209       -1.87
##  4    34.0  1967    55.4   0.348  -21.4 0.000895   11.6 0.00151       -1.84
##  5    36.1  1972    57.0   0.307  -20.9 0.000698   11.6 0.00113       -1.80
##  6    38.4  1977    58.7   0.285  -20.2 0.000599   11.6 0.000907      -1.74
##  7    39.9  1982    60.3   0.285  -20.4 0.000599   11.6 0.000926      -1.76
##  8    40.8  1987    61.9   0.307  -21.1 0.000698   11.6 0.00115       -1.81
##  9    41.7  1992    63.5   0.348  -21.9 0.000895   11.6 0.00159       -1.88
## 10    41.8  1997    65.2   0.401  -23.4 0.00119    11.6 0.00242       -2.01
## # ... with 1,694 more rows
…
Separate models for each country using map() and nested data frames

What if we want to estimate separate models for every country? We could do this manually, creating a new data frame for each country. But this is tedious and repetitive. We learned a couple of weeks ago how to iterate using for loops. We could do this using a for loop, but this will take a bunch of code. Instead, let’s use the map() functions we already learned, but add an additional component on top of that.

Instead of repeating an action for each column (variable), we want to repeat an action for each country, a subset of rows. To do that, we need a new data structure: the nested data frame. To create a nested data frame we start with a grouped data frame, and “nest” it:

by_country <- gapminder %>% 
  group_by(country, continent) %>% 
  nest()

by_country

## # A tibble: 142 x 3
##    country     continent data             
##    <fct>       <fct>     <list>           
##  1 Afghanistan Asia      <tibble [12 × 4]>
##  2 Albania     Europe    <tibble [12 × 4]>
##  3 Algeria     Africa    <tibble [12 × 4]>
##  4 Angola      Africa    <tibble [12 × 4]>
##  5 Argentina   Americas  <tibble [12 × 4]>
##  6 Australia   Oceania   <tibble [12 × 4]>
##  7 Austria     Europe    <tibble [12 × 4]>
##  8 Bahrain     Asia      <tibble [12 × 4]>
##  9 Bangladesh  Asia      <tibble [12 × 4]>
## 10 Belgium     Europe    <tibble [12 × 4]>
## # ... with 132 more rows
…
country_model <- function(df) {
  lm(lifeExp ~ year, data = df)
}

And we want to apply it to each country. That is exactly what map() is designed for.

models <- map(by_country$data, country_model)

And because models is a list and we just saw how to create list-columns, we could store the models as a new column in by_country to keep all the data and analysis together.

by_country <- by_country %>%
  mutate(model = map(data, country_model))
by_country

## # A tibble: 142 x 4
##    country     continent data              model   
##    <fct>       <fct>     <list>            <list>  
##  1 Afghanistan Asia      <tibble [12 × 4]> <S3: lm>
##  2 Albania     Europe    <tibble [12 × 4]> <S3: lm>
##  3 Algeria     Africa    <tibble [12 × 4]> <S3: lm>
##  4 Angola      Africa    <tibble [12 × 4]> <S3: lm>
##  5 Argentina   Americas  <tibble [12 × 4]> <S3: lm>
##  6 Australia   Oceania   <tibble [12 × 4]> <S3: lm>
##  7 Austria     Europe    <tibble [12 × 4]> <S3: lm>
##  8 Bahrain     Asia      <tibble [12 × 4]> <S3: lm>
##  9 Bangladesh  Asia      <tibble [12 × 4]> <S3: lm>
## 10 Belgium     Europe    <tibble [12 × 4]> <S3: lm>
## # ... with 132 more rows

Now if we filter or change the order of the observations, models also changes order.

by_country %>% 
  filter(continent == "Europe")

## # A tibble: 30 x 4
##    country                continent data              model   
##    <fct>                  <fct>     <list>            <list>  
##  1 Albania                Europe    <tibble [12 × 4]> <S3: lm>
##  2 Austria                Europe    <tibble [12 × 4]> <S3: lm>
##  3 Belgium                Europe    <tibble [12 × 4]> <S3: lm>
##  4 Bosnia and Herzegovina Europe    <tibble [12 × 4]> <S3: lm>
##  5 Bulgaria               Europe    <tibble [12 × 4]> <S3: lm>
##  6 Croatia                Europe    <tibble [12 × 4]> <S3: lm>
##  7 Czech Republic         Europe    <tibble [12 × 4]> <S3: lm>
##  8 Denmark                Europe    <tibble [12 × 4]> <S3: lm>
##  9 Finland                Europe    <tibble [12 × 4]> <S3: lm>
## 10 France                 Europe    <tibble [12 × 4]> <S3: lm>
## # ... with 20 more rows

Unnesting

What if we want to compute residuals for 142 countries and 142 models? We still use the add_residuals() function, but we have to combine it with a map() function call. Because add_residuals() requires two arguments (data and model), we use the map2() function. map2() allows us to map() over two sets of inputs rather than the normal one:

by_country <- by_country %>% 
  mutate(
    resids = map2(data, model, add_residuals)
  )
by_country

## # A tibble: 142 x 5
##    country     continent data              model    resids           
##    <fct>       <fct>     <list>            <list>   <list>           
##  1 Afghanistan Asia      <tibble [12 × 4]> <S3: lm> <tibble [12 × 5]>
##  2 Albania     Europe    <tibble [12 × 4]> <S3: lm> <tibble [12 × 5]>
##  3 Algeria     Africa    <tibble [12 × 4]> <S3: lm> <tibble [12 × 5]>
##  4 Angola      Africa    <tibble [12 × 4]> <S3: lm> <tibble [12 × 5]>
##  5 Argentina   Americas  <tibble [12 × 4]> <S3: lm> <tibble [12 × 5]>
##  6 Australia   Oceania   <tibble [12 × 4]> <S3: lm> <tibble [12 × 5]>
##  7 Austria     Europe    <tibble [12 × 4]> <S3: lm> <tibble [12 × 5]>
##  8 Bahrain     Asia      <tibble [12 × 4]> <S3: lm> <tibble [12 × 5]>
##  9 Bangladesh  Asia      <tibble [12 × 4]> <S3: lm> <tibble [12 × 5]>
## 10 Belgium     Europe    <tibble [12 × 4]> <S3: lm> <tibble [12 × 5]>
## # ... with 132 more rows

What if you want to plot the residuals? We need to unnest the residuals. unnest() makes each element of the list its own row:

resids <- unnest(by_country, resids)
resids

## # A tibble: 1,704 x 7
##    country     continent  year lifeExp      pop gdpPercap   resid
##    <fct>       <fct>     <int>   <dbl>    <int>     <dbl>   <dbl>
##  1 Afghanistan Asia       1952    28.8  8425333      779. -1.11  
##  2 Afghanistan Asia       1957    30.3  9240934      821. -0.952 
##  3 Afghanistan Asia       1962    32.0 10267083      853. -0.664 
##  4 Afghanistan Asia       1967    34.0 11537966      836. -0.0172
##  5 Afghanistan Asia       1972    36.1 13079460      740.  0.674 
##  6 Afghanistan Asia       1977    38.4 14880372      786.  1.65  
##  7 Afghanistan Asia       1982    39.9 12881816      978.  1.69  
##  8 Afghanistan Asia       1987    40.8 13867957      852.  1.28  
##  9 Afghanistan Asia       1992    41.7 16317921      649.  0.754 
## 10 Afghanistan Asia       1997    41.8 22227415      635. -0.534 
## # ... with 1,694 more rows
…
Exercise: linear regression with scorecard

Recall the scorecard data set which contains information on U.S. institutions of higher learning.

library(rcfss)
scorecard

## # A tibble: 1,849 x 12
##    unitid name  state type   cost admrate satavg avgfacsal pctpell comprate
##     <int> <chr> <chr> <chr> <int>   <dbl>  <dbl>     <dbl>   <dbl>    <dbl>
##  1 450234 ITT … KS    Priv… 28306    81.3     NA     45054   0.803    0.6  
##  2 448479 ITT … MI    Priv… 26994    98.3     NA     52857   0.774    0.336
##  3 456427 ITT … CA    Priv… 26353    89.3     NA        NA   0.704   NA    
##  4 459596 ITT … FL    Priv… 28894    58.4     NA     47196   0.778   NA    
##  5 459851 Herz… WI    Priv… 23928    68.8     NA     55089   0.610   NA    
##  6 482477 DeVr… IL    Priv… 25625    70.4     NA     62793   0.641    0.294
##  7 482547 DeVr… NV    Priv… 24265    80       NA     47556   0.636    0.636
##  8 482592 DeVr… OR    Priv…    NA    50       NA     60003   0.671    0    
##  9 482617 DeVr… TN    Priv… 20983    66.7     NA     51660   0.720    0    
## 10 482662 DeVr… WA    Priv… 21999    77.8     NA     56160   0.586    0.290
## # ... with 1,839 more rows, and 2 more variables: firstgen <dbl>,
## #   debt <dbl>
…
