Statistical learning: resampling methods
…
mean(x_test_accuracy$Survived == x_test_accuracy$pred, na.rm = TRUE)

## [1] 0.7511962

Regression

This method also works for regression analysis. Here we will examine the relationship between horsepower and car mileage in the Auto dataset (found in library(ISLR)):

library(ISLR)

Auto <- Auto %>%
  tbl_df()
Auto

## # A tibble: 392 × 9
##      mpg cylinders displacement horsepower weight acceleration  year
## *  <dbl>     <dbl>        <dbl>      <dbl>  <dbl>        <dbl> <dbl>
## 1     18         8          307        130   3504         12.0    70
## 2     15         8          350        165   3693         11.5    70
## 3     18         8          318        150   3436         11.0    70
## 4     16         8          304        150   3433         12.0    70
## 5     17         8          302        140   3449         10.5    70
## 6     15         8          429        198   4341         10.0    70
## 7     14         8          454        220   4354          9.0    70
## 8     14         8          440        215   4312          8.5    70
## 9     14         8          455        225   4425         10.0    70
## 10    15         8          390        190   3850          8.5    70
## # ... with 382 more rows, and 2 more variables: origin <dbl>, name <fctr>
…
