Statistical learning: resampling and decision trees
…
mean(x_test_accuracy$Survived == x_test_accuracy$pred, na.rm = TRUE)

## [1] 0.8185841

Regression

This method also works for regression analysis. Here we will examine the relationship between horsepower and car mileage in the Auto dataset (found in library(ISLR)):

library(ISLR)

Auto <- Auto %>%
  tbl_df()
Auto

## # A tibble: 392 × 9
##      mpg cylinders displacement horsepower weight acceleration  year
## *  <dbl>     <dbl>        <dbl>      <dbl>  <dbl>        <dbl> <dbl>
## 1     18         8          307        130   3504         12.0    70
## 2     15         8          350        165   3693         11.5    70
## 3     18         8          318        150   3436         11.0    70
## 4     16         8          304        150   3433         12.0    70
## 5     17         8          302        140   3449         10.5    70
## 6     15         8          429        198   4341         10.0    70
## 7     14         8          454        220   4354          9.0    70
## 8     14         8          440        215   4312          8.5    70
## 9     14         8          455        225   4425         10.0    70
## 10    15         8          390        190   3850          8.5    70
## # ... with 382 more rows, and 2 more variables: origin <dbl>, name <fctr>
…
Estimating a decision tree

First we need to load the tree library and prepare the data. tree is somewhat finicky about how data must be formatted in order to estimate the tree. For the Titanic data, we need to convert all qualitiative variables to factors using the as.factor function. To make interpretation easier, I also recode Survived from its 0/1 coding to explicitly identify which passengers survived and which died.

library(tree)

titanic_tree_data <- titanic %>%
  mutate(Survived = ifelse(Survived == 1, "Survived",
                           ifelse(Survived == 0, "Died", NA)),
         Survived = as.factor(Survived),
         Sex = as.factor(Sex))
titanic_tree_data

## # A tibble: 891 × 12
##    PassengerId Survived Pclass
##          <int>   <fctr>  <int>
## 1            1     Died      3
## 2            2 Survived      1
## 3            3 Survived      3
## 4            4 Survived      1
## 5            5     Died      3
## 6            6     Died      3
## 7            7     Died      1
## 8            8     Died      3
## 9            9 Survived      3
## 10          10 Survived      2
## # ... with 881 more rows, and 9 more variables: Name <chr>, Sex <fctr>,
## #   Age <dbl>, SibSp <int>, Parch <int>, Ticket <chr>, Fare <dbl>,
## #   Cabin <chr>, Embarked <chr>
…
Estimating a random forest

We will reuse titanic_tree_full_data with the adjustment that we need to remove observations with missing values. In the process, let’s pare the data frame down to only columns that will be used the model:

titanic_rf_data <- titanic_tree_full_data %>%
  select(Survived, Pclass, Sex, Age, SibSp, Parch, Fare, Embarked) %>%
  na.omit()
titanic_rf_data

## # A tibble: 712 × 8
##    Survived Pclass    Sex   Age SibSp Parch    Fare Embarked
##      <fctr> <fctr> <fctr> <dbl> <int> <int>   <dbl>   <fctr>
## 1      Died      3   male    22     1     0  7.2500        S
## 2  Survived      1 female    38     1     0 71.2833        C
## 3  Survived      3 female    26     0     0  7.9250        S
## 4  Survived      1 female    35     1     0 53.1000        S
## 5      Died      3   male    35     0     0  8.0500        S
## 6      Died      1   male    54     0     0 51.8625        S
## 7      Died      3   male     2     3     1 21.0750        S
## 8  Survived      3 female    27     0     2 11.1333        S
## 9  Survived      2 female    14     1     0 30.0708        C
## 10 Survived      3 female     4     1     1 16.7000        S
## # ... with 702 more rows
…
Note that gender and age are important predictors in the random forest, but so too is the fare an individual paided. This is a proxy for socioeconomic status; recall that the wealthy had better access to lifeboats.

To make predictions for the validation set, we use the predict function. By setting type = "prob" we will get predicted probabilities for each possible outcome, rather than just a raw prediction of “Survived” or “Died”:

titanic_pred <- titanic_test %>%
  bind_cols(predict(rf_full, newdata = titanic_test, type = "prob") %>%
              rename(prob_dead = Died,
                     prob_survive = Survived))
titanic_pred

## # A tibble: 213 × 10
##    Survived Pclass    Sex   Age SibSp Parch     Fare Embarked prob_dead
##      <fctr> <fctr> <fctr> <dbl> <int> <int>    <dbl>   <fctr>     <dbl>
## 1  Survived      3 female    26     0     0   7.9250        S     0.536
## 2      Died      3   male    35     0     0   8.0500        S     0.996
## 3  Survived      2 female    14     1     0  30.0708        C     0.110
## 4      Died      3   male    20     0     0   8.0500        S     0.998
## 5      Died      2   male    35     0     0  26.0000        S     0.940
## 6  Survived      2   male    34     0     0  13.0000        S     0.972
## 7  Survived      3 female    38     1     5  31.3875        S     0.910
## 8      Died      1   male    19     3     2 263.0000        S     0.584
## 9      Died      1   male    40     0     0  27.7208        C     0.734
## 10     Died      2   male    66     0     0  10.5000        S     0.864
## # ... with 203 more rows, and 1 more variables: prob_survive <dbl>
…
