Practicing sentiment analysis with Harry Potter
…
hp_words

## # A tibble: 1,089,386 x 3
## # Groups:   book [7]
##                  book chapter    word
##                <fctr>   <int>   <chr>
##  1 philosophers_stone       1     the
##  2 philosophers_stone       1     boy
##  3 philosophers_stone       1     who
##  4 philosophers_stone       1   lived
##  5 philosophers_stone       1      mr
##  6 philosophers_stone       1     and
##  7 philosophers_stone       1     mrs
##  8 philosophers_stone       1 dursley
##  9 philosophers_stone       1      of
## 10 philosophers_stone       1  number
## # ... with 1,089,376 more rows
…
Estimate sentiment

Generate data frame with sentiment derived from the NRC

(hp_nrc <- hp_words %>% 
  inner_join(get_sentiments("nrc")) %>%
  group_by(book, chapter, sentiment))

## Joining, by = "word"

## # A tibble: 264,705 x 4
## # Groups:   book, chapter, sentiment [2,000]
##                  book chapter   word    sentiment
##                <fctr>   <int>  <chr>        <chr>
##  1 philosophers_stone       1    boy      disgust
##  2 philosophers_stone       1    boy     negative
##  3 philosophers_stone       1  proud anticipation
##  4 philosophers_stone       1  proud          joy
##  5 philosophers_stone       1  proud     positive
##  6 philosophers_stone       1  proud        trust
##  7 philosophers_stone       1 expect anticipation
##  8 philosophers_stone       1 expect     positive
##  9 philosophers_stone       1 expect     surprise
## 10 philosophers_stone       1 expect        trust
## # ... with 264,695 more rows
…
