Practicing tidytext with song titles
…
Hint: To search for matching state names, this data frame should include both unigrams and bi-grams.

 Click for the solution

tidy_lyrics <- bind_rows(song_lyrics %>% 
                           unnest_tokens(output = state_name,
                                         input = Lyrics),
                         song_lyrics %>% 
                           unnest_tokens(output = state_name,
                                         input = Lyrics, 
                                         token = "ngrams", n = 2))
tidy_lyrics

## # A tibble: 3,201,465 x 6
##     Rank Song        Artist                       Year Source state_name  
##    <int> <chr>       <chr>                       <int>  <int> <chr>       
##  1     1 wooly bully sam the sham and the phara…  1965      3 sam         
##  2     1 wooly bully sam the sham and the phara…  1965      3 the         
##  3     1 wooly bully sam the sham and the phara…  1965      3 sham        
##  4     1 wooly bully sam the sham and the phara…  1965      3 miscellaneo…
##  5     1 wooly bully sam the sham and the phara…  1965      3 wooly       
##  6     1 wooly bully sam the sham and the phara…  1965      3 bully       
##  7     1 wooly bully sam the sham and the phara…  1965      3 wooly       
##  8     1 wooly bully sam the sham and the phara…  1965      3 bully       
##  9     1 wooly bully sam the sham and the phara…  1965      3 sam         
## 10     1 wooly bully sam the sham and the phara…  1965      3 the         
## # ... with 3,201,455 more rows

The variable state_name in this data frame contains all the possible words and bigrams that might be state names in all the lyrics.

Find all the state names occurring in the song lyrics

First create a data frame that meets this criteria, then save a new data frame that only includes one observation for each matching song. That is, if the song is “New York, New York”, there should only be one row in the resulting table for that song.

 Click for the solution

inner_join(tidy_lyrics, pop_df)

## Joining, by = "state_name"

## # A tibble: 526 x 8
##     Rank Song          Artist      Year Source state_name GEOID population
##    <int> <chr>         <chr>      <int>  <int> <chr>      <chr>      <dbl>
##  1    12 king of the … roger mil…  1965      1 maine      23       1329923
##  2    29 eve of destr… barry mcg…  1965      1 alabama    01       4841164
##  3    49 california g… the beach…  1965      3 california 06      38654206
##  4    49 california g… the beach…  1965      3 california 06      38654206
##  5    49 california g… the beach…  1965      3 california 06      38654206
##  6    49 california g… the beach…  1965      3 california 06      38654206
##  7    49 california g… the beach…  1965      3 california 06      38654206
##  8    49 california g… the beach…  1965      3 california 06      38654206
##  9    49 california g… the beach…  1965      3 california 06      38654206
## 10    49 california g… the beach…  1965      3 california 06      38654206
## # ... with 516 more rows

Let’s only count each state once per song that it is mentioned in.

tidy_lyrics <- inner_join(tidy_lyrics, pop_df) %>%
  distinct(Rank, Song, Artist, Year, state_name, .keep_all = TRUE)

## Joining, by = "state_name"

tidy_lyrics

## # A tibble: 253 x 8
##     Rank Song        Artist        Year Source state_name GEOID population
##    <int> <chr>       <chr>        <int>  <int> <chr>      <chr>      <dbl>
##  1    12 king of th… roger miller  1965      1 maine      23       1329923
##  2    29 eve of des… barry mcgui…  1965      1 alabama    01       4841164
##  3    49 california… the beach b…  1965      3 california 06      38654206
##  4    10 california… the mamas  …  1966      3 california 06      38654206
##  5    77 message to… dionne warw…  1966      1 kentucky   21       4411989
##  6    61 california… lesley gore   1967      1 california 06      38654206
##  7     4 sittin on … otis redding  1968      1 georgia    13      10099320
##  8    10 tighten up  archie bell…  1968      3 texas      48      26956435
##  9    25 get back    the beatles…  1969      3 arizona    04       6728577
## 10    25 get back    the beatles…  1969      3 california 06      38654206
## # ... with 243 more rows

Calculate the frequency for each state’s mention in a song and create a new column for the frequency adjusted by the state’s population

 Click for the solution

(state_counts <- tidy_lyrics %>% 
   count(state_name) %>% 
   arrange(desc(n)))

## # A tibble: 33 x 2
##    state_name      n
##    <chr>       <int>
##  1 new york       64
##  2 california     34
##  3 georgia        22
##  4 tennessee      14
##  5 texas          14
##  6 alabama        12
##  7 mississippi    10
##  8 kentucky        7
##  9 hawaii          6
## 10 illinois        6
## # ... with 23 more rows
…
