Text analysis: supervised classification
…
Train a statistical learning model on the hand-coded data, using the variable as the outcome of interest and the text features of the documents as the predictors

Evaluate the effectiveness of the statistical learning model via a resampling method

Once you have trained a model with sufficient predictive accuracy, apply the model to the remaining set of documents that have never been hand-coded (say \(1000000\))

Sample set of documents: USCongress

# get USCongress data
data(USCongress, package = "RTextTools")

(congress <- as_tibble(USCongress) %>%
    mutate(text = as.character(text)))

## # A tibble: 4,449 x 6
##       ID  cong billnum h_or_sen major
##    <int> <int>   <int>   <fctr> <int>
##  1     1   107    4499       HR    18
##  2     2   107    4500       HR    18
##  3     3   107    4501       HR    18
##  4     4   107    4502       HR    18
##  5     5   107    4503       HR     5
##  6     6   107    4504       HR    21
##  7     7   107    4505       HR    15
##  8     8   107    4506       HR    18
##  9     9   107    4507       HR    18
## 10    10   107    4508       HR    18
## # ... with 4,439 more rows, and 1 more variables: text <chr>
…
First we convert USCongress into a tidy text data frame.

(congress_tokens <- congress %>%
   unnest_tokens(output = word, input = text) %>%
   # remove numbers
   filter(!str_detect(word, "^[0-9]*$")) %>%
   # remove stop words
   anti_join(stop_words) %>%
   # stem the words
   mutate(word = SnowballC::wordStem(word)))

## Joining, by = "word"

## # A tibble: 58,820 x 6
##       ID  cong billnum h_or_sen major        word
##    <int> <int>   <int>   <fctr> <int>       <chr>
##  1     1   107    4499       HR    18     suspend
##  2     1   107    4499       HR    18 temporarili
##  3     1   107    4499       HR    18        duti
##  4     1   107    4499       HR    18        fast
##  5     1   107    4499       HR    18     magenta
##  6     1   107    4499       HR    18       stage
##  7     2   107    4500       HR    18     suspend
##  8     2   107    4500       HR    18 temporarili
##  9     2   107    4500       HR    18        duti
## 10     2   107    4500       HR    18        fast
## # ... with 58,810 more rows
…
It will be tough to build an effective model with just 16 tokens. Normal values for sparse are generally around \(.99\). Let’s use that to create and store our final document-term matrix.

congress_dtm <- removeSparseTerms(congress_dtm, sparse = .99)

Exploratory analysis

Before building a fancy schmancy statistical model, we can first investigate if there are certain terms or tokens associated with each major topic category. We can do this purely with tidytext tools: we directly calculate the tf-idf for each term treating each major topic code as the document, rather than the individual bill. Then we can visualize the tokens with the highest tf-idf associated with each topic.2

To calculate tf-idf directly in the data frame, first we count() the frequency each token appears in bills from each major topic code, then use bind_tf_idf() to calculate the tf-idf for each token in each topic:3

(congress_tfidf <- congress_tokens %>%
   count(major, word) %>%
   bind_tf_idf(term_col = word, document_col = major, n_col = n))

## # A tibble: 13,190 x 6
##    major      word     n          tf       idf       tf_idf
##    <int>     <chr> <int>       <dbl>     <dbl>        <dbl>
##  1     1    25,000     1 0.000483559 1.8971200 0.0009173694
##  2     1 3,500,000     1 0.000483559 2.9957323 0.0014486133
##  3     1      38.6     1 0.000483559 2.9957323 0.0014486133
##  4     1   abolish     1 0.000483559 2.3025851 0.0011134357
##  5     1    abroad     1 0.000483559 1.8971200 0.0009173694
##  6     1      abus     2 0.000967118 1.0498221 0.0010153019
##  7     1   acceler     1 0.000483559 1.0498221 0.0005076509
##  8     1   account     6 0.002901354 0.2231436 0.0006474184
##  9     1     accur     1 0.000483559 1.0498221 0.0005076509
## 10     1    acquir     2 0.000967118 1.3862944 0.0013407102
## # ... with 13,180 more rows
…
