Text analysis: topic modeling
…
by_chapter_word <- by_chapter %>%
  unite(title_chapter, title, chapter) %>%
  unnest_tokens(word, text)

word_counts <- by_chapter_word %>%
  anti_join(stop_words) %>%
  count(title_chapter, word, sort = TRUE) %>%
  ungroup()

## Joining, by = "word"

word_counts

## # A tibble: 104,721 × 3
##               title_chapter    word     n
##                       <chr>   <chr> <int>
## 1     Great Expectations_57     joe    88
## 2      Great Expectations_7     joe    70
## 3     Great Expectations_17   biddy    63
## 4     Great Expectations_27     joe    58
## 5     Great Expectations_38 estella    58
## 6      Great Expectations_2     joe    56
## 7     Great Expectations_23  pocket    53
## 8     Great Expectations_15     joe    50
## 9     Great Expectations_18     joe    50
## 10 The War of the Worlds_16 brother    50
## # ... with 104,711 more rows
…
## A LDA_VEM topic model with 4 topics.

In this case we know there are four topics because there are four books; this is the value of knowing the latent topic structure

seed = 1234 sets the starting point for the random iteration process. If we don’t set a consistent seed, each time we run the script we may estimate slightly different models

Now tidytext gives us the option of returning to a tidy analysis, using the tidy and augment verbs borrowed from the broom package. In particular, we start with the tidy verb.

library(tidytext)

chapters_lda_td <- tidy(chapters_lda)
chapters_lda_td

## # A tibble: 72,860 × 3
##    topic    term         beta
##    <int>   <chr>        <dbl>
## 1      1     joe 5.830326e-17
## 2      2     joe 3.194447e-57
## 3      3     joe 4.162676e-24
## 4      4     joe 1.445030e-02
## 5      1   biddy 7.846976e-27
## 6      2   biddy 4.672244e-69
## 7      3   biddy 2.259711e-46
## 8      4   biddy 4.767972e-03
## 9      1 estella 3.827272e-06
## 10     2 estella 5.316964e-65
## # ... with 72,850 more rows
…
“pip” and “joe” from Great Expectations

“martians”, “black”, and “night” from The War of the Worlds

Also note that LDA() does not assign any label to each topic. They are simply topics 1, 2, 3, and 4. We can infer these are associated with each book, but it is merely our inference.

Per-document classification

Each chapter was a “document” in this analysis. Thus, we may want to know which topics are associated with each document. Can we put the chapters back together in the correct books?

chapters_lda_gamma <- tidy(chapters_lda, matrix = "gamma")
chapters_lda_gamma

## # A tibble: 772 × 3
##                    document topic        gamma
##                       <chr> <int>        <dbl>
## 1     Great Expectations_57     1 1.351886e-05
## 2      Great Expectations_7     1 1.470726e-05
## 3     Great Expectations_17     1 2.117127e-05
## 4     Great Expectations_27     1 1.919746e-05
## 5     Great Expectations_38     1 3.544403e-01
## 6      Great Expectations_2     1 1.723723e-05
## 7     Great Expectations_23     1 5.507241e-01
## 8     Great Expectations_15     1 1.682503e-02
## 9     Great Expectations_18     1 1.272044e-05
## 10 The War of the Worlds_16     1 1.084337e-05
## # ... with 762 more rows

Setting matrix = "gamma" returns a tidied version with one-document-per-topic-per-row. Now that we have these document classifiations, we can see how well our unsupervised learning did at distinguishing the four books. First we re-separate the document name into title and chapter:

chapters_lda_gamma <- chapters_lda_gamma %>%
  separate(document, c("title", "chapter"), sep = "_", convert = TRUE)
chapters_lda_gamma

## # A tibble: 772 × 4
##                    title chapter topic        gamma
## *                  <chr>   <int> <int>        <dbl>
## 1     Great Expectations      57     1 1.351886e-05
## 2     Great Expectations       7     1 1.470726e-05
## 3     Great Expectations      17     1 2.117127e-05
## 4     Great Expectations      27     1 1.919746e-05
## 5     Great Expectations      38     1 3.544403e-01
## 6     Great Expectations       2     1 1.723723e-05
## 7     Great Expectations      23     1 5.507241e-01
## 8     Great Expectations      15     1 1.682503e-02
## 9     Great Expectations      18     1 1.272044e-05
## 10 The War of the Worlds      16     1 1.084337e-05
## # ... with 762 more rows
…
We notice that almost all of the chapters from Pride and Prejudice, War of the Worlds, and Twenty Thousand Leagues Under the Sea were uniquely identified as a single topic each.

chapter_classifications <- chapters_lda_gamma %>%
  group_by(title, chapter) %>%
  top_n(1, gamma) %>%
  ungroup() %>%
  arrange(gamma)

chapter_classifications

## # A tibble: 193 × 4
##                 title chapter topic     gamma
##                 <chr>   <int> <int>     <dbl>
## 1  Great Expectations      54     3 0.4803234
## 2  Great Expectations      22     4 0.5356506
## 3  Great Expectations      31     4 0.5464851
## 4  Great Expectations      23     1 0.5507241
## 5  Great Expectations      33     4 0.5700737
## 6  Great Expectations      47     4 0.5802089
## 7  Great Expectations      56     4 0.5984806
## 8  Great Expectations      38     4 0.6455341
## 9  Great Expectations      11     4 0.6689600
## 10 Great Expectations      44     4 0.6777974
## # ... with 183 more rows
…
One important step in the topic modeling expectation-maximization algorithm is assigning each word in each document to a topic. The more words in a document are assigned to that topic, generally, the more weight (gamma) will go on that document-topic classification.

We may want to take the original document-word pairs and find which words in each document were assigned to which topic. This is the job of the augment verb.

assignments <- augment(chapters_lda, data = chapters_dtm)

We can combine this with the consensus book titles to find which words were incorrectly classified.

assignments <- assignments %>%
  separate(document, c("title", "chapter"), sep = "_", convert = TRUE) %>%
  inner_join(book_topics, by = c(".topic" = "topic"))

assignments

## # A tibble: 104,721 × 6
##                 title chapter  term count .topic          consensus
##                 <chr>   <int> <chr> <dbl>  <dbl>              <chr>
## 1  Great Expectations      57   joe    88      4 Great Expectations
## 2  Great Expectations       7   joe    70      4 Great Expectations
## 3  Great Expectations      17   joe     5      4 Great Expectations
## 4  Great Expectations      27   joe    58      4 Great Expectations
## 5  Great Expectations       2   joe    56      4 Great Expectations
## 6  Great Expectations      23   joe     1      4 Great Expectations
## 7  Great Expectations      15   joe    50      4 Great Expectations
## 8  Great Expectations      18   joe    50      4 Great Expectations
## 9  Great Expectations       9   joe    44      4 Great Expectations
## 10 Great Expectations      13   joe    40      4 Great Expectations
## # ... with 104,711 more rows
…
We notice that almost all the words for Pride and Prejudice, Twenty Thousand Leagues Under the Sea, and War of the Worlds were correctly assigned, while Great Expectations had a fair amount of misassignment.

What were the most commonly mistaken words?

wrong_words <- assignments %>%
  filter(title != consensus)

wrong_words

## # A tibble: 4,535 × 6
##                                    title chapter     term count .topic
##                                    <chr>   <int>    <chr> <dbl>  <dbl>
## 1                     Great Expectations      38  brother     2      1
## 2                     Great Expectations      22  brother     4      1
## 3                     Great Expectations      23     miss     2      1
## 4                     Great Expectations      22     miss    23      1
## 5  Twenty Thousand Leagues under the Sea       8     miss     1      1
## 6                     Great Expectations      31     miss     1      1
## 7                     Great Expectations       5 sergeant    37      1
## 8                     Great Expectations      46  captain     1      2
## 9                     Great Expectations      32  captain     1      2
## 10                 The War of the Worlds      17  captain     5      2
## # ... with 4,525 more rows, and 1 more variables: consensus <chr>

wrong_words %>%
  count(title, consensus, term, wt = count) %>%
  ungroup() %>%
  arrange(desc(n))

## # A tibble: 3,500 × 4
##                 title             consensus     term     n
##                 <chr>                 <chr>    <chr> <dbl>
## 1  Great Expectations   Pride and Prejudice     love    44
## 2  Great Expectations   Pride and Prejudice sergeant    37
## 3  Great Expectations   Pride and Prejudice     lady    32
## 4  Great Expectations   Pride and Prejudice     miss    26
## 5  Great Expectations The War of the Worlds     boat    25
## 6  Great Expectations   Pride and Prejudice   father    19
## 7  Great Expectations The War of the Worlds    water    19
## 8  Great Expectations   Pride and Prejudice     baby    18
## 9  Great Expectations   Pride and Prejudice  flopson    18
## 10 Great Expectations   Pride and Prejudice   family    16
## # ... with 3,490 more rows
…
LDA with an unknown topic structure

Frequently when using LDA, you don’t actually know the underlying topic structure of the documents. Generally that is why you are using LDA to analyze the text in the first place. LDA is still useful in these instances, but we have to perform additional tests and analysis to confirm that the topic structure uncovered by LDA is a good structure.

Associated Press articles

The topicmodels package includes a document-term matrix of a sample of articles published by the Associated Press in 1992. Let’s load them into R and convert them to a tidy format.

data("AssociatedPress", package = "topicmodels")

ap_td <- tidy(AssociatedPress)
ap_td

## # A tibble: 302,031 × 3
##    document       term count
##       <int>      <chr> <dbl>
## 1         1     adding     1
## 2         1      adult     2
## 3         1        ago     1
## 4         1    alcohol     1
## 5         1  allegedly     1
## 6         1      allen     1
## 7         1 apparently     2
## 8         1   appeared     1
## 9         1   arrested     1
## 10        1    assault     1
## # ... with 302,021 more rows
…
ap_lda <- LDA(ap_dtm, k = 12, control = list(seed = 11091987))
ap_lda

## A LDA_VEM topic model with 12 topics.

ap_lda_td <- tidy(ap_lda)

top_terms <- ap_lda_td %>%
  group_by(topic) %>%
  top_n(5, beta) %>%
  ungroup() %>%
  arrange(topic, -beta)
top_terms

## # A tibble: 60 × 3
##    topic      term        beta
##    <int>     <chr>       <dbl>
## 1      1  military 0.011691176
## 2      1    united 0.011598436
## 3      1      iraq 0.010618221
## 4      1 president 0.009498227
## 5      1  american 0.008253379
## 6      2   dukakis 0.009819260
## 7      2      bush 0.007300830
## 8      2  campaign 0.006366915
## 9      2    people 0.006098596
## 10     2    school 0.005208529
## # ... with 50 more rows
…
It looks like the 100-topic model has the lowest perplexity score. What kind of topics does this generate? Let’s look just at the first 12 topics produced by the model (ggplot2 has difficulty rendering a graph for 100 separate facets):

ap_lda_td <- tidy(ap_lda_compare[[6]])

top_terms <- ap_lda_td %>%
  group_by(topic) %>%
  top_n(5, beta) %>%
  ungroup() %>%
  arrange(topic, -beta)
top_terms

## # A tibble: 502 × 3
##    topic       term        beta
##    <int>      <chr>       <dbl>
## 1      1      party 0.020029039
## 2      1  communist 0.013810107
## 3      1 government 0.013221069
## 4      1       news 0.013036980
## 5      1     soviet 0.011512086
## 6      2       york 0.010501689
## 7      2     vargas 0.008539895
## 8      2   fujimori 0.008539895
## 9      2     people 0.007800735
## 10     2     police 0.007475843
## # ... with 492 more rows
…
