Text analysis: fundamentals and sentiment analysis
…
Based on a theory of psychology that conservatives are generally happier than liberals. Authors argue that previous findings are flawed because they rely on self-reported happiness, which is an inaccurate measure of individual happiness. Instead, they measure happiness (in part) based on the text of Congressional speeches and Twitter posts.

Sentiment analysis

Sentiment analysis uses text analysis to estimate the attitude of a speaker or writer with respect to some topic or the overall polarity of the document. For example, the sentence

I am happy

contains words and language typically associated with positive feelings and emotions. Therefore if some one tweeted “I am happy”, we could make an educated guess that the person is expressing positive feelings.

Obviously it would be difficult for us to create a complete dictionary that classifies words based on their emotional affect; fortunately other scholars have already done this for us. Some simply classify words and terms as positive or negative:

get_sentiments("bing")

## # A tibble: 6,788 × 2
##           word sentiment
##          <chr>     <chr>
## 1      2-faced  negative
## 2      2-faces  negative
## 3           a+  positive
## 4     abnormal  negative
## 5      abolish  negative
## 6   abominable  negative
## 7   abominably  negative
## 8    abominate  negative
## 9  abomination  negative
## 10       abort  negative
## # ... with 6,778 more rows

Others rate them on a numeric scale:

get_sentiments("afinn")

## # A tibble: 2,476 × 2
##          word score
##         <chr> <int>
## 1     abandon    -2
## 2   abandoned    -2
## 3    abandons    -2
## 4    abducted    -2
## 5   abduction    -2
## 6  abductions    -2
## 7       abhor    -3
## 8    abhorred    -3
## 9   abhorrent    -3
## 10     abhors    -3
## # ... with 2,466 more rows

Still others rate words based on specific sentiments

get_sentiments("nrc")

## # A tibble: 13,901 × 2
##           word sentiment
##          <chr>     <chr>
## 1       abacus     trust
## 2      abandon      fear
## 3      abandon  negative
## 4      abandon   sadness
## 5    abandoned     anger
## 6    abandoned      fear
## 7    abandoned  negative
## 8    abandoned   sadness
## 9  abandonment     anger
## 10 abandonment      fear
## # ... with 13,891 more rows
…
One measure of how important a word may be is its term frequency (tf), how frequently a word occurs within a document. The problem with this approach is that some words occur many times in a document, yet are probably not important (e.g. “the”, “is”, “of”). Instead, we want a way of downweighting words that are common across all documents, and upweighting words that are frequent within a small set of documents.

Another approach is to look at a term’s inverse document frequency (idf), which decreases the weight for commonly used words and increases the weight for words that are not used very much in a collection of documents. This can be combined with term frequency to calculate a term’s tf-idf, the frequency of a term adjusted for how rarely it is used. It is intended to measure how important a word is to a document in a collection (or corpus) of documents. It is a rule-of-thumb or heuristic quantity, not a theoretically proven method. The inverse document frequency for any given term is defined as

\[idf(\text{term}) = \ln{\left(\frac{n_{\text{documents}}}{n_{\text{documents containing term}}}\right)}\]

To calculate tf-idf for this set of documents, we will pool all the tweets from iPhone and Android together and treat them as if they are two total documents. Then we can calculate the frequency of terms in each group, and standardize that relative to the the term’s frequency across the entire corpus.

tweet_words_count <- tweet_words %>%
  count(source, word, sort = TRUE) %>%
  ungroup()
tweet_words_count

## # A tibble: 3,235 × 3
##     source                   word     n
##      <chr>                  <chr> <int>
## 1   iPhone             #trump2016   171
## 2  Android                hillary   124
## 3   iPhone #makeamericagreatagain    95
## 4  Android                crooked    93
## 5  Android                clinton    66
## 6  Android                 people    64
## 7   iPhone                hillary    52
## 8  Android                   cruz    50
## 9  Android                    bad    43
## 10  iPhone                america    43
## # ... with 3,225 more rows
…
## # A tibble: 2 × 2
##    source total
##     <chr> <int>
## 1 Android  4901
## 2  iPhone  3852

tweet_words_count <- left_join(tweet_words_count, total_words)

## Joining, by = "source"

tweet_words_count

## # A tibble: 3,235 × 4
##     source                   word     n total
##      <chr>                  <chr> <int> <int>
## 1   iPhone             #trump2016   171  3852
## 2  Android                hillary   124  4901
## 3   iPhone #makeamericagreatagain    95  3852
## 4  Android                crooked    93  4901
## 5  Android                clinton    66  4901
## 6  Android                 people    64  4901
## 7   iPhone                hillary    52  3852
## 8  Android                   cruz    50  4901
## 9  Android                    bad    43  4901
## 10  iPhone                america    43  3852
## # ... with 3,225 more rows

tweet_words_count <- tweet_words_count %>%
  bind_tf_idf(word, source, n)
tweet_words_count

## # A tibble: 3,235 × 7
##     source                   word     n total         tf       idf
##      <chr>                  <chr> <int> <int>      <dbl>     <dbl>
## 1   iPhone             #trump2016   171  3852 0.04439252 0.0000000
## 2  Android                hillary   124  4901 0.02530096 0.0000000
## 3   iPhone #makeamericagreatagain    95  3852 0.02466251 0.6931472
## 4  Android                crooked    93  4901 0.01897572 0.0000000
## 5  Android                clinton    66  4901 0.01346664 0.0000000
## 6  Android                 people    64  4901 0.01305856 0.0000000
## 7   iPhone                hillary    52  3852 0.01349948 0.0000000
## 8  Android                   cruz    50  4901 0.01020200 0.0000000
## 9  Android                    bad    43  4901 0.00877372 0.0000000
## 10  iPhone                america    43  3852 0.01116303 0.0000000
## # ... with 3,225 more rows, and 1 more variables: tf_idf <dbl>

Which terms have a high tf-idf?

tweet_words_count %>%
  select(-total) %>%
  arrange(desc(tf_idf))

## # A tibble: 3,235 × 6
##     source                   word     n          tf       idf      tf_idf
##      <chr>                  <chr> <int>       <dbl>     <dbl>       <dbl>
## 1   iPhone #makeamericagreatagain    95 0.024662513 0.6931472 0.017094751
## 2   iPhone                   join    42 0.010903427 0.6931472 0.007557680
## 3   iPhone          #americafirst    27 0.007009346 0.6931472 0.004858508
## 4   iPhone             #votetrump    23 0.005970924 0.6931472 0.004138729
## 5   iPhone             #imwithyou    20 0.005192108 0.6931472 0.003598895
## 6   iPhone        #crookedhillary    17 0.004413292 0.6931472 0.003059061
## 7   iPhone          #trumppence16    14 0.003634476 0.6931472 0.002519227
## 8   iPhone                    7pm    11 0.002855659 0.6931472 0.001979392
## 9   iPhone                  video    11 0.002855659 0.6931472 0.001979392
## 10 Android                  badly    13 0.002652520 0.6931472 0.001838587
## # ... with 3,225 more rows
…
Words like “join”, and times like “7pm”, also came only from the iPhone. The iPhone is clearly responsible for event announcements like this one (“Join me in Houston, Texas tomorrow night at 7pm!”)

A lot of “emotionally charged” words, like “badly” and “dumb”, were overwhelmingly more common on Android. This supports the original hypothesis that this is the “angrier” or more hyperbolic account.

Sentiment analysis

Since we’ve observed a difference in sentiment between the Android and iPhone tweets, let’s try quantifying it. We’ll work with the NRC Word-Emotion Association lexicon, available from the tidytext package, which associates words with 10 sentiments: positive, negative, anger, anticipation, disgust, fear, joy, sadness, surprise, and trust.

nrc <- sentiments %>%
  filter(lexicon == "nrc") %>%
  select(word, sentiment)
nrc

## # A tibble: 13,901 × 2
##           word sentiment
##          <chr>     <chr>
## 1       abacus     trust
## 2      abandon      fear
## 3      abandon  negative
## 4      abandon   sadness
## 5    abandoned     anger
## 6    abandoned      fear
## 7    abandoned  negative
## 8    abandoned   sadness
## 9  abandonment     anger
## 10 abandonment      fear
## # ... with 13,891 more rows

To measure the sentiment of the Android and iPhone tweets, we can count the number of words in each category:

sources <- tweet_words %>%
  group_by(source) %>%
  mutate(total_words = n()) %>%
  ungroup() %>%
  distinct(id, source, total_words)
sources

## # A tibble: 1,172 × 3
##                    id  source total_words
##                 <chr>   <chr>       <int>
## 1  676494179216805888  iPhone        3852
## 2  676509769562251264  iPhone        3852
## 3  680496083072593920 Android        4901
## 4  680503951440121856 Android        4901
## 5  680505672476262400 Android        4901
## 6  680734915718176768 Android        4901
## 7  682764544402440192  iPhone        3852
## 8  682792967736848385  iPhone        3852
## 9  682805320217980929  iPhone        3852
## 10 685490467329425408 Android        4901
## # ... with 1,162 more rows
…
