Practice getting data from the Twitter API
…
 Click for the solution

setup_twitter_oauth(consumer_key = getOption("twitter_api_key"),
                    consumer_secret = getOption("twitter_api_token"))

## [1] "Using browser based authentication"

trump <- userTimeline("realDonaldTrump", n = 50)

trump_df <- twListToDF(trump) %>%
  as_tibble()
trump_df

## # A tibble: 43 x 16
##                                                                           text
##                                                                          <chr>
##  1 Was with great people last night in Fort Myer, Virginia. The future of our 
##  2 "Address to the Nation\nFull Video &amp; Transcript:\nhttps://t.co/FELdImTu
##  3 "Thank you to the men and women of Fort Myer, and every member of the U.S. 
##  4  "Join me live from Fort Myer in Arlington, Virginia. \n➡️https://t.co/LOV4S
##  5 Thank you, the very dishonest Fake News Media is out of control! https://t.
##  6 Jerry Falwell of Liberty University was fantastic on @foxandfriends. The Fa
##  7 Thoughts &amp; prayers are w/ our @USNavy sailors aboard the #USSJohnSMcCai
##  8 Heading back to Washington after working hard and watching some of the wors
##  9 I want to applaud the many protestors in Boston who are speaking out agains
## 10 Our great country has been divided for decades. Sometimes you need protest 
## # ... with 33 more rows, and 15 more variables: favorited <lgl>,
## #   favoriteCount <dbl>, replyToSN <chr>, created <dttm>, truncated <lgl>,
## #   replyToSID <chr>, id <chr>, replyToUID <chr>, statusSource <chr>,
## #   screenName <chr>, retweetCount <dbl>, isRetweet <lgl>,
## #   retweeted <lgl>, longitude <lgl>, latitude <lgl>
…
