Getting data from the web: API access
…
Lincoln Park Zoo

The data already look to be organized in a data frame! rebird allows us to read these data directly into R. (The ID code for Lincoln Park Zoo is **“L1573785**)

ebirdhotspot(locID = "L1573785") %>%
  tbl_df()

## Warning: `rbind_all()` is deprecated. Please use `bind_rows()` instead.

## # A tibble: 23 × 11
##          lng                   locName howMany                sciName
##        <dbl>                     <chr>   <int>                  <chr>
## 1  -87.63272 Lincoln Park Zoo, Chicago      11             Aix sponsa
## 2  -87.63272 Lincoln Park Zoo, Chicago       2          Anas rubripes
## 3  -87.63272 Lincoln Park Zoo, Chicago     160     Anas platyrhynchos
## 4  -87.63272 Lincoln Park Zoo, Chicago       1     Larus delawarensis
## 5  -87.63272 Lincoln Park Zoo, Chicago       2  Corvus brachyrhynchos
## 6  -87.63272 Lincoln Park Zoo, Chicago      14       Sturnus vulgaris
## 7  -87.63272 Lincoln Park Zoo, Chicago       3  Cardinalis cardinalis
## 8  -87.63272 Lincoln Park Zoo, Chicago       3      Passer domesticus
## 9  -87.63272 Lincoln Park Zoo, Chicago      12      Branta canadensis
## 10 -87.63272 Lincoln Park Zoo, Chicago       1 Zonotrichia albicollis
## # ... with 13 more rows, and 7 more variables: obsValid <lgl>,
## #   locationPrivate <lgl>, obsDt <chr>, obsReviewed <lgl>, comName <chr>,
## #   lat <dbl>, locID <chr>
…
Solution

setup_twitter_oauth(consumer_key = getOption("twitter_api_key"),
                    consumer_secret = getOption("twitter_api_token"))

## [1] "Using browser based authentication"

trump <- userTimeline("realDonaldTrump", n = 50)

trump_df <- twListToDF(trump) %>%
  tbl_df()
trump_df

## # A tibble: 45 × 16
##                                                                           text
## *                                                                        <chr>
## 1  My transition team, which is working long hours and doing a fantastic job, 
## 2  Australia, New Zealand, and more. I am always available to them. @nytimes i
## 3  I have recieved and taken calls from many foreign leaders despite what the 
## 4  The failing @nytimes story is so totally wrong on transition. It is going s
## 5  I am not trying to get "top level security clearance" for my children. This
## 6  Very organized process taking place as I decide on Cabinet and many other p
## 7  The Electoral College is actually genius in that it brings all states, incl
## 8  If the election were based on total popular vote I would have campaigned in
## 9  The debates, especially the second and third, plus speeches and intensity o
## 10 I will be interviewed on @60Minutes tonight after the NFL game - 7:00 P.M. 
## # ... with 35 more rows, and 15 more variables: favorited <lgl>,
## #   favoriteCount <dbl>, replyToSN <lgl>, created <dttm>, truncated <lgl>,
## #   replyToSID <lgl>, id <chr>, replyToUID <lgl>, statusSource <chr>,
## #   screenName <chr>, retweetCount <dbl>, isRetweet <lgl>,
## #   retweeted <lgl>, longitude <lgl>, latitude <lgl>
…
