Getting data from the web: API access
…
Lincoln Park Zoo

The data already look to be organized in a data frame! rebird allows us to read these data directly into R.

The ID code for Lincoln Park Zoo is L1573785

ebirdhotspot(locID = "L1573785") %>%
  as_tibble()

## # A tibble: 24 x 11
##          lng                   locName howMany               sciName
##        <dbl>                     <chr>   <int>                 <chr>
##  1 -87.63272 Lincoln Park Zoo, Chicago       2 Nycticorax nycticorax
##  2 -87.63272 Lincoln Park Zoo, Chicago      15    Larus delawarensis
##  3 -87.63272 Lincoln Park Zoo, Chicago      15       Hirundo rustica
##  4 -87.63272 Lincoln Park Zoo, Chicago       2  Poecile atricapillus
##  5 -87.63272 Lincoln Park Zoo, Chicago       1    Sitta carolinensis
##  6 -87.63272 Lincoln Park Zoo, Chicago      15      Sturnus vulgaris
##  7 -87.63272 Lincoln Park Zoo, Chicago      13   Agelaius phoeniceus
##  8 -87.63272 Lincoln Park Zoo, Chicago       8    Quiscalus quiscula
##  9 -87.63272 Lincoln Park Zoo, Chicago       3        Spinus tristis
## 10 -87.63272 Lincoln Park Zoo, Chicago      35     Passer domesticus
## # ... with 14 more rows, and 7 more variables: obsValid <lgl>,
## #   locationPrivate <lgl>, obsDt <chr>, obsReviewed <lgl>, comName <chr>,
## #   lat <dbl>, locID <chr>
…
Accessing data from the Manifesto Project API requires an authentication key. You can create an account and key here. Here I store my key in .Rprofile and retrieve it using mp_setapikey().

library(manifestoR)

# retrieve API key stored in .Rprofile
mp_setapikey(key = getOption("manifesto_key"))

Retrieve the database

(mpds <- mp_maindataset())

## Connecting to Manifesto Project DB API... 
## Connecting to Manifesto Project DB API... corpus version: 2016-6

## # A tibble: 4,121 x 173
##    country countryname oecdmember eumember      edate   date party
##      <dbl>       <chr>      <dbl>    <dbl>     <date>  <dbl> <dbl>
##  1      11      Sweden          0        0 1944-09-17 194409 11220
##  2      11      Sweden          0        0 1944-09-17 194409 11320
##  3      11      Sweden          0        0 1944-09-17 194409 11420
##  4      11      Sweden          0        0 1944-09-17 194409 11620
##  5      11      Sweden          0        0 1944-09-17 194409 11810
##  6      11      Sweden          0        0 1948-09-19 194809 11220
##  7      11      Sweden          0        0 1948-09-19 194809 11320
##  8      11      Sweden          0        0 1948-09-19 194809 11420
##  9      11      Sweden          0        0 1948-09-19 194809 11620
## 10      11      Sweden          0        0 1948-09-19 194809 11810
## # ... with 4,111 more rows, and 166 more variables: partyname <chr>,
## #   partyabbrev <chr>, parfam <dbl>, coderid <dbl>, manual <dbl>,
## #   coderyear <dbl>, testresult <dbl>, testeditsim <dbl>, pervote <dbl>,
## #   voteest <dbl>, presvote <dbl>, absseat <dbl>, totseats <dbl>,
## #   progtype <dbl>, datasetorigin <dbl>, corpusversion <chr>, total <dbl>,
## #   peruncod <dbl>, per101 <dbl>, per102 <dbl>, per103 <dbl>,
## #   per104 <dbl>, per105 <dbl>, per106 <dbl>, per107 <dbl>, per108 <dbl>,
## #   per109 <dbl>, per110 <dbl>, per201 <dbl>, per202 <dbl>, per203 <dbl>,
## #   per204 <dbl>, per301 <dbl>, per302 <dbl>, per303 <dbl>, per304 <dbl>,
…
 Click for the solution

setup_twitter_oauth(consumer_key = getOption("twitter_api_key"),
                    consumer_secret = getOption("twitter_api_token"))

## [1] "Using browser based authentication"

trump <- userTimeline("realDonaldTrump", n = 50)

trump_df <- twListToDF(trump) %>%
  as_tibble()
trump_df

## # A tibble: 39 x 16
##                                                                           text
##  *                                                                       <chr>
##  1 The W.H. is functioning perfectly, focused on HealthCare, Tax Cuts/Reform &
##  2 Why aren't the same standards placed on the Democrats. Look what Hillary Cl
##  3 ".@WashTimes states \"Democrats have willfully used Moscow disinformation t
##  4 ISIS is on the run &amp; will soon be wiped out of Syria &amp; Iraq, illega
##  5 "Remember, when you hear the words \"sources say\" from the Fake Media, oft
##  6 My son Donald did a good job last night. He was open, transparent and innoc
##  7 My son, Donald, will be interviewed by @seanhannity tonight at 10:00 P.M. H
##  8                                                      Big wins against ISIS!
##  9 Marine Plane crash in Mississippi is heartbreaking. Melania and I send our 
## 10  Working hard to get the Olympics for the United States (L.A.). Stay tuned!
## # ... with 29 more rows, and 15 more variables: favorited <lgl>,
## #   favoriteCount <dbl>, replyToSN <chr>, created <dttm>, truncated <lgl>,
## #   replyToSID <chr>, id <chr>, replyToUID <chr>, statusSource <chr>,
## #   screenName <chr>, retweetCount <dbl>, isRetweet <lgl>,
## #   retweeted <lgl>, longitude <lgl>, latitude <lgl>
…
