Rowwise operations, reproducible examples, and Git
…
---

# `map()` for functions that are not vectorized

```r
df_list <- list(
  mass_shootings,
  gun_deaths
)
df_list
```

```
## [[1]]
## # A tibble: 114 x 14
##    case   year month   day location summary fatalities injured
##    <chr> <dbl> <chr> <int> <chr>    <chr>        <dbl>   <dbl>
##  1 Dayt…  2019 Aug       4 Dayton,… PENDING          9      27
##  2 El P…  2019 Aug       3 El Paso… PENDING         20      26
##  3 Gilr…  2019 Jul      28 Gilroy,… "Santi…          3      12
##  4 Virg…  2019 May      31 Virgini… "DeWay…         12       4
##  5 Harr…  2019 Feb      15 Aurora,… Gary M…          5       6
##  6 Penn…  2019 Jan      24 State C… Jordan…          3       1
##  7 SunT…  2019 Jan      23 Sebring… "Zephe…          5       0
##  8 Merc…  2018 Nov      19 Chicago… Juan L…          3       0
##  9 Thou…  2018 Nov       7 Thousan… Ian Da…         12      22
## 10 Tree…  2018 Oct      27 Pittsbu… "Rober…         11       6
## # … with 104 more rows, and 6 more variables: total_victims <dbl>,
## #   location_type <chr>, male <lgl>, age_of_shooter <dbl>, race <chr>,
## #   prior_mental_illness <chr>
## 
## [[2]]
## # A tibble: 100,798 x 10
##       id  year month intent   police sex     age race      place  education
##    <dbl> <dbl> <chr> <chr>     <dbl> <chr> <dbl> <chr>     <chr>  <fct>    
##  1     1  2012 Jan   Suicide       0 M        34 Asian/Pa… Home   <NA>     
##  2     2  2012 Jan   Suicide       0 F        21 White     Street <NA>     
##  3     3  2012 Jan   Suicide       0 M        60 White     Other… <NA>     
##  4     4  2012 Feb   Suicide       0 M        64 White     Home   <NA>     
##  5     5  2012 Feb   Suicide       0 M        31 White     Other… <NA>     
##  6     6  2012 Feb   Suicide       0 M        17 Native A… Home   <NA>     
##  7     7  2012 Feb   Undeter…      0 M        48 White     Home   <NA>     
##  8     8  2012 Mar   Suicide       0 M        41 Native A… Home   <NA>     
##  9     9  2012 Feb   Acciden…      0 M        50 White     Other… <NA>     
## 10    10  2012 Feb   Suicide       0 M        NA Black     Home   <NA>     
## # … with 100,788 more rows
```
…
