Text analysis: classification and topic modeling
…
count: false

.left-panel-convert-tidytext-auto[

```r
*congress_tokens <- congress
 
congress_tokens
```
]
 
.right-panel-convert-tidytext-auto[

```
## # A tibble: 4,449 x 7
##       ID  cong billnum h_or_sen major text                        label         
##    <dbl> <dbl>   <dbl> <chr>    <dbl> <chr>                       <fct>         
##  1     1   107    4499 HR          18 To suspend temporarily the… Foreign trade 
##  2     2   107    4500 HR          18 To suspend temporarily the… Foreign trade 
##  3     3   107    4501 HR          18 To suspend temporarily the… Foreign trade 
##  4     4   107    4502 HR          18 To reduce temporarily the … Foreign trade 
##  5     5   107    4503 HR           5 To amend the Immigration a… Labor and emp…
##  6     6   107    4504 HR          21 To amend title 38, United … Public lands …
##  7     7   107    4505 HR          15 To repeal subtitle B of ti… Banking, fina…
##  8     8   107    4506 HR          18 To suspend temporarily the… Foreign trade 
##  9     9   107    4507 HR          18 To suspend temporarily the… Foreign trade 
## 10    10   107    4508 HR          18 To suspend temporarily the… Foreign trade 
## # … with 4,439 more rows
```
…
```r
congress_tokens <- congress %>%  
* unnest_tokens(
*   output = word,
*   input = text
* )
 
congress_tokens
```
]
 
.right-panel-convert-tidytext-auto[

```
## # A tibble: 109,476 x 7
##       ID  cong billnum h_or_sen major label         word       
##    <dbl> <dbl>   <dbl> <chr>    <dbl> <fct>         <chr>      
##  1     1   107    4499 HR          18 Foreign trade to         
##  2     1   107    4499 HR          18 Foreign trade suspend    
##  3     1   107    4499 HR          18 Foreign trade temporarily
##  4     1   107    4499 HR          18 Foreign trade the        
##  5     1   107    4499 HR          18 Foreign trade duty       
##  6     1   107    4499 HR          18 Foreign trade on         
##  7     1   107    4499 HR          18 Foreign trade fast       
##  8     1   107    4499 HR          18 Foreign trade magenta    
##  9     1   107    4499 HR          18 Foreign trade 2          
## 10     1   107    4499 HR          18 Foreign trade stage      
## # … with 109,466 more rows
```
…
congress_tokens
```
]
 
.right-panel-convert-tidytext-auto[

```
## # A tibble: 107,243 x 7
##       ID  cong billnum h_or_sen major label         word       
##    <dbl> <dbl>   <dbl> <chr>    <dbl> <fct>         <chr>      
##  1     1   107    4499 HR          18 Foreign trade to         
##  2     1   107    4499 HR          18 Foreign trade suspend    
##  3     1   107    4499 HR          18 Foreign trade temporarily
##  4     1   107    4499 HR          18 Foreign trade the        
##  5     1   107    4499 HR          18 Foreign trade duty       
##  6     1   107    4499 HR          18 Foreign trade on         
##  7     1   107    4499 HR          18 Foreign trade fast       
##  8     1   107    4499 HR          18 Foreign trade magenta    
##  9     1   107    4499 HR          18 Foreign trade stage      
## 10     2   107    4500 HR          18 Foreign trade to         
## # … with 107,233 more rows
```
…
congress_tokens
```
]
 
.right-panel-convert-tidytext-auto[

```
## # A tibble: 58,820 x 7
##       ID  cong billnum h_or_sen major label         word       
##    <dbl> <dbl>   <dbl> <chr>    <dbl> <fct>         <chr>      
##  1     1   107    4499 HR          18 Foreign trade suspend    
##  2     1   107    4499 HR          18 Foreign trade temporarily
##  3     1   107    4499 HR          18 Foreign trade duty       
##  4     1   107    4499 HR          18 Foreign trade fast       
##  5     1   107    4499 HR          18 Foreign trade magenta    
##  6     1   107    4499 HR          18 Foreign trade stage      
##  7     2   107    4500 HR          18 Foreign trade suspend    
##  8     2   107    4500 HR          18 Foreign trade temporarily
##  9     2   107    4500 HR          18 Foreign trade duty       
## 10     2   107    4500 HR          18 Foreign trade fast       
## # … with 58,810 more rows
```
…
congress_tokens
```
]
 
.right-panel-convert-tidytext-auto[

```
## # A tibble: 58,820 x 7
##       ID  cong billnum h_or_sen major label         word       
##    <dbl> <dbl>   <dbl> <chr>    <dbl> <fct>         <chr>      
##  1     1   107    4499 HR          18 Foreign trade suspend    
##  2     1   107    4499 HR          18 Foreign trade temporarili
##  3     1   107    4499 HR          18 Foreign trade duti       
##  4     1   107    4499 HR          18 Foreign trade fast       
##  5     1   107    4499 HR          18 Foreign trade magenta    
##  6     1   107    4499 HR          18 Foreign trade stage      
##  7     2   107    4500 HR          18 Foreign trade suspend    
##  8     2   107    4500 HR          18 Foreign trade temporarili
##  9     2   107    4500 HR          18 Foreign trade duti       
## 10     2   107    4500 HR          18 Foreign trade fast       
## # … with 58,810 more rows
```
…
count: false

.left-panel-dtm-auto[

```r
*congress_dtm <- congress_tokens
 
congress_dtm
```
]
 
.right-panel-dtm-auto[

```
## # A tibble: 58,820 x 7
##       ID  cong billnum h_or_sen major label         word       
##    <dbl> <dbl>   <dbl> <chr>    <dbl> <fct>         <chr>      
##  1     1   107    4499 HR          18 Foreign trade suspend    
##  2     1   107    4499 HR          18 Foreign trade temporarili
##  3     1   107    4499 HR          18 Foreign trade duti       
##  4     1   107    4499 HR          18 Foreign trade fast       
##  5     1   107    4499 HR          18 Foreign trade magenta    
##  6     1   107    4499 HR          18 Foreign trade stage      
##  7     2   107    4500 HR          18 Foreign trade suspend    
##  8     2   107    4500 HR          18 Foreign trade temporarili
##  9     2   107    4500 HR          18 Foreign trade duti       
## 10     2   107    4500 HR          18 Foreign trade fast       
## # … with 58,810 more rows
```
…
.left-panel-dtm-auto[

```r
congress_dtm <- congress_tokens %>%  
# get count of each token in each document
* count(ID, word)
 
congress_dtm
```
]
 
.right-panel-dtm-auto[

```
## # A tibble: 55,033 x 3
##       ID word            n
##    <dbl> <chr>       <int>
##  1     1 duti            1
##  2     1 fast            1
##  3     1 magenta         1
##  4     1 stage           1
##  5     1 suspend         1
##  6     1 temporarili     1
##  7     2 black           1
##  8     2 duti            1
##  9     2 fast            1
## 10     2 stage           1
## # … with 55,023 more rows
```
…
---

count: false

.left-panel-dtm-tf-idf-auto[

```r
*congress_tokens
```
]
 
.right-panel-dtm-tf-idf-auto[

```
## # A tibble: 58,820 x 7
##       ID  cong billnum h_or_sen major label         word       
##    <dbl> <dbl>   <dbl> <chr>    <dbl> <fct>         <chr>      
##  1     1   107    4499 HR          18 Foreign trade suspend    
##  2     1   107    4499 HR          18 Foreign trade temporarili
##  3     1   107    4499 HR          18 Foreign trade duti       
##  4     1   107    4499 HR          18 Foreign trade fast       
##  5     1   107    4499 HR          18 Foreign trade magenta    
##  6     1   107    4499 HR          18 Foreign trade stage      
##  7     2   107    4500 HR          18 Foreign trade suspend    
##  8     2   107    4500 HR          18 Foreign trade temporarili
##  9     2   107    4500 HR          18 Foreign trade duti       
## 10     2   107    4500 HR          18 Foreign trade fast       
## # … with 58,810 more rows
```
…
---
count: false

.left-panel-dtm-tf-idf-auto[

```r
congress_tokens %>%  
* count(ID, word)
```
]
 
.right-panel-dtm-tf-idf-auto[

```
## # A tibble: 55,033 x 3
##       ID word            n
##    <dbl> <chr>       <int>
##  1     1 duti            1
##  2     1 fast            1
##  3     1 magenta         1
##  4     1 stage           1
##  5     1 suspend         1
##  6     1 temporarili     1
##  7     2 black           1
##  8     2 duti            1
##  9     2 fast            1
## 10     2 stage           1
## # … with 55,023 more rows
```
…
