…
To find 3000 recent tweets using the "rstats" hashtag:


```r
rt <- search_tweets(
  q = "#rstats",
  n = 3000,
  include_rts = FALSE
)
rt
```

```
## # A tibble: 3,000 × 90
##    user_id    status_id           created_at          screen_name text    source
##    <chr>      <chr>               <dttm>              <chr>       <chr>   <chr> 
##  1 4263007693 1496929184542867462 2022-02-24 19:25:03 gp_pulipaka "Top 1… Buffer
##  2 4263007693 1496711514069295107 2022-02-24 05:00:07 gp_pulipaka "6 Fre… Buffer
##  3 4263007693 1496696497039200256 2022-02-24 04:00:26 gp_pulipaka "A Lis… Buffer
##  4 4263007693 1496707222461718530 2022-02-24 04:43:03 gp_pulipaka "AI Be… Buffer
##  5 4263007693 1496695646891483145 2022-02-24 03:57:04 gp_pulipaka "#AI B… Buffer
##  6 4263007693 1496710741445025796 2022-02-24 04:57:02 gp_pulipaka "#AI B… Buffer
##  7 4263007693 1496172703681859584 2022-02-22 17:19:04 gp_pulipaka "The C… Buffer
##  8 4263007693 1496340562055778305 2022-02-23 04:26:05 gp_pulipaka "Autom… Buffer
##  9 4263007693 1496161379690106894 2022-02-22 16:34:04 gp_pulipaka "The C… Buffer
## 10 4263007693 1496303058275508228 2022-02-23 01:57:03 gp_pulipaka "#AI B… Buffer
## # … with 2,990 more rows, and 84 more variables: display_text_width <dbl>,
## #   reply_to_status_id <chr>, reply_to_user_id <chr>,
## #   reply_to_screen_name <chr>, is_quote <lgl>, is_retweet <lgl>,
## #   favorite_count <int>, retweet_count <int>, quote_count <int>,
## #   reply_count <int>, hashtags <list>, symbols <list>, urls_url <list>,
## #   urls_t.co <list>, urls_expanded_url <list>, media_url <list>,
## #   media_t.co <list>, media_expanded_url <list>, media_type <list>, …
```
…
Note that the Twitter REST API limits all searches to the past 6-9 days. **You will not retrieve any earlier results.**

## Searching users

Use `get_timeline()` to retrieve tweets from one or more specified Twitter users. This only works for users with public profiles or those that have authorized your app.


```r
countvoncount <- get_timeline(user = "countvoncount", n = 4000)
countvoncount
```

```
## # A tibble: 3,250 × 43
##    created_at               id id_str       full_text truncated display_text_ra…
##    <dttm>                <dbl> <chr>        <chr>     <lgl>                <dbl>
##  1 2022-07-10 13:21:59 1.55e18 15461980612… Three th… FALSE                   39
##  2 2022-07-09 13:21:57 1.55e18 15458356669… Three th… FALSE                   50
##  3 2022-07-08 15:21:56 1.55e18 15455034720… Three th… FALSE                   38
##  4 2022-07-08 09:21:55 1.55e18 15454128729… Three th… FALSE                   38
##  5 2022-07-07 15:21:54 1.55e18 15451410766… Three th… FALSE                   34
##  6 2022-07-06 12:21:52 1.54e18 15447333824… Three th… FALSE                   39
##  7 2022-07-06 08:21:52 1.54e18 15446729831… Three th… FALSE                   50
##  8 2022-07-05 17:21:51 1.54e18 15444464861… Three th… FALSE                   40
##  9 2022-07-05 08:21:50 1.54e18 15443105881… Three th… FALSE                   38
## 10 2022-07-04 19:21:49 1.54e18 15441142913… Three th… FALSE                   39
## # … with 3,240 more rows, and 37 more variables: entities <list>, source <chr>,
## #   in_reply_to_status_id <lgl>, in_reply_to_status_id_str <lgl>,
## #   in_reply_to_user_id <lgl>, in_reply_to_user_id_str <lgl>,
## #   in_reply_to_screen_name <lgl>, geo <list>, coordinates <list>,
## #   place <list>, contributors <lgl>, is_quote_status <lgl>,
## #   retweet_count <int>, favorite_count <int>, favorited <lgl>,
## #   retweeted <lgl>, lang <chr>, possibly_sensitive <list>, …
```
…
