…
The function [`grid_regular()`](https://tidymodels.github.io/dials/reference/grid_regular.html) is from the [dials](https://tidymodels.github.io/dials/) package. It chooses sensible values to try for each hyperparameter; here, we asked for 5 of each. Since we have two to tune, `grid_regular()` returns 5 $\times$ 5 = 25 different possible tuning combinations to try in a tidy tibble format.


```r
tree_grid
```

```
## # A tibble: 25 × 2
##    cost_complexity tree_depth
##              <dbl>      <int>
##  1    0.0000000001          1
##  2    0.0000000178          1
##  3    0.00000316            1
##  4    0.000562              1
##  5    0.1                   1
##  6    0.0000000001          4
##  7    0.0000000178          4
##  8    0.00000316            4
##  9    0.000562              4
## 10    0.1                   4
## # … with 15 more rows
## # ℹ Use `print(n = ...)` to see more rows
```
…
Once we have our tuning results, we can both explore them through visualization and then select the best result. The function `collect_metrics()` gives us a tidy tibble with all the results. We had 25 candidate models and two metrics, `accuracy` and `roc_auc`, and we get a row for each `.metric` and model. 


```r
tree_res %>%
  collect_metrics()
```

```
## # A tibble: 50 × 8
##    cost_complexity tree_depth .metric  .estimator  mean     n std_err .config   
##              <dbl>      <int> <chr>    <chr>      <dbl> <int>   <dbl> <chr>     
##  1    0.0000000001          1 accuracy binary     0.825    10  0.0100 Preproces…
##  2    0.0000000001          1 roc_auc  binary     0.821    10  0.0160 Preproces…
##  3    0.0000000178          1 accuracy binary     0.825    10  0.0100 Preproces…
##  4    0.0000000178          1 roc_auc  binary     0.821    10  0.0160 Preproces…
##  5    0.00000316            1 accuracy binary     0.825    10  0.0100 Preproces…
##  6    0.00000316            1 roc_auc  binary     0.821    10  0.0160 Preproces…
##  7    0.000562              1 accuracy binary     0.825    10  0.0100 Preproces…
##  8    0.000562              1 roc_auc  binary     0.821    10  0.0160 Preproces…
##  9    0.1                   1 accuracy binary     0.825    10  0.0100 Preproces…
## 10    0.1                   1 roc_auc  binary     0.821    10  0.0160 Preproces…
## # … with 40 more rows
## # ℹ Use `print(n = ...)` to see more rows
```
…
