…
Hint: all the data is from 2013.

{{< spoiler text="Click for the solution" >}}

The first step is to calculate the age of each plane. To do that, use `planes` and the `age` variable:


```r
(plane_ages <- planes %>%
  mutate(age = 2013 - year) %>%
  select(tailnum, age))
```

```
## # A tibble: 3,322 × 2
##    tailnum   age
##    <chr>   <dbl>
##  1 N10156      9
##  2 N102UW     15
##  3 N103US     14
##  4 N104UW     14
##  5 N10575     11
##  6 N105UW     14
##  7 N107US     14
##  8 N108UW     14
##  9 N109UW     14
## 10 N110UW     14
## # … with 3,312 more rows
## # ℹ Use `print(n = ...)` to see more rows
```
…
## Add the location of the origin and destination (i.e. the `lat` and `lon`) to `flights`.

{{< spoiler text="Click for the solution" >}}

This is a mutating join, and the basic function you need to use here is `left_join()`. We have to perform the joining operation twice since we want to create new variables based on both the destination airport and the origin airport. And because the name of the key variable differs between the data frames, we need to explicitly define how to join the data frames using the `by` argument:


```r
flights %>%
  left_join(y = airports, by = c(dest = "faa")) %>%
  left_join(y = airports, by = c(origin = "faa"))
```

```
## # A tibble: 336,776 × 33
##     year month   day dep_time sched_de…¹ dep_d…² arr_t…³ sched…⁴ arr_d…⁵ carrier
##    <int> <int> <int>    <int>      <int>   <dbl>   <int>   <int>   <dbl> <chr>  
##  1  2013     1     1      517        515       2     830     819      11 UA     
##  2  2013     1     1      533        529       4     850     830      20 UA     
##  3  2013     1     1      542        540       2     923     850      33 AA     
##  4  2013     1     1      544        545      -1    1004    1022     -18 B6     
##  5  2013     1     1      554        600      -6     812     837     -25 DL     
##  6  2013     1     1      554        558      -4     740     728      12 UA     
##  7  2013     1     1      555        600      -5     913     854      19 B6     
##  8  2013     1     1      557        600      -3     709     723     -14 EV     
##  9  2013     1     1      557        600      -3     838     846      -8 B6     
## 10  2013     1     1      558        600      -2     753     745       8 AA     
## # … with 336,766 more rows, 23 more variables: flight <int>, tailnum <chr>,
## #   origin <chr>, dest <chr>, air_time <dbl>, distance <dbl>, hour <dbl>,
## #   minute <dbl>, time_hour <dttm>, name.x <chr>, lat.x <dbl>, lon.x <dbl>,
## #   alt.x <dbl>, tz.x <dbl>, dst.x <chr>, tzone.x <chr>, name.y <chr>,
## #   lat.y <dbl>, lon.y <dbl>, alt.y <dbl>, tz.y <dbl>, dst.y <chr>,
## #   tzone.y <chr>, and abbreviated variable names ¹​sched_dep_time, ²​dep_delay,
## #   ³​arr_time, ⁴​sched_arr_time, ⁵​arr_delay
## # ℹ Use `print(n = ...)` to see more rows, and `colnames()` to see all variable names
```

Notice that with this approach, we are joining **all** of the columns in `airports`. The instructions just asked for latitude and longitude, so we can create a copy of `airports` that only includes the necessary variables (`lat` and `lon`, plus the primary key variable `faa`) and join `flights` to that data frame:


```r
airports_lite <- airports %>%
  select(faa, lat, lon)

flights %>%
  left_join(y = airports_lite, by = c(dest = "faa")) %>%
  left_join(y = airports_lite, by = c(origin = "faa"))
```

```
## # A tibble: 336,776 × 23
##     year month   day dep_time sched_de…¹ dep_d…² arr_t…³ sched…⁴ arr_d…⁵ carrier
##    <int> <int> <int>    <int>      <int>   <dbl>   <int>   <int>   <dbl> <chr>  
##  1  2013     1     1      517        515       2     830     819      11 UA     
##  2  2013     1     1      533        529       4     850     830      20 UA     
##  3  2013     1     1      542        540       2     923     850      33 AA     
##  4  2013     1     1      544        545      -1    1004    1022     -18 B6     
##  5  2013     1     1      554        600      -6     812     837     -25 DL     
##  6  2013     1     1      554        558      -4     740     728      12 UA     
##  7  2013     1     1      555        600      -5     913     854      19 B6     
##  8  2013     1     1      557        600      -3     709     723     -14 EV     
##  9  2013     1     1      557        600      -3     838     846      -8 B6     
## 10  2013     1     1      558        600      -2     753     745       8 AA     
## # … with 336,766 more rows, 13 more variables: flight <int>, tailnum <chr>,
## #   origin <chr>, dest <chr>, air_time <dbl>, distance <dbl>, hour <dbl>,
## #   minute <dbl>, time_hour <dttm>, lat.x <dbl>, lon.x <dbl>, lat.y <dbl>,
## #   lon.y <dbl>, and abbreviated variable names ¹​sched_dep_time, ²​dep_delay,
## #   ³​arr_time, ⁴​sched_arr_time, ⁵​arr_delay
## # ℹ Use `print(n = ...)` to see more rows, and `colnames()` to see all variable names
```

This is better, but now we have two sets of latitude and longitude variables in the data frame: one for the destination airport, and one for the origin airport. When we perform the second `left_join()` operation, to avoid duplicate variable names the function automatically adds generic `.x` and `.y` suffixes to the output to disambiguate them. This is nice, but we might want something more intuitive to explicitly identify which variables are associated with the destination vs. the origin. To do that, we override the default `suffix` argument with custom suffixes:


```r
airports_lite <- airports %>%
  select(faa, lat, lon)

flights %>%
  left_join(y = airports_lite, by = c(dest = "faa")) %>%
  left_join(y = airports_lite, by = c(origin = "faa"), suffix = c(".dest", ".origin"))
```

```
## # A tibble: 336,776 × 23
##     year month   day dep_time sched_de…¹ dep_d…² arr_t…³ sched…⁴ arr_d…⁵ carrier
##    <int> <int> <int>    <int>      <int>   <dbl>   <int>   <int>   <dbl> <chr>  
##  1  2013     1     1      517        515       2     830     819      11 UA     
##  2  2013     1     1      533        529       4     850     830      20 UA     
##  3  2013     1     1      542        540       2     923     850      33 AA     
##  4  2013     1     1      544        545      -1    1004    1022     -18 B6     
##  5  2013     1     1      554        600      -6     812     837     -25 DL     
##  6  2013     1     1      554        558      -4     740     728      12 UA     
##  7  2013     1     1      555        600      -5     913     854      19 B6     
##  8  2013     1     1      557        600      -3     709     723     -14 EV     
##  9  2013     1     1      557        600      -3     838     846      -8 B6     
## 10  2013     1     1      558        600      -2     753     745       8 AA     
## # … with 336,766 more rows, 13 more variables: flight <int>, tailnum <chr>,
## #   origin <chr>, dest <chr>, air_time <dbl>, distance <dbl>, hour <dbl>,
## #   minute <dbl>, time_hour <dttm>, lat.dest <dbl>, lon.dest <dbl>,
## #   lat.origin <dbl>, lon.origin <dbl>, and abbreviated variable names
## #   ¹​sched_dep_time, ²​dep_delay, ³​arr_time, ⁴​sched_arr_time, ⁵​arr_delay
## # ℹ Use `print(n = ...)` to see more rows, and `colnames()` to see all variable names
```
…
