…
Here, preallocating space for each data frame prior to binding together cuts the computation time by a factor of 30.

## Exercise: write a `for` loop

### Mean of columns in `mtcars`

Write a `for` loop that calculates the arithmetic mean for every column in `mtcars`.


```r
as_tibble(mtcars)
```

```
## # A tibble: 32 x 11
##      mpg   cyl  disp    hp  drat    wt  qsec    vs    am  gear  carb
##    <dbl> <dbl> <dbl> <dbl> <dbl> <dbl> <dbl> <dbl> <dbl> <dbl> <dbl>
##  1  21       6  160    110  3.9   2.62  16.5     0     1     4     4
##  2  21       6  160    110  3.9   2.88  17.0     0     1     4     4
##  3  22.8     4  108     93  3.85  2.32  18.6     1     1     4     1
##  4  21.4     6  258    110  3.08  3.22  19.4     1     0     3     1
##  5  18.7     8  360    175  3.15  3.44  17.0     0     0     3     2
##  6  18.1     6  225    105  2.76  3.46  20.2     1     0     3     1
##  7  14.3     8  360    245  3.21  3.57  15.8     0     0     3     4
##  8  24.4     4  147.    62  3.69  3.19  20       1     0     4     2
##  9  22.8     4  141.    95  3.92  3.15  22.9     1     0     4     2
## 10  19.2     6  168.   123  3.92  3.44  18.3     1     0     4     4
## # … with 22 more rows
```
…
{{< /spoiler >}}

### Maximum value in each column of `diamonds`

Write a `for` loop that calculates the maximum value in each column of `diamonds`.


```r
diamonds
```

```
## # A tibble: 53,940 x 10
##    carat cut       color clarity depth table price     x     y     z
##    <dbl> <ord>     <ord> <ord>   <dbl> <dbl> <int> <dbl> <dbl> <dbl>
##  1 0.23  Ideal     E     SI2      61.5    55   326  3.95  3.98  2.43
##  2 0.21  Premium   E     SI1      59.8    61   326  3.89  3.84  2.31
##  3 0.23  Good      E     VS1      56.9    65   327  4.05  4.07  2.31
##  4 0.290 Premium   I     VS2      62.4    58   334  4.2   4.23  2.63
##  5 0.31  Good      J     SI2      63.3    58   335  4.34  4.35  2.75
##  6 0.24  Very Good J     VVS2     62.8    57   336  3.94  3.96  2.48
##  7 0.24  Very Good I     VVS1     62.3    57   336  3.95  3.98  2.47
##  8 0.26  Very Good H     SI1      61.9    55   337  4.07  4.11  2.53
##  9 0.22  Fair      E     VS2      65.1    61   337  3.87  3.78  2.49
## 10 0.23  Very Good H     VS1      59.4    61   338  4     4.05  2.39
## # … with 53,930 more rows
```
…
## Exercise: rewrite our `for` loops using a `map()` function

### Mean of columns in `mtcars`

Write a `map()` function that calculates the arithmetic mean for every column in `mtcars`.


```r
as_tibble(mtcars)
```

```
## # A tibble: 32 x 11
##      mpg   cyl  disp    hp  drat    wt  qsec    vs    am  gear  carb
##    <dbl> <dbl> <dbl> <dbl> <dbl> <dbl> <dbl> <dbl> <dbl> <dbl> <dbl>
##  1  21       6  160    110  3.9   2.62  16.5     0     1     4     4
##  2  21       6  160    110  3.9   2.88  17.0     0     1     4     4
##  3  22.8     4  108     93  3.85  2.32  18.6     1     1     4     1
##  4  21.4     6  258    110  3.08  3.22  19.4     1     0     3     1
##  5  18.7     8  360    175  3.15  3.44  17.0     0     0     3     2
##  6  18.1     6  225    105  2.76  3.46  20.2     1     0     3     1
##  7  14.3     8  360    245  3.21  3.57  15.8     0     0     3     4
##  8  24.4     4  147.    62  3.69  3.19  20       1     0     4     2
##  9  22.8     4  141.    95  3.92  3.15  22.9     1     0     4     2
## 10  19.2     6  168.   123  3.92  3.44  18.3     1     0     4     4
## # … with 22 more rows
```
…
{{< /spoiler >}}

### Maximum value in each column of `diamonds`

Write a `map()` function that calculates the maximum value in each column of `diamonds`.


```r
diamonds
```

```
## # A tibble: 53,940 x 10
##    carat cut       color clarity depth table price     x     y     z
##    <dbl> <ord>     <ord> <ord>   <dbl> <dbl> <int> <dbl> <dbl> <dbl>
##  1 0.23  Ideal     E     SI2      61.5    55   326  3.95  3.98  2.43
##  2 0.21  Premium   E     SI1      59.8    61   326  3.89  3.84  2.31
##  3 0.23  Good      E     VS1      56.9    65   327  4.05  4.07  2.31
##  4 0.290 Premium   I     VS2      62.4    58   334  4.2   4.23  2.63
##  5 0.31  Good      J     SI2      63.3    58   335  4.34  4.35  2.75
##  6 0.24  Very Good J     VVS2     62.8    57   336  3.94  3.96  2.48
##  7 0.24  Very Good I     VVS1     62.3    57   336  3.95  3.98  2.47
##  8 0.26  Very Good H     SI1      61.9    55   337  4.07  4.11  2.53
##  9 0.22  Fair      E     VS2      65.1    61   337  3.87  3.78  2.49
## 10 0.23  Very Good H     VS1      59.4    61   338  4     4.05  2.39
## # … with 53,930 more rows
```
…
## Filter

`across()` can also be useful when used in conjunction with `filter()`. For example, we can find all rows where no variable has missing values:


```r
worldbank %>% 
  filter(across(everything(), ~ !is.na(.x)))
```

```
## # A tibble: 42 x 14
##    iso3c date  iso2c country perc_energy_fos… rnd_gdpshare percgni_adj_gro…
##    <chr> <chr> <chr> <chr>              <dbl>        <dbl>            <dbl>
##  1 ARG   2005  AR    Argent…             89.1        0.379             15.5
##  2 ARG   2006  AR    Argent…             88.7        0.400             22.1
##  3 ARG   2007  AR    Argent…             89.2        0.402             22.8
##  4 ARG   2008  AR    Argent…             90.7        0.421             21.6
##  5 ARG   2009  AR    Argent…             89.6        0.519             18.9
##  6 ARG   2010  AR    Argent…             89.5        0.518             17.9
##  7 ARG   2011  AR    Argent…             88.9        0.537             17.9
##  8 ARG   2012  AR    Argent…             89.0        0.609             16.5
##  9 ARG   2013  AR    Argent…             89.0        0.612             15.3
## 10 ARG   2014  AR    Argent…             87.7        0.613             16.1
## # … with 32 more rows, and 7 more variables: real_netinc_percap <dbl>,
## #   gdp_capita <dbl>, top10perc_incshare <dbl>, employment_ratio <dbl>,
## #   life_exp <dbl>, pop_growth <dbl>, pop <dbl>
```
…
