Interactive reporting
…
> This data does not reflect the general population; it reflects Ask a Manager readers who self-selected to respond, which is a very different group (as you can see just from the demographic breakdown below, which is very white and very female).

Some findings [here](https://www.askamanager.org/2021/05/some-findings-from-24000-peoples-salaries.html).

---

## Data: Ask a manager

```r
manager <- read_csv("data/survey.csv")
manager
```

```
## # A tibble: 26,232 × 18
##    timestamp     how_o…¹ indus…² job_t…³ addit…⁴ annua…⁵ other…⁶ curre…⁷ curre…⁸
##    <chr>         <chr>   <chr>   <chr>   <chr>     <dbl>   <dbl> <chr>   <chr>  
##  1 4/27/2021 11… 25-34   Educat… Resear… <NA>      55000       0 USD     <NA>   
##  2 4/27/2021 11… 25-34   Comput… Change… <NA>      54600    4000 GBP     <NA>   
##  3 4/27/2021 11… 25-34   Accoun… Market… <NA>      34000      NA USD     <NA>   
##  4 4/27/2021 11… 25-34   Nonpro… Progra… <NA>      62000    3000 USD     <NA>   
##  5 4/27/2021 11… 25-34   Accoun… Accoun… <NA>      60000    7000 USD     <NA>   
##  6 4/27/2021 11… 25-34   Educat… Schola… <NA>      62000      NA USD     <NA>   
##  7 4/27/2021 11… 25-34   Publis… Publis… <NA>      33000    2000 USD     <NA>   
##  8 4/27/2021 11… 25-34   Educat… Librar… High s…   50000      NA USD     <NA>   
##  9 4/27/2021 11… 45-54   Comput… System… Data d…  112000   10000 USD     <NA>   
## 10 4/27/2021 11… 35-44   Accoun… Senior… <NA>      45000       0 USD     <NA>   
## # … with 26,222 more rows, 9 more variables:
## #   additional_context_on_income <chr>, country <chr>, state <chr>, city <chr>,
## #   overall_years_of_professional_experience <chr>,
## #   years_of_experience_in_field <chr>,
## #   highest_level_of_education_completed <chr>, gender <chr>, race <chr>, and
## #   abbreviated variable names ¹​how_old_are_you, ²​industry, ³​job_title,
## #   ⁴​additional_context_on_job_title, ⁵​annual_salary, ⁶​other_monetary_comp, …
```
…
