…
hp_words
```

```
## # A tibble: 1,089,386 × 3
##    book               chapter word   
##    <fct>                <int> <chr>  
##  1 philosophers_stone       1 the    
##  2 philosophers_stone       1 boy    
##  3 philosophers_stone       1 who    
##  4 philosophers_stone       1 lived  
##  5 philosophers_stone       1 mr     
##  6 philosophers_stone       1 and    
##  7 philosophers_stone       1 mrs    
##  8 philosophers_stone       1 dursley
##  9 philosophers_stone       1 of     
## 10 philosophers_stone       1 number 
## # … with 1,089,376 more rows
## # ℹ Use `print(n = ...)` to see more rows
```
…
{{< spoiler text="Click for the solution" >}}


```r
(hp_bing <- hp_words %>%
  inner_join(get_sentiments("bing")))
```

```
## Joining, by = "word"
```

```
## # A tibble: 65,094 × 4
##    book               chapter word       sentiment
##    <fct>                <int> <chr>      <chr>    
##  1 philosophers_stone       1 proud      positive 
##  2 philosophers_stone       1 perfectly  positive 
##  3 philosophers_stone       1 thank      positive 
##  4 philosophers_stone       1 strange    negative 
##  5 philosophers_stone       1 mysterious negative 
##  6 philosophers_stone       1 nonsense   negative 
##  7 philosophers_stone       1 useful     positive 
##  8 philosophers_stone       1 finer      positive 
##  9 philosophers_stone       1 greatest   positive 
## 10 philosophers_stone       1 fear       negative 
## # … with 65,084 more rows
## # ℹ Use `print(n = ...)` to see more rows
```
…
{{< spoiler text="Click for the solution" >}}


```r
(hp_afinn <- hp_words %>%
  inner_join(get_sentiments("afinn")) %>%
  group_by(book, chapter))
```

```
## Joining, by = "word"
```

```
## # A tibble: 56,311 × 4
## # Groups:   book, chapter [200]
##    book               chapter word      value
##    <fct>                <int> <chr>     <dbl>
##  1 philosophers_stone       1 proud         2
##  2 philosophers_stone       1 perfectly     3
##  3 philosophers_stone       1 thank         2
##  4 philosophers_stone       1 strange      -1
##  5 philosophers_stone       1 nonsense     -2
##  6 philosophers_stone       1 big           1
##  7 philosophers_stone       1 useful        2
##  8 philosophers_stone       1 no           -1
##  9 philosophers_stone       1 greatest      3
## 10 philosophers_stone       1 fear         -2
## # … with 56,301 more rows
## # ℹ Use `print(n = ...)` to see more rows
```
…
<img src="{{< blogdown/postref >}}index_files/figure-html/sentiment-outliers-1.png" width="672" />

As we can see, "moody" appears quite frequently in the books. In the vast majority of appearances, "moody" is used to refer to the character Alastor "Mad-Eye" Moody and is not meant to convey a specific sentiment.

<div style="width:100%;height:0;padding-bottom:38%;position:relative;"><iframe src="https://giphy.com/embed/lirn1IJDukVLq" width="100%" height="100%" style="position:absolute" frameBorder="0" class="giphy-embed" allowFullScreen></iframe></div>


```r
hp_afinn %>%
  filter(word == "moody")
```

```
## # A tibble: 422 × 4
## # Groups:   book, chapter [48]
##    book               chapter word  value
##    <fct>                <int> <chr> <dbl>
##  1 chamber_of_secrets      13 moody    -1
##  2 goblet_of_fire          11 moody    -1
##  3 goblet_of_fire          11 moody    -1
##  4 goblet_of_fire          11 moody    -1
##  5 goblet_of_fire          12 moody    -1
##  6 goblet_of_fire          12 moody    -1
##  7 goblet_of_fire          12 moody    -1
##  8 goblet_of_fire          12 moody    -1
##  9 goblet_of_fire          12 moody    -1
## 10 goblet_of_fire          12 moody    -1
## # … with 412 more rows
## # ℹ Use `print(n = ...)` to see more rows
```
…
