Statistical learning
…
---

# `broom::augment()`

```r
augment(gapminder_mod)
```

```
## # A tibble: 1,704 x 9
##    lifeExp  year .fitted .se.fit .resid     .hat .sigma  .cooksd .std.resid
##      <dbl> <int>   <dbl>   <dbl>  <dbl>    <dbl>  <dbl>    <dbl>      <dbl>
##  1    28.8  1952    50.5   0.530  -21.7 0.00208    11.6 0.00363       -1.87
##  2    30.3  1957    52.1   0.463  -21.8 0.00158    11.6 0.00279       -1.88
##  3    32.0  1962    53.8   0.401  -21.8 0.00119    11.6 0.00209       -1.87
##  4    34.0  1967    55.4   0.348  -21.4 0.000895   11.6 0.00151       -1.84
##  5    36.1  1972    57.0   0.307  -20.9 0.000698   11.6 0.00113       -1.80
##  6    38.4  1977    58.7   0.285  -20.2 0.000599   11.6 0.000907      -1.74
##  7    39.9  1982    60.3   0.285  -20.4 0.000599   11.6 0.000926      -1.76
##  8    40.8  1987    61.9   0.307  -21.1 0.000698   11.6 0.00115       -1.81
##  9    41.7  1992    63.5   0.348  -21.9 0.000895   11.6 0.00159       -1.88
## 10    41.8  1997    65.2   0.401  -23.4 0.00119    11.6 0.00242       -2.01
## # … with 1,694 more rows
```
…
---

# `map()` and nested data frames

```r
by_country <- gapminder %>% 
  group_by(country, continent) %>% 
  nest()

by_country
```

```
## # A tibble: 142 x 3
##    country     continent data             
##    <fct>       <fct>     <list>           
##  1 Afghanistan Asia      <tibble [12 × 4]>
##  2 Albania     Europe    <tibble [12 × 4]>
##  3 Algeria     Africa    <tibble [12 × 4]>
##  4 Angola      Africa    <tibble [12 × 4]>
##  5 Argentina   Americas  <tibble [12 × 4]>
##  6 Australia   Oceania   <tibble [12 × 4]>
##  7 Austria     Europe    <tibble [12 × 4]>
##  8 Bahrain     Asia      <tibble [12 × 4]>
##  9 Bangladesh  Asia      <tibble [12 × 4]>
## 10 Belgium     Europe    <tibble [12 × 4]>
## # … with 132 more rows
```
…
```r
country_model <- function(df) {
  lm(lifeExp ~ year, data = df)
}
```

```r
by_country <- by_country %>%
  mutate(model = map(data, country_model))
by_country
```

```
## # A tibble: 142 x 4
##    country     continent data              model   
##    <fct>       <fct>     <list>            <list>  
##  1 Afghanistan Asia      <tibble [12 × 4]> <S3: lm>
##  2 Albania     Europe    <tibble [12 × 4]> <S3: lm>
##  3 Algeria     Africa    <tibble [12 × 4]> <S3: lm>
##  4 Angola      Africa    <tibble [12 × 4]> <S3: lm>
##  5 Argentina   Americas  <tibble [12 × 4]> <S3: lm>
##  6 Australia   Oceania   <tibble [12 × 4]> <S3: lm>
##  7 Austria     Europe    <tibble [12 × 4]> <S3: lm>
##  8 Bahrain     Asia      <tibble [12 × 4]> <S3: lm>
##  9 Bangladesh  Asia      <tibble [12 × 4]> <S3: lm>
## 10 Belgium     Europe    <tibble [12 × 4]> <S3: lm>
## # … with 132 more rows
```

---

# `map()` and nested data frames

```r
by_country %>% 
  filter(continent == "Europe")
```

```
## # A tibble: 30 x 4
##    country                continent data              model   
##    <fct>                  <fct>     <list>            <list>  
##  1 Albania                Europe    <tibble [12 × 4]> <S3: lm>
##  2 Austria                Europe    <tibble [12 × 4]> <S3: lm>
##  3 Belgium                Europe    <tibble [12 × 4]> <S3: lm>
##  4 Bosnia and Herzegovina Europe    <tibble [12 × 4]> <S3: lm>
##  5 Bulgaria               Europe    <tibble [12 × 4]> <S3: lm>
##  6 Croatia                Europe    <tibble [12 × 4]> <S3: lm>
##  7 Czech Republic         Europe    <tibble [12 × 4]> <S3: lm>
##  8 Denmark                Europe    <tibble [12 × 4]> <S3: lm>
##  9 Finland                Europe    <tibble [12 × 4]> <S3: lm>
## 10 France                 Europe    <tibble [12 × 4]> <S3: lm>
## # … with 20 more rows
```

---

# Unnesting

```r
by_country <- by_country %>% 
  mutate(resids = map2(data, model, add_residuals))
by_country
```

```
## # A tibble: 142 x 5
##    country     continent data              model    resids           
##    <fct>       <fct>     <list>            <list>   <list>           
##  1 Afghanistan Asia      <tibble [12 × 4]> <S3: lm> <tibble [12 × 5]>
##  2 Albania     Europe    <tibble [12 × 4]> <S3: lm> <tibble [12 × 5]>
##  3 Algeria     Africa    <tibble [12 × 4]> <S3: lm> <tibble [12 × 5]>
##  4 Angola      Africa    <tibble [12 × 4]> <S3: lm> <tibble [12 × 5]>
##  5 Argentina   Americas  <tibble [12 × 4]> <S3: lm> <tibble [12 × 5]>
##  6 Australia   Oceania   <tibble [12 × 4]> <S3: lm> <tibble [12 × 5]>
##  7 Austria     Europe    <tibble [12 × 4]> <S3: lm> <tibble [12 × 5]>
##  8 Bahrain     Asia      <tibble [12 × 4]> <S3: lm> <tibble [12 × 5]>
##  9 Bangladesh  Asia      <tibble [12 × 4]> <S3: lm> <tibble [12 × 5]>
## 10 Belgium     Europe    <tibble [12 × 4]> <S3: lm> <tibble [12 × 5]>
## # … with 132 more rows
```

---

# Unnesting

```r
resids <- unnest(by_country, resids)
resids
```

```
## # A tibble: 1,704 x 7
##    country     continent  year lifeExp      pop gdpPercap   resid
##    <fct>       <fct>     <int>   <dbl>    <int>     <dbl>   <dbl>
##  1 Afghanistan Asia       1952    28.8  8425333      779. -1.11  
##  2 Afghanistan Asia       1957    30.3  9240934      821. -0.952 
##  3 Afghanistan Asia       1962    32.0 10267083      853. -0.664 
##  4 Afghanistan Asia       1967    34.0 11537966      836. -0.0172
##  5 Afghanistan Asia       1972    36.1 13079460      740.  0.674 
##  6 Afghanistan Asia       1977    38.4 14880372      786.  1.65  
##  7 Afghanistan Asia       1982    39.9 12881816      978.  1.69  
##  8 Afghanistan Asia       1987    40.8 13867957      852.  1.28  
##  9 Afghanistan Asia       1992    41.7 16317921      649.  0.754 
## 10 Afghanistan Asia       1997    41.8 22227415      635. -0.534 
## # … with 1,694 more rows
```
…
