…
```r
penguins %>%
  select(body_mass_g) %>%
  mutate(
    body_mass_g_autobin = cut(body_mass_g, breaks = 5),
    body_mass_g_manbin = cut(body_mass_g,
      breaks = c(2700, 3600, 4500, 5400, 6300),
      labels = c("Small", "Medium", "Large", "Huge")
    )
  )
```

```
## # A tibble: 344 x 3
##    body_mass_g body_mass_g_autobin body_mass_g_manbin
##          <int> <fct>               <fct>             
##  1        3750 (3.42e+03,4.14e+03] Medium            
##  2        3800 (3.42e+03,4.14e+03] Medium            
##  3        3250 (2.7e+03,3.42e+03]  Small             
##  4          NA <NA>                <NA>              
##  5        3450 (3.42e+03,4.14e+03] Small             
##  6        3650 (3.42e+03,4.14e+03] Medium            
##  7        3625 (3.42e+03,4.14e+03] Medium            
##  8        4675 (4.14e+03,4.86e+03] Large             
##  9        3475 (3.42e+03,4.14e+03] Small             
## 10        4250 (4.14e+03,4.86e+03] Medium            
## # … with 334 more rows
```

## `if` versus `if_else()`

Because if-else conditional statements like the ones outlined above must always resolve to a single `TRUE` or `FALSE`, they cannot be used for **vector operations**. Vector operations are where you make multiple comparisons simultaneously for each value stored inside a vector. Consider the `gun_deaths` data and imagine you wanted to create a new column identifying whether or not an individual had at least a high school education.


```r
library(rcfss)
data("gun_deaths")

(educ <- select(gun_deaths, education))
```

```
## # A tibble: 100,798 x 1
##    education   
##    <fct>       
##  1 BA+         
##  2 Some college
##  3 BA+         
##  4 BA+         
##  5 HS/GED      
##  6 Less than HS
##  7 HS/GED      
##  8 HS/GED      
##  9 Some college
## 10 <NA>        
## # … with 100,788 more rows
```
…
```
## Warning: Problem with `mutate()` input `hsPlus`.
## ℹ the condition has length > 1 and only the first element will be used
## ℹ Input `hsPlus` is `if (...) NULL`.
```

```
## Warning in if (education == "Less than HS") {: the condition has length > 1 and
## only the first element will be used
```

```
## # A tibble: 100,798 x 2
##    education    hsPlus
##    <fct>        <chr> 
##  1 BA+          HS+   
##  2 Some college HS+   
##  3 BA+          HS+   
##  4 BA+          HS+   
##  5 HS/GED       HS+   
##  6 Less than HS HS+   
##  7 HS/GED       HS+   
##  8 HS/GED       HS+   
##  9 Some college HS+   
## 10 <NA>         HS+   
## # … with 100,788 more rows
```
…
Because we in fact want to make this if-else comparison 100798 times, we should instead use `if_else()`. This **vectorizes** the if-else comparison and makes a separate comparison for each row of the data frame. This allows us to correctly generate this new column.^[Notice that is also preserves missing values in the new column. Remember, [any operation performed on a missing value will itself become a missing value.](http://r4ds.had.co.nz/transform.html#missing-values)]


```r
(educ_ifelse <- educ %>%
  mutate(hsPlus = if_else(education == "Less than HS", "Less than HS", "HS+")))
```

```
## # A tibble: 100,798 x 2
##    education    hsPlus      
##    <fct>        <chr>       
##  1 BA+          HS+         
##  2 Some college HS+         
##  3 BA+          HS+         
##  4 BA+          HS+         
##  5 HS/GED       HS+         
##  6 Less than HS Less than HS
##  7 HS/GED       HS+         
##  8 HS/GED       HS+         
##  9 Some college HS+         
## 10 <NA>         <NA>        
## # … with 100,788 more rows
```
…
