Statistical learning: classification and cross-validation
…
---

# `rsample::loo_cv()`

```r
loocv_data <- loo_cv(Auto)
loocv_data
```

```
## # Leave-one-out cross-validation 
## # A tibble: 392 x 2
##    splits          id        
##    <list>          <chr>     
##  1 <split [391/1]> Resample1 
##  2 <split [391/1]> Resample2 
##  3 <split [391/1]> Resample3 
##  4 <split [391/1]> Resample4 
##  5 <split [391/1]> Resample5 
##  6 <split [391/1]> Resample6 
##  7 <split [391/1]> Resample7 
##  8 <split [391/1]> Resample8 
##  9 <split [391/1]> Resample9 
## 10 <split [391/1]> Resample10
## # … with 382 more rows
```
…
---

# Holdout results

```r
loocv_data$results <- map(loocv_data$splits, holdout_results)
loocv_data$mse <- map_dbl(loocv_data$results, ~ mean(.x$.resid ^ 2))
loocv_data
```

```
## # Leave-one-out cross-validation 
## # A tibble: 392 x 4
##    splits          id         results                mse
##    <list>          <chr>      <list>               <dbl>
##  1 <split [391/1]> Resample1  <tibble [1 × 12]>  0.00355
##  2 <split [391/1]> Resample2  <tibble [1 × 12]>  1.25   
##  3 <split [391/1]> Resample3  <tibble [1 × 12]> 19.6    
##  4 <split [391/1]> Resample4  <tibble [1 × 12]>  2.42   
##  5 <split [391/1]> Resample5  <tibble [1 × 12]> 16.7    
##  6 <split [391/1]> Resample6  <tibble [1 × 12]> 97.0    
##  7 <split [391/1]> Resample7  <tibble [1 × 12]> 57.7    
##  8 <split [391/1]> Resample8  <tibble [1 × 12]>  1.77   
##  9 <split [391/1]> Resample9  <tibble [1 × 12]> 15.3    
## 10 <split [391/1]> Resample10 <tibble [1 × 12]> 24.2    
## # … with 382 more rows
```
…
