…
1. Created a preprocessing recipe (`gss_rec`),

1. Bundled the model and recipe (`gss_wflow`), and 

1. Trained our workflow using a single call to `fit()`. 

The next step is to use the trained workflow (`gss_fit`) to predict with the unseen test data, which we will do with a single call to `predict()`. The `predict()` method applies the recipe to the new data, then passes them to the fitted model. 


```r
predict(object = gss_fit, new_data = test_data)
```

```
## # A tibble: 493 x 1
##    .pred_class
##    <fct>      
##  1 NOT ALLOWED
##  2 NOT ALLOWED
##  3 NOT ALLOWED
##  4 NOT ALLOWED
##  5 NOT ALLOWED
##  6 NOT ALLOWED
##  7 ALLOWED    
##  8 ALLOWED    
##  9 ALLOWED    
## 10 ALLOWED    
## # … with 483 more rows
```

Because our outcome variable here is a factor, the output from `predict()` returns the predicted class: `ALLOWED` versus `NOT ALLOWED`. But, let's say we want the predicted class probabilities for each respondent instead. To return those, we can specify `type = "prob"` when we use `predict()`. We'll also bind the output with some variables from the test data and save them together:


```r
gss_pred <- predict(gss_fit, test_data, type = "prob") %>% 
  bind_cols(test_data %>%
              select(colrac)) 

# The data look like: 
gss_pred
```

```
## # A tibble: 493 x 3
##   .pred_ALLOWED `.pred_NOT ALLOWED` colrac     
##           <dbl>               <dbl> <fct>      
## 1         0.366               0.634 NOT ALLOWED
## 2         0.472               0.528 ALLOWED    
## 3         0.481               0.519 ALLOWED    
## 4         0.364               0.636 ALLOWED    
## 5         0.481               0.519 NOT ALLOWED
## # … with 488 more rows
```
…
