…
### Search available data with `wb_search()`

`wb_search()` searches through the `wb_cachelist$indicators` data frame to find indicators that match the search pattern.[^web-interface]


```r
wb_search("unemployment")
```

```
## # A tibble: 61 × 3
##    indicator_id indicator                                                indic…¹
##    <chr>        <chr>                                                    <chr>  
##  1 fin37.t.a    Received government transfers in the past year (% age 1… The pe…
##  2 fin37.t.a.1  Received government transfers in the past year, male  (… The pe…
##  3 fin37.t.a.10 Received government transfers in the past year, in labo… The pe…
##  4 fin37.t.a.11 Received government transfers in the past year, out of … The pe…
##  5 fin37.t.a.2  Received government transfers in the past year, female … The pe…
##  6 fin37.t.a.3  Received government transfers in the past year, young a… The pe…
##  7 fin37.t.a.4  Received government transfers in the past year, older a… The pe…
##  8 fin37.t.a.5  Received government transfers in the past year, primary… The pe…
##  9 fin37.t.a.6  Received government transfers in the past year, seconda… The pe…
## 10 fin37.t.a.7  Received government transfers in the past year, income,… The pe…
## # … with 51 more rows, and abbreviated variable name ¹​indicator_desc
## # ℹ Use `print(n = ...)` to see more rows
```

```r
wb_search("labor force")
```

```
## # A tibble: 245 × 3
##    indicator_id     indicator                                            indic…¹
##    <chr>            <chr>                                                <chr>  
##  1 9.0.Employee.All Employees (%)                                        Share …
##  2 9.0.Employee.B40 Employees-Bottom 40 Percent (%)                      Share …
##  3 9.0.Employee.T60 Employees-Top 60 Percent (%)                         Share …
##  4 9.0.Employer.All Employers (%)                                        Share …
##  5 9.0.Employer.B40 Employers-Bottom 40 Percent (%)                      Share …
##  6 9.0.Employer.T60 Employers-Top 60 Percent (%)                         Share …
##  7 9.0.Labor.All    Labor Force Participation Rate (%)                   Share …
##  8 9.0.Labor.B40    Labor Force Participation Rate (%)-Bottom 40 Percent Share …
##  9 9.0.Labor.T60    Labor Force Participation Rate (%)-Top 60 Percent    Share …
## 10 9.0.SelfEmp.All  Self-Employed (%)                                    Share …
## # … with 235 more rows, and abbreviated variable name ¹​indicator_desc
## # ℹ Use `print(n = ...)` to see more rows
```

```r
wb_search("labor force", fields = "indicator") # limit search to just the indicator name
```

```
## # A tibble: 176 × 3
##    indicator_id   indicator                                              indic…¹
##    <chr>          <chr>                                                  <chr>  
##  1 9.0.Labor.All  Labor Force Participation Rate (%)                     Share …
##  2 9.0.Labor.B40  Labor Force Participation Rate (%)-Bottom 40 Percent   Share …
##  3 9.0.Labor.T60  Labor Force Participation Rate (%)-Top 60 Percent      Share …
##  4 9.1.Labor.All  Labor Force Participation Rate (%), Male               Share …
##  5 9.1.Labor.B40  Labor Force Participation Rate (%)-Bottom 40 Percent,… Share …
##  6 9.1.Labor.T60  Labor Force Participation Rate (%)-Top 60 Percent, Ma… Share …
##  7 9.2.Labor.All  Labor Force Participation Rate (%), Female             Share …
##  8 9.2.Labor.B40  Labor Force Participation Rate (%)-Bottom 40 Percent,… Share …
##  9 9.2.Labor.T60  Labor Force Participation Rate (%)-Top 60 Percent, Fe… Share …
## 10 account.t.d.10 Account, in labor force (% age 15+)                    The pe…
## # … with 166 more rows, and abbreviated variable name ¹​indicator_desc
## # ℹ Use `print(n = ...)` to see more rows
```
…
Once you have the set of indicators you would like to obtain, you can use the `wb_data()` function to generate the API query and download the results. Let's say we want to obtain information on [the percent of females participating in the labor force](https://data.worldbank.org/indicator/SL.TLF.TOTL.FE.ZS?view=chart). The indicator ID is `SL.TLF.TOTL.FE.ZS`. We can download the indicator for all countries from 1990-2020 using:


```r
female_labor <- wb_data(
  indicator = "SL.TLF.TOTL.FE.ZS",
  start_date = 1990,
  end_date = 2020
)
female_labor
```

```
## # A tibble: 6,727 × 9
##    iso2c iso3c country  date SL.TLF.TOTL.FE.ZS unit  obs_st…¹ footn…² last_upd…³
##    <chr> <chr> <chr>   <dbl>             <dbl> <chr> <chr>    <chr>   <date>    
##  1 AW    ABW   Aruba    1990                NA <NA>  <NA>     <NA>    2022-07-20
##  2 AW    ABW   Aruba    1991                NA <NA>  <NA>     <NA>    2022-07-20
##  3 AW    ABW   Aruba    1992                NA <NA>  <NA>     <NA>    2022-07-20
##  4 AW    ABW   Aruba    1993                NA <NA>  <NA>     <NA>    2022-07-20
##  5 AW    ABW   Aruba    1994                NA <NA>  <NA>     <NA>    2022-07-20
##  6 AW    ABW   Aruba    1995                NA <NA>  <NA>     <NA>    2022-07-20
##  7 AW    ABW   Aruba    1996                NA <NA>  <NA>     <NA>    2022-07-20
##  8 AW    ABW   Aruba    1997                NA <NA>  <NA>     <NA>    2022-07-20
##  9 AW    ABW   Aruba    1998                NA <NA>  <NA>     <NA>    2022-07-20
## 10 AW    ABW   Aruba    1999                NA <NA>  <NA>     <NA>    2022-07-20
## # … with 6,717 more rows, and abbreviated variable names ¹​obs_status,
## #   ²​footnote, ³​last_updated
## # ℹ Use `print(n = ...)` to see more rows
```

Note the column containing our indicator uses the indicator ID as its name. This is rather unintuitive, so we can adjust it directly in the function.


```r
female_labor <- wb_data(
  indicator = c("fem_lab_part" = "SL.TLF.TOTL.FE.ZS"),
  start_date = 1990,
  end_date = 2020
)
female_labor
```

```
## # A tibble: 6,727 × 9
##    iso2c iso3c country  date fem_lab_part unit  obs_status footnote last_updated
##    <chr> <chr> <chr>   <dbl>        <dbl> <chr> <chr>      <chr>    <date>      
##  1 AW    ABW   Aruba    1990           NA <NA>  <NA>       <NA>     2022-07-20  
##  2 AW    ABW   Aruba    1991           NA <NA>  <NA>       <NA>     2022-07-20  
##  3 AW    ABW   Aruba    1992           NA <NA>  <NA>       <NA>     2022-07-20  
##  4 AW    ABW   Aruba    1993           NA <NA>  <NA>       <NA>     2022-07-20  
##  5 AW    ABW   Aruba    1994           NA <NA>  <NA>       <NA>     2022-07-20  
##  6 AW    ABW   Aruba    1995           NA <NA>  <NA>       <NA>     2022-07-20  
##  7 AW    ABW   Aruba    1996           NA <NA>  <NA>       <NA>     2022-07-20  
##  8 AW    ABW   Aruba    1997           NA <NA>  <NA>       <NA>     2022-07-20  
##  9 AW    ABW   Aruba    1998           NA <NA>  <NA>       <NA>     2022-07-20  
## 10 AW    ABW   Aruba    1999           NA <NA>  <NA>       <NA>     2022-07-20  
## # … with 6,717 more rows
## # ℹ Use `print(n = ...)` to see more rows
```
…
### Retrieve the database


```r
(mpds <- mp_maindataset())
```

```
## Connecting to Manifesto Project DB API... 
## Connecting to Manifesto Project DB API... corpus version: 2021-1
```

```
## # A tibble: 4,739 × 174
##    country countryname oecdmem…¹ eumem…² edate        date party party…³ party…⁴
##      <dbl> <chr>           <dbl>   <dbl> <date>      <dbl> <dbl> <chr>   <chr>  
##  1      11 Sweden              0       0 1944-09-17 194409 11220 Commun… "SKP"  
##  2      11 Sweden              0       0 1944-09-17 194409 11320 Social… "SAP"  
##  3      11 Sweden              0       0 1944-09-17 194409 11420 People… "FP"   
##  4      11 Sweden              0       0 1944-09-17 194409 11620 Right … ""     
##  5      11 Sweden              0       0 1944-09-17 194409 11810 Agrari… ""     
##  6      11 Sweden              0       0 1948-09-19 194809 11220 Commun… "SKP"  
##  7      11 Sweden              0       0 1948-09-19 194809 11320 Social… "SAP"  
##  8      11 Sweden              0       0 1948-09-19 194809 11420 People… "FP"   
##  9      11 Sweden              0       0 1948-09-19 194809 11620 Right … ""     
## 10      11 Sweden              0       0 1948-09-19 194809 11810 Agrari… ""     
## # … with 4,729 more rows, 165 more variables: parfam <dbl>, coderid <dbl>,
## #   manual <dbl>, coderyear <dbl>, testresult <dbl>, testeditsim <dbl>,
## #   pervote <dbl>, voteest <dbl>, presvote <dbl>, absseat <dbl>,
## #   totseats <dbl>, progtype <dbl>, datasetorigin <dbl>, corpusversion <chr>,
## #   total <dbl>, peruncod <dbl>, per101 <dbl>, per102 <dbl>, per103 <dbl>,
## #   per104 <dbl>, per105 <dbl>, per106 <dbl>, per107 <dbl>, per108 <dbl>,
## #   per109 <dbl>, per110 <dbl>, per201 <dbl>, per202 <dbl>, per203 <dbl>, …
## # ℹ Use `print(n = ...)` to see more rows, and `colnames()` to see all variable names
```
…
```
## Getting data from the 2010 decennial Census
```

```
## Using Census Summary File 1
```

```r
asia10
```

```
## # A tibble: 52 × 4
##    GEOID NAME        variable   value
##    <chr> <chr>       <chr>      <dbl>
##  1 01    Alabama     P008006    53595
##  2 02    Alaska      P008006    38135
##  3 04    Arizona     P008006   176695
##  4 05    Arkansas    P008006    36102
##  5 06    California  P008006  4861007
##  6 22    Louisiana   P008006    70132
##  7 21    Kentucky    P008006    48930
##  8 08    Colorado    P008006   139028
##  9 09    Connecticut P008006   135565
## 10 10    Delaware    P008006    28549
## # … with 42 more rows
## # ℹ Use `print(n = ...)` to see more rows
```
…
```
## Getting data from the 2010 decennial Census
```

```
## Using Census Summary File 1
```

```r
asia_pop
```

```
## # A tibble: 52 × 5
##    GEOID NAME                  P008001 P008006 pct_asia
##    <chr> <chr>                   <dbl>   <dbl>    <dbl>
##  1 01    Alabama               4779736   53595   0.0112
##  2 02    Alaska                 710231   38135   0.0537
##  3 04    Arizona               6392017  176695   0.0276
##  4 05    Arkansas              2915918   36102   0.0124
##  5 06    California           37253956 4861007   0.130 
##  6 08    Colorado              5029196  139028   0.0276
##  7 09    Connecticut           3574097  135565   0.0379
##  8 10    Delaware               897934   28549   0.0318
##  9 11    District of Columbia   601723   21056   0.0350
## 10 12    Florida              18801310  454821   0.0242
## # … with 42 more rows
## # ℹ Use `print(n = ...)` to see more rows
```
…
```
## Getting data from the 2015-2019 5-year ACS
```

```r
usa_inc
```

```
## # A tibble: 52 × 5
##    GEOID NAME                 variable  estimate   moe
##    <chr> <chr>                <chr>        <dbl> <dbl>
##  1 01    Alabama              medincome    50536   304
##  2 02    Alaska               medincome    77640  1015
##  3 04    Arizona              medincome    58945   266
##  4 05    Arkansas             medincome    47597   328
##  5 06    California           medincome    75235   232
##  6 08    Colorado             medincome    72331   370
##  7 09    Connecticut          medincome    78444   553
##  8 10    Delaware             medincome    68287   696
##  9 11    District of Columbia medincome    86420  1008
## 10 12    Florida              medincome    55660   220
## # … with 42 more rows
## # ℹ Use `print(n = ...)` to see more rows
```
…
