…
[`tidymodels`](https://www.tidymodels.org/) is a collection of packages for statistical modeling and machine learning using `tidyverse` principles. Given this emphasis, it pairs nicely with the tidy-centric approach we have covered so far for tasks such as data visualization, data wrangling, importation of data files, and publishing results.

`tidymodels` is still under active development and contains a range of packages and functions for many different aspects of statistical modeling. Here we demonstrate how to start with data for modeling, specify and train models using different engines using the [`parsnip` package](https://tidymodels.github.io/parsnip/), and understand why these functions are designed this way.

## `scorecard`

As in past exercises, let's use the `rcis::scorecard` dataset which contains detailed information on all four-year colleges and universities in the United States. Here we will consider the average faculty salary to understand how it is influenced by factors such as the average annual total cost of attendance and whether the university is public, private nonprofit, or private for-profit.


```r
scorecard
```

```
## # A tibble: 1,732 × 14
##    unitid name  state type  admrate satavg  cost netcost avgfa…¹ pctpell compr…²
##     <dbl> <chr> <chr> <fct>   <dbl>  <dbl> <dbl>   <dbl>   <dbl>   <dbl>   <dbl>
##  1 100654 Alab… AL    Publ…   0.918    939 23053   14990   69381   0.702   0.297
##  2 100663 Univ… AL    Publ…   0.737   1234 24495   16953   99441   0.351   0.634
##  3 100706 Univ… AL    Publ…   0.826   1319 23917   15860   87192   0.254   0.577
##  4 100724 Alab… AL    Publ…   0.969    946 21866   13650   64989   0.763   0.328
##  5 100751 The … AL    Publ…   0.827   1261 29872   22597   92619   0.177   0.711
##  6 100830 Aubu… AL    Publ…   0.904   1082 19849   13987   71343   0.464   0.340
##  7 100858 Aubu… AL    Publ…   0.807   1300 31590   24104   96642   0.146   0.791
##  8 100937 Birm… AL    Priv…   0.538   1230 32095   22107   56646   0.236   0.691
##  9 101189 Faul… AL    Priv…   0.783   1066 34317   20715   54009   0.488   0.329
## 10 101365 Herz… AL    Priv…   0.783     NA 30119   26680   54684   0.706   0.28 
## # … with 1,722 more rows, 3 more variables: firstgen <dbl>, debt <dbl>,
## #   locale <fct>, and abbreviated variable names ¹​avgfacsal, ²​comprate
## # ℹ Use `print(n = ...)` to see more rows, and `colnames()` to see all variable names
```
…
