An introduction to machine learning
…
```r
training(bechdel_split)
testing(bechdel_split)
```

.footnote[`*` from `rsample`]

---

## `training()`

```r
bechdel_train <- training(bechdel_split)
bechdel_train
## # A tibble: 1,045 × 10
##     year title         test  budge…¹ domgr…² intgr…³ rated metas…⁴ imdb_…⁵ genre
##    <dbl> <chr>         <fct>   <dbl>   <dbl>   <dbl> <chr>   <dbl>   <dbl> <chr>
##  1  2013 12 Years a S… Fail     2       5.31   15.9  R          97     8.3 Biog…
##  2  2013 2 Guns        Fail     6.1     7.56   13.2  R          55     6.8 Acti…
##  3  2013 42            Fail     4       9.50    9.50 PG-13      62     7.6 Biog…
##  4  2013 47 Ronin      Fail    22.5     3.84   14.6  PG-13      29     6.6 Acti…
##  5  2013 A Good Day t… Fail     9.2     6.73   30.4  R          28     5.4 Acti…
##  6  2013 After Earth   Fail    13       6.05   24.4  PG-13      33     5   Acti…
##  7  2013 Cloudy with … Fail     7.8    12.0    27.2  PG         59     6.5 Anim…
##  8  2013 Don Jon       Fail     0.55    2.45    2.64 R          66     6.8 Come…
##  9  2013 Escape Plan   Fail     7       2.52   10.4  R          49     6.8 Acti…
## 10  2013 Gangster Squ… Fail     6       4.60   10.4  R          40     6.8 Acti…
## # … with 1,035 more rows, and abbreviated variable names ¹​budget_2013,
## #   ²​domgross_2013, ³​intgross_2013, ⁴​metascore, ⁵​imdb_rating
```
…
--

.pull-right[

```r
collect_metrics(tree_fit, summarize = FALSE)
## # A tibble: 20 × 5
##    id     .metric  .estimator .estimate .config             
##    <chr>  <chr>    <chr>          <dbl> <chr>               
##  1 Fold01 accuracy binary         0.610 Preprocessor1_Model1
##  2 Fold01 roc_auc  binary         0.625 Preprocessor1_Model1
##  3 Fold02 accuracy binary         0.610 Preprocessor1_Model1
##  4 Fold02 roc_auc  binary         0.621 Preprocessor1_Model1
##  5 Fold03 accuracy binary         0.562 Preprocessor1_Model1
##  6 Fold03 roc_auc  binary         0.562 Preprocessor1_Model1
##  7 Fold04 accuracy binary         0.552 Preprocessor1_Model1
##  8 Fold04 roc_auc  binary         0.535 Preprocessor1_Model1
##  9 Fold05 accuracy binary         0.495 Preprocessor1_Model1
## 10 Fold05 roc_auc  binary         0.502 Preprocessor1_Model1
## # … with 10 more rows
```
…
---

```r
tree_preds <- tree_mod %>% 
  fit_resamples(
    test ~ metascore + imdb_rating, 
    resamples = bechdel_folds,
*   control = control_resamples(save_pred = TRUE)
  )

tree_preds %>% 
  collect_predictions() %>% 
  roc_curve(truth = test, .pred_Fail)
## # A tibble: 36 × 3
##    .threshold specificity sensitivity
##         <dbl>       <dbl>       <dbl>
##  1   -Inf          0            1    
##  2      0.415      0            1    
##  3      0.420      0.0236       0.974
##  4      0.423      0.0558       0.946
##  5      0.425      0.0837       0.924
##  6      0.431      0.114        0.902
##  7      0.436      0.133        0.889
##  8      0.437      0.172        0.869
##  9      0.442      0.206        0.851
## 10      0.444      0.238        0.826
## # … with 26 more rows
```
…
