Practice getting data from the Twitter API
…
To find 3000 recent tweets using the rstats hashtag:

rt <- search_tweets(
  q = "#rstats",
  n = 3000,
  include_rts = FALSE
)

## Searching for tweets...

## Finished collecting tweets!

rt

## # A tibble: 2,656 x 42
##    status_id  created_at          user_id  screen_name text         source
##    <chr>      <dttm>              <chr>    <chr>       <chr>        <chr> 
##  1 973234778 2018-03-12 16:30:27 2957630 calves06    Todays the Twitt
##  2 973234218 2018-03-12 16:28:14 9354611 RLadiesLau We are cont Twitt
##  3 973233874 2018-03-12 16:26:52 8441528 rweekly_li Steel-ing a R Wee
##  4 973233697 2018-03-12 16:26:10 4686586 bass_analy "A tidy mod Twitt
##  5 973232678 2018-03-12 16:22:07 1989657 monkmanmh   "TIL that I Twitt
##  6 973231360 2018-03-12 16:16:52 16736320 kai_arzhei @kuziemsky  Twitt
##  7 973230437 2018-03-12 16:13:12 89191817 BigDataIns "Big | Data Paper
##  8 973229907 2018-03-12 16:11:06 5232165 martinjhnh "I've a #GI Twitt
##  9 973228130 2018-03-12 16:04:02 3580439 maximaform #Statistics Buffer
## 10 973227858 2018-03-12 16:02:57 1120991 fongchunch Anyone know Tweet
## # ... with 2,646 more rows, and 36 more variables:
## #   reply_to_status_id <chr>, reply_to_user_id <chr>,
## #   reply_to_screen_name <chr>, is_quote <lgl>, is_retweet <lgl>,
## #   favorite_count <int>, retweet_count <int>, hashtags <list>,
## #   symbols <list>, urls_url <list>, urls_t.co <list>,
## #   urls_expanded_url <list>, media_url <list>, media_t.co <list>,
## #   media_expanded_url <list>, media_type <list>, ext_media_url <list>,
## #   ext_media_t.co <list>, ext_media_expanded_url <list>,
## #   ext_media_type <lgl>, mentions_user_id <list>,
…
include_rts = FALSE - exclude retweets generated by Twitters built-in retweet function. We only want original tweets.

The resulting object is a tibble data frame with one row for each tweet. The data frame contains the full text of the tweet (text), the username of the poster (screen_name), as well as a wealth of metadata.

Note that the Twitter REST API limits all searches to the past 6-9 days. You will not retrieve any earlier results.

Searching users

Use get_timeline() or get_timelines() to retrieve tweets from one or more specified Twitter users. This only works for users with public profiles or those that have authorized your app.

countvoncount <- get_timeline(user = "countvoncount", n = 1000)
countvoncount

## # A tibble: 1,200 x 42
##    status_id   created_at          user_id  screen_name text      source  
##  * <chr>       <dttm>              <chr>    <chr>       <chr>     <chr>   
##  1 9731839178 2018-03-12 13:08:21 5551297 CountVonCo One thou CountVo
##  2 9728970194 2018-03-11 18:08:19 5551297 CountVonCo One thou CountVo
##  3 9725799215 2018-03-10 21:08:17 5551297 CountVonCo One thou CountVo
##  4 9723081230 2018-03-10 03:08:15 5551297 CountVonCo One thou CountVo
##  5 9721420240 2018-03-09 16:08:14 5551297 CountVonCo One thou CountVo
##  6 9718551253 2018-03-08 21:08:12 5551297 CountVonCo One thou CountVo
##  7 9717343260 2018-03-08 13:08:11 5551297 CountVonCo One thou CountVo
##  8 9714776275 2018-03-07 20:08:10 5551297 CountVonCo One thou CountVo
##  9 9713870278 2018-03-07 14:08:09 5551297 CountVonCo One thou CountVo
## 10 9711303288 2018-03-06 21:08:07 5551297 CountVonCo One thou CountVo
## # ... with 1,190 more rows, and 36 more variables:
## #   reply_to_status_id <lgl>, reply_to_user_id <lgl>,
## #   reply_to_screen_name <lgl>, is_quote <lgl>, is_retweet <lgl>,
## #   favorite_count <int>, retweet_count <int>, hashtags <list>,
## #   symbols <list>, urls_url <list>, urls_t.co <list>,
## #   urls_expanded_url <list>, media_url <list>, media_t.co <list>,
## #   media_expanded_url <list>, media_type <list>, ext_media_url <list>,
## #   ext_media_t.co <list>, ext_media_expanded_url <list>,
## #   ext_media_type <lgl>, mentions_user_id <list>,
…
