…
```r
taylor_swift_clean <- taylor_swift_lyrics %>%
  # clean column names
  select(artist = Artist, song_title = Title, lyrics = Lyrics)

# combine into single data file
lyrics <- bind_rows(beyonce_clean, taylor_swift_clean) %>%
  mutate(artist = factor(artist))
lyrics
```

```
## # A tibble: 523 × 3
##    artist  song_title                         lyrics                            
##    <fct>   <chr>                              <chr>                             
##  1 Beyoncé Ego (Remix) (Ft. Kanye West)       "I got a big ego (Ha ha ha) I’m s…
##  2 Beyoncé Irreplaceable (Rap Version) (Ft. … "To the left To the left To the l…
##  3 Beyoncé Smash Into You                     "Head down As I watch my feet tak…
##  4 Beyoncé Cards Never Lie (Ft. Rah Digga & … "The cards never lie, my last bre…
##  5 Beyoncé If Looks Could Kill (You Would Be… "Sweetness flowing like a faucet,…
##  6 Beyoncé The Last Great Seduction (Ft. Mek… "You know you really, really, rea…
##  7 Beyoncé Check on It (LP Version) (Ft. Sli… "Swizz Beatz DC, Destiny Child (S…
##  8 Beyoncé Crazy in Love (Ft. JAY-Z)          "Yes! So crazy right now! Most in…
##  9 Beyoncé Déjà Vu (Ft. JAY-Z)                "Bass (Uh) Hi-hat (Uh) 808 (Uh) J…
## 10 Beyoncé Me, Myself & I (Remix) (Ft. Ghost… "Ahh, ahh, ahh all the ladies if …
## # … with 513 more rows
```
…
```r
# evaluate results
collect_metrics(x = glmnet_tune)
```

```
## # A tibble: 240 × 8
##       penalty mixture .metric  .estimator  mean     n std_err .config           
##         <dbl>   <dbl> <chr>    <chr>      <dbl> <int>   <dbl> <chr>             
##  1 0.000001         0 accuracy binary     0.753    10  0.0255 Preprocessor1_Mod…
##  2 0.000001         0 roc_auc  binary     0.884    10  0.0268 Preprocessor1_Mod…
##  3 0.00000183       0 accuracy binary     0.753    10  0.0255 Preprocessor1_Mod…
##  4 0.00000183       0 roc_auc  binary     0.884    10  0.0268 Preprocessor1_Mod…
##  5 0.00000336       0 accuracy binary     0.753    10  0.0255 Preprocessor1_Mod…
##  6 0.00000336       0 roc_auc  binary     0.884    10  0.0268 Preprocessor1_Mod…
##  7 0.00000616       0 accuracy binary     0.753    10  0.0255 Preprocessor1_Mod…
##  8 0.00000616       0 roc_auc  binary     0.884    10  0.0268 Preprocessor1_Mod…
##  9 0.0000113        0 accuracy binary     0.753    10  0.0255 Preprocessor1_Mod…
## 10 0.0000113        0 roc_auc  binary     0.884    10  0.0268 Preprocessor1_Mod…
## # … with 230 more rows
```
…
