…
<div id="htmlwidget-2" style="width:100%;height:480px;" class="widgetframe html-widget"></div>
<script type="application/json" data-for="htmlwidget-2">{"x":{"url":"index_files/figure-html//widgets/widget_basemap.html","options":{"xdomain":"*","allowfullscreen":false,"lazyload":false}},"evals":[],"jsHooks":[]}</script>

## Add markers

**Markers** are used to identify points on the map. Each point needs to be defined in terms of latitude/longitude coordinates. These can come from a variety of sources, most commonly either a [map data file](/notes/simple-features/) such as a shapefile or GeoJSON (imported using `sf`) or a data frame with latitude and longitude columns.

Let’s use the Chicago crimes data to draw a map of the city identifying the location of each reported homicide:

``` r
(homicides <- crimes %>%
  filter(`Primary Type` == "HOMICIDE"))
```

    ## # A tibble: 671 x 22
    ##        ID `Case Number` Date  Block IUCR  `Primary Type` Description
    ##     <dbl> <chr>         <chr> <chr> <chr> <chr>          <chr>      
    ##  1 2.31e4 JA149608      02/1… 001X… 0110  HOMICIDE       FIRST DEGR…
    ##  2 2.39e4 JA530946      11/3… 088X… 0110  HOMICIDE       FIRST DEGR…
    ##  3 2.34e4 JA302423      06/1… 047X… 0110  HOMICIDE       FIRST DEGR…
    ##  4 2.34e4 JA312425      06/1… 006X… 0110  HOMICIDE       FIRST DEGR…
    ##  5 2.37e4 JA490016      10/2… 048X… 0110  HOMICIDE       FIRST DEGR…
    ##  6 2.32e4 JA210752      04/0… 013X… 0110  HOMICIDE       FIRST DEGR…
    ##  7 2.36e4 JA461918      10/0… 018X… 0110  HOMICIDE       FIRST DEGR…
    ##  8 2.36e4 JA461918      10/0… 018X… 0110  HOMICIDE       FIRST DEGR…
    ##  9 1.08e7 JA138326      02/0… 013X… 0142  HOMICIDE       RECKLESS H…
    ## 10 2.35e4 JA364517      07/2… 047X… 0110  HOMICIDE       FIRST DEGR…
    ## # … with 661 more rows, and 15 more variables: `Location Description` <chr>,
    ## #   Arrest <lgl>, Domestic <lgl>, Beat <chr>, District <chr>, Ward <dbl>,
    ## #   `Community Area` <dbl>, `FBI Code` <chr>, `X Coordinate` <dbl>, `Y
    ## #   Coordinate` <dbl>, Year <dbl>, `Updated On` <chr>, Latitude <dbl>,
    ## #   Longitude <dbl>, Location <chr>
…
