…
```r
usethis::use_course("uc-cfss/data-wrangling-relational-data-and-factors")
```

{{% /callout %}}


```r
# load the data
data("gun_deaths")
gun_deaths
```

```
## # A tibble: 100,798 × 10
##       id  year month intent       police sex     age race        place education
##    <dbl> <dbl> <chr> <chr>         <dbl> <chr> <dbl> <chr>       <chr> <fct>    
##  1     1  2012 Jan   Suicide           0 M        34 Asian/Paci… Home  BA+      
##  2     2  2012 Jan   Suicide           0 F        21 White       Stre… Some col…
##  3     3  2012 Jan   Suicide           0 M        60 White       Othe… BA+      
##  4     4  2012 Feb   Suicide           0 M        64 White       Home  BA+      
##  5     5  2012 Feb   Suicide           0 M        31 White       Othe… HS/GED   
##  6     6  2012 Feb   Suicide           0 M        17 Native Ame… Home  Less tha…
##  7     7  2012 Feb   Undetermined      0 M        48 White       Home  HS/GED   
##  8     8  2012 Mar   Suicide           0 M        41 Native Ame… Home  HS/GED   
##  9     9  2012 Feb   Accidental        0 M        50 White       Othe… Some col…
## 10    10  2012 Feb   Suicide           0 M        NA Black       Home  <NA>     
## # … with 100,788 more rows
```
…
```
##  [1] "Jan" "Feb" "Mar" "Apr" "May" "Jun" "Jul" "Aug" "Sep" "Oct" "Nov" "Dec"
```

```r
# use mutate() and factor() to convert the column and store the result
(gun_deaths <- gun_deaths %>%
  mutate(month = factor(month,
    levels = month_levels
  )))
```

```
## # A tibble: 100,798 × 10
##       id  year month intent       police sex     age race        place education
##    <dbl> <dbl> <fct> <chr>         <dbl> <chr> <dbl> <chr>       <chr> <fct>    
##  1     1  2012 Jan   Suicide           0 M        34 Asian/Paci… Home  BA+      
##  2     2  2012 Jan   Suicide           0 F        21 White       Stre… Some col…
##  3     3  2012 Jan   Suicide           0 M        60 White       Othe… BA+      
##  4     4  2012 Feb   Suicide           0 M        64 White       Home  BA+      
##  5     5  2012 Feb   Suicide           0 M        31 White       Othe… HS/GED   
##  6     6  2012 Feb   Suicide           0 M        17 Native Ame… Home  Less tha…
##  7     7  2012 Feb   Undetermined      0 M        48 White       Home  HS/GED   
##  8     8  2012 Mar   Suicide           0 M        41 Native Ame… Home  HS/GED   
##  9     9  2012 Feb   Accidental        0 M        50 White       Othe… Some col…
## 10    10  2012 Feb   Suicide           0 M        NA Black       Home  <NA>     
## # … with 100,788 more rows
```
…
