…
## Exercise: write a `for` loop

### Mean of columns in `car_prices`

Write a `for` loop that calculates the arithmetic mean for every column in `modeldata::car_prices`.


```r
data("car_prices", package = "modeldata")
car_prices
```

```
## # A tibble: 804 × 18
##     Price Mileage Cylin…¹ Doors Cruise Sound Leather Buick Cadil…² Chevy Pontiac
##     <dbl>   <int>   <int> <int>  <int> <int>   <int> <int>   <int> <int>   <int>
##  1 22661.   20105       6     4      1     0       0     1       0     0       0
##  2 21725.   13457       6     2      1     1       0     0       0     1       0
##  3 29143.   31655       4     2      1     1       1     0       0     0       0
##  4 30732.   22479       4     2      1     0       0     0       0     0       0
##  5 33359.   17590       4     2      1     1       1     0       0     0       0
##  6 30315.   23635       4     2      1     0       0     0       0     0       0
##  7 33382.   17381       4     2      1     1       1     0       0     0       0
##  8 30251.   27558       4     2      1     0       1     0       0     0       0
##  9 30167.   25049       4     2      1     0       0     0       0     0       0
## 10 27060.   17319       4     4      1     0       1     0       0     0       0
## # … with 794 more rows, 7 more variables: Saab <int>, Saturn <int>,
## #   convertible <int>, coupe <int>, hatchback <int>, sedan <int>, wagon <int>,
## #   and abbreviated variable names ¹​Cylinder, ²​Cadillac
## # ℹ Use `print(n = ...)` to see more rows, and `colnames()` to see all variable names
```
…
## Exercise: rewrite our `for` loops using a `map()` function

### Mean of columns in `car_prices`

Write a `map()` function that calculates the arithmetic mean for every column in `car_prices`.


```r
car_prices
```

```
## # A tibble: 804 × 18
##     Price Mileage Cylin…¹ Doors Cruise Sound Leather Buick Cadil…² Chevy Pontiac
##     <dbl>   <int>   <int> <int>  <int> <int>   <int> <int>   <int> <int>   <int>
##  1 22661.   20105       6     4      1     0       0     1       0     0       0
##  2 21725.   13457       6     2      1     1       0     0       0     1       0
##  3 29143.   31655       4     2      1     1       1     0       0     0       0
##  4 30732.   22479       4     2      1     0       0     0       0     0       0
##  5 33359.   17590       4     2      1     1       1     0       0     0       0
##  6 30315.   23635       4     2      1     0       0     0       0     0       0
##  7 33382.   17381       4     2      1     1       1     0       0     0       0
##  8 30251.   27558       4     2      1     0       1     0       0     0       0
##  9 30167.   25049       4     2      1     0       0     0       0     0       0
## 10 27060.   17319       4     4      1     0       1     0       0     0       0
## # … with 794 more rows, 7 more variables: Saab <int>, Saturn <int>,
## #   convertible <int>, coupe <int>, hatchback <int>, sedan <int>, wagon <int>,
## #   and abbreviated variable names ¹​Cylinder, ²​Cadillac
## # ℹ Use `print(n = ...)` to see more rows, and `colnames()` to see all variable names
```
…
## Mutate

Combinations of `mutate()` and `across()` work in a similar way to their summarize equivalents.


```r
car_prices %>%
  mutate(across(.cols = Price:Doors, .fns = log10))
```

```
## # A tibble: 804 × 18
##    Price Mileage Cylinder Doors Cruise Sound Leather Buick Cadil…¹ Chevy Pontiac
##    <dbl>   <dbl>    <dbl> <dbl>  <int> <int>   <int> <int>   <int> <int>   <int>
##  1  4.36    4.30    0.778 0.602      1     0       0     1       0     0       0
##  2  4.34    4.13    0.778 0.301      1     1       0     0       0     1       0
##  3  4.46    4.50    0.602 0.301      1     1       1     0       0     0       0
##  4  4.49    4.35    0.602 0.301      1     0       0     0       0     0       0
##  5  4.52    4.25    0.602 0.301      1     1       1     0       0     0       0
##  6  4.48    4.37    0.602 0.301      1     0       0     0       0     0       0
##  7  4.52    4.24    0.602 0.301      1     1       1     0       0     0       0
##  8  4.48    4.44    0.602 0.301      1     0       1     0       0     0       0
##  9  4.48    4.40    0.602 0.301      1     0       0     0       0     0       0
## 10  4.43    4.24    0.602 0.602      1     0       1     0       0     0       0
## # … with 794 more rows, 7 more variables: Saab <int>, Saturn <int>,
## #   convertible <int>, coupe <int>, hatchback <int>, sedan <int>, wagon <int>,
## #   and abbreviated variable name ¹​Cadillac
## # ℹ Use `print(n = ...)` to see more rows, and `colnames()` to see all variable names
```

## Filter

We cannot directly use `across()` in `filter()` because we need an extra step to combine the results. To that end, `filter()` has two special purpose companion functions:

- `if_any()` keeps the rows where the predicate is true for **at least one** selected column:

    
    ```r
    worldbank %>%
      filter(if_any(everything(), ~ !is.na(.x)))
    ```
    
    ```
    ## # A tibble: 78 × 14
    ##    iso3c date  iso2c country   perc_en…¹ rnd_g…² percg…³ real_…⁴ gdp_c…⁵ top10…⁶
    ##    <chr> <chr> <chr> <chr>         <dbl>   <dbl>   <dbl>   <dbl>   <dbl>   <dbl>
    ##  1 ARG   2005  AR    Argentina      89.1   0.379    15.5   6198.   5110.    35  
    ##  2 ARG   2006  AR    Argentina      88.7   0.400    22.1   7388.   5919.    33.9
    ##  3 ARG   2007  AR    Argentina      89.2   0.402    22.8   8182.   7245.    33.8
    ##  4 ARG   2008  AR    Argentina      90.7   0.421    21.6   8576.   9021.    32.5
    ##  5 ARG   2009  AR    Argentina      89.6   0.519    18.9   7904.   8225.    31.4
    ##  6 ARG   2010  AR    Argentina      89.5   0.518    17.9   8803.  10386.    32  
    ##  7 ARG   2011  AR    Argentina      88.9   0.537    17.9   9528.  12849.    31  
    ##  8 ARG   2012  AR    Argentina      89.0   0.609    16.5   9301.  13083.    29.7
    ##  9 ARG   2013  AR    Argentina      89.0   0.612    15.3   9367.  13080.    29.4
    ## 10 ARG   2014  AR    Argentina      87.7   0.613    16.1   8903.  12335.    29.9
    ## # … with 68 more rows, 4 more variables: employment_ratio <dbl>,
    ## #   life_exp <dbl>, pop_growth <dbl>, pop <dbl>, and abbreviated variable names
    ## #   ¹​perc_energy_fosfuel, ²​rnd_gdpshare, ³​percgni_adj_gross_savings,
    ## #   ⁴​real_netinc_percap, ⁵​gdp_capita, ⁶​top10perc_incshare
    ## # ℹ Use `print(n = ...)` to see more rows, and `colnames()` to see all variable names
    ```

- `if_all()` keeps the rows where the predicate is true for **all** selected columns:

    
    ```r
    worldbank %>%
      filter(if_all(everything(), ~ !is.na(.x)))
    ```
    
    ```
    ## # A tibble: 42 × 14
    ##    iso3c date  iso2c country   perc_en…¹ rnd_g…² percg…³ real_…⁴ gdp_c…⁵ top10…⁶
    ##    <chr> <chr> <chr> <chr>         <dbl>   <dbl>   <dbl>   <dbl>   <dbl>   <dbl>
    ##  1 ARG   2005  AR    Argentina      89.1   0.379    15.5   6198.   5110.    35  
    ##  2 ARG   2006  AR    Argentina      88.7   0.400    22.1   7388.   5919.    33.9
    ##  3 ARG   2007  AR    Argentina      89.2   0.402    22.8   8182.   7245.    33.8
    ##  4 ARG   2008  AR    Argentina      90.7   0.421    21.6   8576.   9021.    32.5
    ##  5 ARG   2009  AR    Argentina      89.6   0.519    18.9   7904.   8225.    31.4
    ##  6 ARG   2010  AR    Argentina      89.5   0.518    17.9   8803.  10386.    32  
    ##  7 ARG   2011  AR    Argentina      88.9   0.537    17.9   9528.  12849.    31  
    ##  8 ARG   2012  AR    Argentina      89.0   0.609    16.5   9301.  13083.    29.7
    ##  9 ARG   2013  AR    Argentina      89.0   0.612    15.3   9367.  13080.    29.4
    ## 10 ARG   2014  AR    Argentina      87.7   0.613    16.1   8903.  12335.    29.9
    ## # … with 32 more rows, 4 more variables: employment_ratio <dbl>,
    ## #   life_exp <dbl>, pop_growth <dbl>, pop <dbl>, and abbreviated variable names
    ## #   ¹​perc_energy_fosfuel, ²​rnd_gdpshare, ³​percgni_adj_gross_savings,
    ## #   ⁴​real_netinc_percap, ⁵​gdp_capita, ⁶​top10perc_incshare
    ## # ℹ Use `print(n = ...)` to see more rows, and `colnames()` to see all variable names
    ```
…
