…
Write your code using all four methods:

* Intermediate steps
* Overwrite the original
* Function composition
* Piping


```r
data("gun_deaths")
gun_deaths
```

```
## # A tibble: 100,798 x 10
##       id  year month intent   police sex     age race         place    education
##    <dbl> <dbl> <chr> <chr>     <dbl> <chr> <dbl> <chr>        <chr>    <fct>    
##  1     1  2012 Jan   Suicide       0 M        34 Asian/Pacif… Home     BA+      
##  2     2  2012 Jan   Suicide       0 F        21 White        Street   Some col…
##  3     3  2012 Jan   Suicide       0 M        60 White        Other s… BA+      
##  4     4  2012 Feb   Suicide       0 M        64 White        Home     BA+      
##  5     5  2012 Feb   Suicide       0 M        31 White        Other s… HS/GED   
##  6     6  2012 Feb   Suicide       0 M        17 Native Amer… Home     Less tha…
##  7     7  2012 Feb   Undeter…      0 M        48 White        Home     HS/GED   
##  8     8  2012 Mar   Suicide       0 M        41 Native Amer… Home     HS/GED   
##  9     9  2012 Feb   Acciden…      0 M        50 White        Other s… Some col…
## 10    10  2012 Feb   Suicide       0 M        NA Black        Home     <NA>     
## # … with 100,788 more rows
```
…
