Tune better models
…
rf_wf <- rf_wf %>%
  update_model(rf_tuner)

set.seed(100) # Important!
rf_results <- rf_wf %>%
  tune_grid(resamples = alz_folds)
```

---

```r
rf_results %>%
  collect_metrics()
## # A tibble: 20 × 8
##     mtry min_n .metric  .estim…¹  mean     n std_err .config
##    <int> <int> <chr>    <chr>    <dbl> <int>   <dbl> <chr>  
##  1    53    28 accuracy binary   0.843    10 0.00946 Prepro…
##  2    53    28 roc_auc  binary   0.894    10 0.0212  Prepro…
##  3    37    36 accuracy binary   0.843    10 0.0102  Prepro…
##  4    37    36 roc_auc  binary   0.891    10 0.0188  Prepro…
##  5    74    21 accuracy binary   0.849    10 0.0111  Prepro…
##  6    74    21 roc_auc  binary   0.892    10 0.0216  Prepro…
##  7    10    13 accuracy binary   0.816    10 0.0128  Prepro…
##  8    10    13 roc_auc  binary   0.886    10 0.0182  Prepro…
##  9    80     8 accuracy binary   0.839    10 0.0176  Prepro…
## 10    80     8 roc_auc  binary   0.899    10 0.0217  Prepro…
## # … with 10 more rows, and abbreviated variable name
## #   ¹​.estimator
```

---

```r
rf_results %>%
  collect_metrics(summarize = FALSE)
## # A tibble: 200 × 7
##    id      mtry min_n .metric  .estimator .estimate .config 
##    <chr>  <int> <int> <chr>    <chr>          <dbl> <chr>   
##  1 Fold01    53    28 accuracy binary         0.806 Preproc…
##  2 Fold01    53    28 roc_auc  binary         0.879 Preproc…
##  3 Fold02    53    28 accuracy binary         0.833 Preproc…
##  4 Fold02    53    28 roc_auc  binary         0.898 Preproc…
##  5 Fold03    53    28 accuracy binary         0.8   Preproc…
##  6 Fold03    53    28 roc_auc  binary         0.824 Preproc…
##  7 Fold04    53    28 accuracy binary         0.867 Preproc…
##  8 Fold04    53    28 roc_auc  binary         0.972 Preproc…
##  9 Fold05    53    28 accuracy binary         0.833 Preproc…
## 10 Fold05    53    28 roc_auc  binary         0.807 Preproc…
## # … with 190 more rows
```
…
---

# Final test predictions

```r
last_rf_fit %>%
  collect_predictions()
## # A tibble: 35 × 7
##    id            .pred…¹ .pred…²  .row .pred…³ Class .config
##    <chr>           <dbl>   <dbl> <int> <fct>   <fct> <chr>  
##  1 train/test s…  0.0226   0.977     7 Control Cont… Prepro…
##  2 train/test s…  0.201    0.799    14 Control Cont… Prepro…
##  3 train/test s…  0.618    0.382    16 Impair… Impa… Prepro…
##  4 train/test s…  0.626    0.374    27 Impair… Impa… Prepro…
##  5 train/test s…  0.692    0.308    28 Impair… Impa… Prepro…
##  6 train/test s…  0.174    0.826    32 Control Impa… Prepro…
##  7 train/test s…  0.0117   0.988    54 Control Cont… Prepro…
##  8 train/test s…  0.188    0.812    58 Control Cont… Prepro…
##  9 train/test s…  0.0851   0.915    60 Control Cont… Prepro…
## 10 train/test s…  0.456    0.544    90 Control Cont… Prepro…
## # … with 25 more rows, and abbreviated variable names
## #   ¹​.pred_Impaired, ²​.pred_Control, ³​.pred_class
```
…
