…
```r
challenge <- read_csv(
  readr_example(file = "challenge.csv"),
  col_types = cols(
    x = col_double(),
    y = col_date()
  )
)

challenge
```

```
## # A tibble: 2,000 × 2
##        x y     
##    <dbl> <date>
##  1   404 NA    
##  2  4172 NA    
##  3  3004 NA    
##  4   787 NA    
##  5    37 NA    
##  6  2332 NA    
##  7  2489 NA    
##  8  1449 NA    
##  9  3665 NA    
## 10  3863 NA    
## # … with 1,990 more rows
## # ℹ Use `print(n = ...)` to see more rows
```
…
**RDS** is a custom binary format used exclusively by R to store data objects.


```r
# write to csv
write_csv(x = challenge, file = here("static", "data", "challenge.csv"))

# write to/read from rds
write_rds(x = challenge, file = here("static", "data", "challenge.csv"))
read_rds(file = here("static", "data", "challenge.csv"))
```

```
## # A tibble: 2,000 × 2
##        x y     
##    <dbl> <date>
##  1   404 NA    
##  2  4172 NA    
##  3  3004 NA    
##  4   787 NA    
##  5    37 NA    
##  6  2332 NA    
##  7  2489 NA    
##  8  1449 NA    
##  9  3665 NA    
## 10  3863 NA    
## # … with 1,990 more rows
## # ℹ Use `print(n = ...)` to see more rows
```
…
## `arrow`

The `arrow` package implements a binary file format called `feather` that is cross-compatible with many different programming languages:


```r
library(arrow)

write_feather(x = challenge, sink = here("static", "data", "challenge.feather"))
read_feather(file = here("static", "data", "challenge.feather"))
```

```
## # A tibble: 2,000 × 2
##        x y     
##  * <dbl> <date>
##  1   404 NA    
##  2  4172 NA    
##  3  3004 NA    
##  4   787 NA    
##  5    37 NA    
##  6  2332 NA    
##  7  2489 NA    
##  8  1449 NA    
##  9  3665 NA    
## 10  3863 NA    
## # … with 1,990 more rows
## # ℹ Use `print(n = ...)` to see more rows
```
…
## `readxl`

[`readxl`](http://readxl.tidyverse.org/) enables you to read (but not write) Excel files (`.xls` and `xlsx`).^[If you need to export data into Excel, use `readr::write_csv_excel()`.]


```r
library(readxl)

xlsx_example <- readxl_example(path = "datasets.xlsx")
read_excel(xlsx_example)
```

```
## # A tibble: 150 × 5
##    Sepal.Length Sepal.Width Petal.Length Petal.Width Species
##           <dbl>       <dbl>        <dbl>       <dbl> <chr>  
##  1          5.1         3.5          1.4         0.2 setosa 
##  2          4.9         3            1.4         0.2 setosa 
##  3          4.7         3.2          1.3         0.2 setosa 
##  4          4.6         3.1          1.5         0.2 setosa 
##  5          5           3.6          1.4         0.2 setosa 
##  6          5.4         3.9          1.7         0.4 setosa 
##  7          4.6         3.4          1.4         0.3 setosa 
##  8          5           3.4          1.5         0.2 setosa 
##  9          4.4         2.9          1.4         0.2 setosa 
## 10          4.9         3.1          1.5         0.1 setosa 
## # … with 140 more rows
## # ℹ Use `print(n = ...)` to see more rows
```
…
```
## [1] "iris"     "mtcars"   "chickwts" "quakes"
```

Then specify which worksheet you want by name or number:


```r
read_excel(path = xlsx_example, sheet = "chickwts")
```

```
## # A tibble: 71 × 2
##    weight feed     
##     <dbl> <chr>    
##  1    179 horsebean
##  2    160 horsebean
##  3    136 horsebean
##  4    227 horsebean
##  5    217 horsebean
##  6    168 horsebean
##  7    108 horsebean
##  8    124 horsebean
##  9    143 horsebean
## 10    140 horsebean
## # … with 61 more rows
## # ℹ Use `print(n = ...)` to see more rows
```

```r
read_excel(path = xlsx_example, sheet = 2)
```

```
## # A tibble: 32 × 11
##      mpg   cyl  disp    hp  drat    wt  qsec    vs    am  gear  carb
##    <dbl> <dbl> <dbl> <dbl> <dbl> <dbl> <dbl> <dbl> <dbl> <dbl> <dbl>
##  1  21       6  160    110  3.9   2.62  16.5     0     1     4     4
##  2  21       6  160    110  3.9   2.88  17.0     0     1     4     4
##  3  22.8     4  108     93  3.85  2.32  18.6     1     1     4     1
##  4  21.4     6  258    110  3.08  3.22  19.4     1     0     3     1
##  5  18.7     8  360    175  3.15  3.44  17.0     0     0     3     2
##  6  18.1     6  225    105  2.76  3.46  20.2     1     0     3     1
##  7  14.3     8  360    245  3.21  3.57  15.8     0     0     3     4
##  8  24.4     4  147.    62  3.69  3.19  20       1     0     4     2
##  9  22.8     4  141.    95  3.92  3.15  22.9     1     0     4     2
## 10  19.2     6  168.   123  3.92  3.44  18.3     1     0     4     4
## # … with 22 more rows
## # ℹ Use `print(n = ...)` to see more rows
```
## `haven`

[`haven`](http://haven.tidyverse.org/) allows you to read and write data from other statistical packages such as SAS (`.sas7bdat` + `.sas7bcat`), SPSS (`.sav` + `.por`), and Stata (`.dta`).


```r
library(haven)
library(palmerpenguins)

# SAS
read_sas(data_file = system.file("examples", "iris.sas7bdat", package = "haven"))
```

```
## # A tibble: 150 × 5
##    Sepal_Length Sepal_Width Petal_Length Petal_Width Species
##           <dbl>       <dbl>        <dbl>       <dbl> <chr>  
##  1          5.1         3.5          1.4         0.2 setosa 
##  2          4.9         3            1.4         0.2 setosa 
##  3          4.7         3.2          1.3         0.2 setosa 
##  4          4.6         3.1          1.5         0.2 setosa 
##  5          5           3.6          1.4         0.2 setosa 
##  6          5.4         3.9          1.7         0.4 setosa 
##  7          4.6         3.4          1.4         0.3 setosa 
##  8          5           3.4          1.5         0.2 setosa 
##  9          4.4         2.9          1.4         0.2 setosa 
## 10          4.9         3.1          1.5         0.1 setosa 
## # … with 140 more rows
## # ℹ Use `print(n = ...)` to see more rows
```

```r
write_sas(data = penguins, path = here("static", "data", "penguins.sas7bdat"))

# SPSS
read_sav(file = system.file("examples", "iris.sav", package = "haven"))
```

```
## # A tibble: 150 × 5
##    Sepal.Length Sepal.Width Petal.Length Petal.Width    Species
##           <dbl>       <dbl>        <dbl>       <dbl>  <dbl+lbl>
##  1          5.1         3.5          1.4         0.2 1 [setosa]
##  2          4.9         3            1.4         0.2 1 [setosa]
##  3          4.7         3.2          1.3         0.2 1 [setosa]
##  4          4.6         3.1          1.5         0.2 1 [setosa]
##  5          5           3.6          1.4         0.2 1 [setosa]
##  6          5.4         3.9          1.7         0.4 1 [setosa]
##  7          4.6         3.4          1.4         0.3 1 [setosa]
##  8          5           3.4          1.5         0.2 1 [setosa]
##  9          4.4         2.9          1.4         0.2 1 [setosa]
## 10          4.9         3.1          1.5         0.1 1 [setosa]
## # … with 140 more rows
## # ℹ Use `print(n = ...)` to see more rows
```

```r
write_sav(data = penguins, path = here("static", "data", "penguins.sav"))

# Stata
read_dta(file = system.file("examples", "iris.dta", package = "haven"))
```

```
## # A tibble: 150 × 5
##    sepallength sepalwidth petallength petalwidth species
##          <dbl>      <dbl>       <dbl>      <dbl> <chr>  
##  1        5.10       3.5         1.40      0.200 setosa 
##  2        4.90       3           1.40      0.200 setosa 
##  3        4.70       3.20        1.30      0.200 setosa 
##  4        4.60       3.10        1.5       0.200 setosa 
##  5        5          3.60        1.40      0.200 setosa 
##  6        5.40       3.90        1.70      0.400 setosa 
##  7        4.60       3.40        1.40      0.300 setosa 
##  8        5          3.40        1.5       0.200 setosa 
##  9        4.40       2.90        1.40      0.200 setosa 
## 10        4.90       3.10        1.5       0.100 setosa 
## # … with 140 more rows
## # ℹ Use `print(n = ...)` to see more rows
```
…
