…
This time the elements of `repo` are a list of repositories that belong to that user. These are observations, so should become new rows, so we use `unnest_longer()` rather than `unnest_wider()`:


```r
repos <- repos %>%
  unnest_longer(repo)
repos
```

```
## # A tibble: 176 × 1
##    repo             
##    <list>           
##  1 <named list [68]>
##  2 <named list [68]>
##  3 <named list [68]>
##  4 <named list [68]>
##  5 <named list [68]>
##  6 <named list [68]>
##  7 <named list [68]>
##  8 <named list [68]>
##  9 <named list [68]>
## 10 <named list [68]>
## # … with 166 more rows
## # ℹ Use `print(n = ...)` to see more rows
```
Then we can use `unnest_wider()` or `hoist()`:


```r
repos %>%
  hoist(repo,
    login = c("owner", "login"),
    name = "name",
    homepage = "homepage",
    watchers = "watchers_count"
  )
```

```
## # A tibble: 176 × 5
##    login       name        homepage watchers repo             
##    <chr>       <chr>       <chr>       <int> <list>           
##  1 gaborcsardi after       <NA>            5 <named list [65]>
##  2 gaborcsardi argufy      <NA>           19 <named list [65]>
##  3 gaborcsardi ask         <NA>            5 <named list [65]>
##  4 gaborcsardi baseimports <NA>            0 <named list [65]>
##  5 gaborcsardi citest      <NA>            0 <named list [65]>
##  6 gaborcsardi clisymbols  ""             18 <named list [65]>
##  7 gaborcsardi cmaker      <NA>            0 <named list [65]>
##  8 gaborcsardi cmark       <NA>            0 <named list [65]>
##  9 gaborcsardi conditions  <NA>            0 <named list [65]>
## 10 gaborcsardi crayon      <NA>           52 <named list [65]>
## # … with 166 more rows
## # ℹ Use `print(n = ...)` to see more rows
```

Note the use of `c("owner", "login")`: this allows us to reach two levels deep inside of a list. An alternative approach would be to pull out just `owner` and then put each element of it in a column:


```r
repos %>%
  hoist(repo, owner = "owner") %>%
  unnest_wider(owner)
```

```
## # A tibble: 176 × 18
##    login        id avata…¹ grava…² url   html_…³ follo…⁴ follo…⁵ gists…⁶ starr…⁷
##    <chr>     <int> <chr>   <chr>   <chr> <chr>   <chr>   <chr>   <chr>   <chr>  
##  1 gaborcs… 660288 https:… ""      http… https:… https:… https:… https:… https:…
##  2 gaborcs… 660288 https:… ""      http… https:… https:… https:… https:… https:…
##  3 gaborcs… 660288 https:… ""      http… https:… https:… https:… https:… https:…
##  4 gaborcs… 660288 https:… ""      http… https:… https:… https:… https:… https:…
##  5 gaborcs… 660288 https:… ""      http… https:… https:… https:… https:… https:…
##  6 gaborcs… 660288 https:… ""      http… https:… https:… https:… https:… https:…
##  7 gaborcs… 660288 https:… ""      http… https:… https:… https:… https:… https:…
##  8 gaborcs… 660288 https:… ""      http… https:… https:… https:… https:… https:…
##  9 gaborcs… 660288 https:… ""      http… https:… https:… https:… https:… https:…
## 10 gaborcs… 660288 https:… ""      http… https:… https:… https:… https:… https:…
## # … with 166 more rows, 8 more variables: subscriptions_url <chr>,
## #   organizations_url <chr>, repos_url <chr>, events_url <chr>,
## #   received_events_url <chr>, type <chr>, site_admin <lgl>, repo <list>, and
## #   abbreviated variable names ¹​avatar_url, ²​gravatar_id, ³​html_url,
## #   ⁴​followers_url, ⁵​following_url, ⁶​gists_url, ⁷​starred_url
## # ℹ Use `print(n = ...)` to see more rows, and `colnames()` to see all variable names
```
…
```
## Using `unnest_longer(repo, indices_include = FALSE)`; no element has names
```

```
## Using `unnest_wider(repo)`; elements have 68 names in common
```

```
## # A tibble: 176 × 68
##        id name  full_…¹ owner        private html_…² descr…³ fork  url   forks…⁴
##     <int> <chr> <chr>   <list>       <lgl>   <chr>   <chr>   <lgl> <chr> <chr>  
##  1 6.12e7 after gaborc… <named list> FALSE   https:… Run Co… FALSE http… https:…
##  2 4.05e7 argu… gaborc… <named list> FALSE   https:… Declar… FALSE http… https:…
##  3 3.64e7 ask   gaborc… <named list> FALSE   https:… Friend… FALSE http… https:…
##  4 3.49e7 base… gaborc… <named list> FALSE   https:… Do we … FALSE http… https:…
##  5 6.16e7 cite… gaborc… <named list> FALSE   https:… Test R… TRUE  http… https:…
##  6 3.39e7 clis… gaborc… <named list> FALSE   https:… Unicod… FALSE http… https:…
##  7 3.72e7 cmak… gaborc… <named list> FALSE   https:… port o… TRUE  http… https:…
##  8 6.80e7 cmark gaborc… <named list> FALSE   https:… Common… TRUE  http… https:…
##  9 6.32e7 cond… gaborc… <named list> FALSE   https:… <NA>    TRUE  http… https:…
## 10 2.43e7 cray… gaborc… <named list> FALSE   https:… R pack… FALSE http… https:…
## # … with 166 more rows, 58 more variables: keys_url <chr>,
## #   collaborators_url <chr>, teams_url <chr>, hooks_url <chr>,
## #   issue_events_url <chr>, events_url <chr>, assignees_url <chr>,
## #   branches_url <chr>, tags_url <chr>, blobs_url <chr>, git_tags_url <chr>,
## #   git_refs_url <chr>, trees_url <chr>, statuses_url <chr>,
## #   languages_url <chr>, stargazers_url <chr>, contributors_url <chr>,
## #   subscribers_url <chr>, subscription_url <chr>, commits_url <chr>, …
## # ℹ Use `print(n = ...)` to see more rows, and `colnames()` to see all variable names
```
…
Spoiler alert - if you haven't read the series, you may not want to read too much into each list element. That said, the book series is over 20 years old now and the show *Game of Thrones* is incredibly popular, so you've had plenty of opportunity to learn this information by now.

{{% /callout %}}

Each element corresponds to one character and contains 18 sub-elements which are named atomic vectors of various lengths and types. We start in the same way, first by creating a data frame and then by unnesting each component into a column:


```r
chars <- tibble(char = got_chars)
chars
```

```
## # A tibble: 30 × 1
##    char             
##    <list>           
##  1 <named list [18]>
##  2 <named list [18]>
##  3 <named list [18]>
##  4 <named list [18]>
##  5 <named list [18]>
##  6 <named list [18]>
##  7 <named list [18]>
##  8 <named list [18]>
##  9 <named list [18]>
## 10 <named list [18]>
## # … with 20 more rows
## # ℹ Use `print(n = ...)` to see more rows
```

```r
chars2 <- chars %>%
  unnest_wider(char)
chars2
```

```
## # A tibble: 30 × 18
##    url           id name  gender culture born  died  alive titles aliases father
##    <chr>      <int> <chr> <chr>  <chr>   <chr> <chr> <lgl> <list> <list>  <chr> 
##  1 https://w…  1022 Theo… Male   "Ironb… "In … ""    TRUE  <chr>  <chr>   ""    
##  2 https://w…  1052 Tyri… Male   ""      "In … ""    TRUE  <chr>  <chr>   ""    
##  3 https://w…  1074 Vict… Male   "Ironb… "In … ""    TRUE  <chr>  <chr>   ""    
##  4 https://w…  1109 Will  Male   ""      ""    "In … FALSE <chr>  <chr>   ""    
##  5 https://w…  1166 Areo… Male   "Norvo… "In … ""    TRUE  <chr>  <chr>   ""    
##  6 https://w…  1267 Chett Male   ""      "At … "In … FALSE <chr>  <chr>   ""    
##  7 https://w…  1295 Cres… Male   ""      "In … "In … FALSE <chr>  <chr>   ""    
##  8 https://w…   130 Aria… Female "Dorni… "In … ""    TRUE  <chr>  <chr>   ""    
##  9 https://w…  1303 Daen… Female "Valyr… "In … ""    TRUE  <chr>  <chr>   ""    
## 10 https://w…  1319 Davo… Male   "Weste… "In … ""    TRUE  <chr>  <chr>   ""    
## # … with 20 more rows, and 7 more variables: mother <chr>, spouse <chr>,
## #   allegiances <list>, books <list>, povBooks <list>, tvSeries <list>,
## #   playedBy <list>
## # ℹ Use `print(n = ...)` to see more rows, and `colnames()` to see all variable names
```

This is more complex than `gh_users` because some component of `char` are themselves a list, giving us a collection of list-columns:


```r
chars2 %>%
  select_if(is.list)
```

```
## # A tibble: 30 × 7
##    titles    aliases    allegiances books     povBooks  tvSeries  playedBy 
##    <list>    <list>     <list>      <list>    <list>    <list>    <list>   
##  1 <chr [3]> <chr [4]>  <chr [1]>   <chr [3]> <chr [2]> <chr [6]> <chr [1]>
##  2 <chr [2]> <chr [11]> <chr [1]>   <chr [2]> <chr [4]> <chr [6]> <chr [1]>
##  3 <chr [2]> <chr [1]>  <chr [1]>   <chr [3]> <chr [2]> <chr [1]> <chr [1]>
##  4 <chr [1]> <chr [1]>  <NULL>      <chr [1]> <chr [1]> <chr [1]> <chr [1]>
##  5 <chr [1]> <chr [1]>  <chr [1]>   <chr [3]> <chr [2]> <chr [2]> <chr [1]>
##  6 <chr [1]> <chr [1]>  <NULL>      <chr [2]> <chr [1]> <chr [1]> <chr [1]>
##  7 <chr [1]> <chr [1]>  <NULL>      <chr [2]> <chr [1]> <chr [1]> <chr [1]>
##  8 <chr [1]> <chr [1]>  <chr [1]>   <chr [4]> <chr [1]> <chr [1]> <chr [1]>
##  9 <chr [5]> <chr [11]> <chr [1]>   <chr [1]> <chr [4]> <chr [6]> <chr [1]>
## 10 <chr [4]> <chr [5]>  <chr [2]>   <chr [1]> <chr [3]> <chr [5]> <chr [1]>
## # … with 20 more rows
## # ℹ Use `print(n = ...)` to see more rows
```

What you do next will depend on the purposes of the analysis. Maybe you want a row for every book and TV series that the character appears in:


```r
chars2 %>%
  select(name, books, tvSeries) %>%
  pivot_longer(c(books, tvSeries), names_to = "media", values_to = "value") %>%
  unnest_longer(value)
```

```
## # A tibble: 180 × 3
##    name             media    value            
##    <chr>            <chr>    <chr>            
##  1 Theon Greyjoy    books    A Game of Thrones
##  2 Theon Greyjoy    books    A Storm of Swords
##  3 Theon Greyjoy    books    A Feast for Crows
##  4 Theon Greyjoy    tvSeries Season 1         
##  5 Theon Greyjoy    tvSeries Season 2         
##  6 Theon Greyjoy    tvSeries Season 3         
##  7 Theon Greyjoy    tvSeries Season 4         
##  8 Theon Greyjoy    tvSeries Season 5         
##  9 Theon Greyjoy    tvSeries Season 6         
## 10 Tyrion Lannister books    A Feast for Crows
## # … with 170 more rows
## # ℹ Use `print(n = ...)` to see more rows
```

Or maybe you want to build a table that lets you match title to name:


```r
chars2 %>%
  select(name, title = titles) %>%
  unnest_longer(title)
```

```
## # A tibble: 60 × 2
##    name              title                                                 
##    <chr>             <chr>                                                 
##  1 Theon Greyjoy     "Prince of Winterfell"                                
##  2 Theon Greyjoy     "Captain of Sea Bitch"                                
##  3 Theon Greyjoy     "Lord of the Iron Islands (by law of the green lands)"
##  4 Tyrion Lannister  "Acting Hand of the King (former)"                    
##  5 Tyrion Lannister  "Master of Coin (former)"                             
##  6 Victarion Greyjoy "Lord Captain of the Iron Fleet"                      
##  7 Victarion Greyjoy "Master of the Iron Victory"                          
##  8 Will              ""                                                    
##  9 Areo Hotah        "Captain of the Guard at Sunspear"                    
## 10 Chett             ""                                                    
## # … with 50 more rows
## # ℹ Use `print(n = ...)` to see more rows
```
…
```
## Using `unnest_wider(char)`; elements have 18 names in common
```

```
## Using `unnest_longer(title, indices_include = FALSE)`; no element has names
```

```
## # A tibble: 60 × 2
##    name              title                                                 
##    <chr>             <chr>                                                 
##  1 Theon Greyjoy     "Prince of Winterfell"                                
##  2 Theon Greyjoy     "Captain of Sea Bitch"                                
##  3 Theon Greyjoy     "Lord of the Iron Islands (by law of the green lands)"
##  4 Tyrion Lannister  "Acting Hand of the King (former)"                    
##  5 Tyrion Lannister  "Master of Coin (former)"                             
##  6 Victarion Greyjoy "Lord Captain of the Iron Fleet"                      
##  7 Victarion Greyjoy "Master of the Iron Victory"                          
##  8 Will              ""                                                    
##  9 Areo Hotah        "Captain of the Guard at Sunspear"                    
## 10 Chett             ""                                                    
## # … with 50 more rows
## # ℹ Use `print(n = ...)` to see more rows
```
…
```
## Warning: 3 parsing failures.
## row col expected  actual
##  19  -- a number unknown
##  29  -- a number unknown
##  35  -- a number n/a
```

```r
sw_height
```

```
## # A tibble: 37 × 2
##    height sw_species       
##     <dbl> <list>           
##  1    300 <named list [14]>
##  2     66 <named list [14]>
##  3    200 <named list [14]>
##  4    160 <named list [14]>
##  5    100 <named list [14]>
##  6    180 <named list [14]>
##  7    180 <named list [14]>
##  8    190 <named list [14]>
##  9    120 <named list [14]>
## 10    100 <named list [14]>
## # … with 27 more rows
## # ℹ Use `print(n = ...)` to see more rows
```
…
    {{< spoiler text="Click for the solution" >}}

Each element of `sw_people` contains one character. The `films` element within each character is a character vector containing one value for each film in which the character appeared. This required two separate `unnest_*()` operations to get the data in the proper form.
    

```r
# unnest the data
sw_people_df <- tibble(sw_people) %>%
  unnest_wider(sw_people) %>%
  unnest_longer(films)
sw_people_df
```

```
## # A tibble: 173 × 16
##    name        height mass  hair_…¹ skin_…² eye_c…³ birth…⁴ gender homew…⁵ films
##    <chr>       <chr>  <chr> <chr>   <chr>   <chr>   <chr>   <chr>  <chr>   <chr>
##  1 Luke Skywa… 172    77    blond   fair    blue    19BBY   male   http:/… http…
##  2 Luke Skywa… 172    77    blond   fair    blue    19BBY   male   http:/… http…
##  3 Luke Skywa… 172    77    blond   fair    blue    19BBY   male   http:/… http…
##  4 Luke Skywa… 172    77    blond   fair    blue    19BBY   male   http:/… http…
##  5 Luke Skywa… 172    77    blond   fair    blue    19BBY   male   http:/… http…
##  6 C-3PO       167    75    n/a     gold    yellow  112BBY  n/a    http:/… http…
##  7 C-3PO       167    75    n/a     gold    yellow  112BBY  n/a    http:/… http…
##  8 C-3PO       167    75    n/a     gold    yellow  112BBY  n/a    http:/… http…
##  9 C-3PO       167    75    n/a     gold    yellow  112BBY  n/a    http:/… http…
## 10 C-3PO       167    75    n/a     gold    yellow  112BBY  n/a    http:/… http…
## # … with 163 more rows, 6 more variables: species <chr>, vehicles <list>,
## #   starships <list>, created <chr>, edited <chr>, url <chr>, and abbreviated
## #   variable names ¹​hair_color, ²​skin_color, ³​eye_color, ⁴​birth_year,
## #   ⁵​homeworld
## # ℹ Use `print(n = ...)` to see more rows, and `colnames()` to see all variable names
```
…
