…
There is a large difference in the geographic density of narcotics crimes relative to the other catgories. While burglaries, motor vehicle thefts, and robberies are reasonably prevalent all across the city, the vast majority of narcotics crimes occur in the west and south sides of the city.

## Locations of murders

While `geom_point()` was not appropriate for graphing a large number of observations in a dense geographic location, it does work rather well for less dense areas. Now let's limit our analysis strictly to reported incidents of homicide in 2017.


```r
(homicides <- crimes %>%
  filter(`Primary Type` == "HOMICIDE"))
```

```
## # A tibble: 671 × 22
##        ID Case …¹ Date  Block IUCR  Prima…² Descr…³ Locat…⁴ Arrest Domes…⁵ Beat 
##     <dbl> <chr>   <chr> <chr> <chr> <chr>   <chr>   <chr>   <lgl>  <lgl>   <chr>
##  1 2.31e4 JA1496… 02/1… 001X… 0110  HOMICI… FIRST … ALLEY   TRUE   FALSE   1512 
##  2 2.39e4 JA5309… 11/3… 088X… 0110  HOMICI… FIRST … APARTM… FALSE  FALSE   0424 
##  3 2.34e4 JA3024… 06/1… 047X… 0110  HOMICI… FIRST … STREET  TRUE   FALSE   0931 
##  4 2.34e4 JA3124… 06/1… 006X… 0110  HOMICI… FIRST … STREET  TRUE   FALSE   0631 
##  5 2.37e4 JA4900… 10/2… 048X… 0110  HOMICI… FIRST … APARTM… TRUE   TRUE    1624 
##  6 2.32e4 JA2107… 04/0… 013X… 0110  HOMICI… FIRST … APARTM… TRUE   TRUE    1011 
##  7 2.36e4 JA4619… 10/0… 018X… 0110  HOMICI… FIRST … STREET  TRUE   FALSE   1233 
##  8 2.36e4 JA4619… 10/0… 018X… 0110  HOMICI… FIRST … STREET  TRUE   FALSE   1233 
##  9 1.08e7 JA1383… 02/0… 013X… 0142  HOMICI… RECKLE… STREET  TRUE   FALSE   1022 
## 10 2.35e4 JA3645… 07/2… 047X… 0110  HOMICI… FIRST … ALLEY   TRUE   FALSE   1113 
## # … with 661 more rows, 11 more variables: District <chr>, Ward <dbl>,
## #   `Community Area` <dbl>, `FBI Code` <chr>, `X Coordinate` <dbl>,
## #   `Y Coordinate` <dbl>, Year <dbl>, `Updated On` <chr>, Latitude <dbl>,
## #   Longitude <dbl>, Location <chr>, and abbreviated variable names
## #   ¹​`Case Number`, ²​`Primary Type`, ³​Description, ⁴​`Location Description`,
## #   ⁵​Domestic
## # ℹ Use `print(n = ...)` to see more rows, and `colnames()` to see all variable names
```
…
All the other aesthetic customizations of `geom_point()` work with `ggmap`. So we could expand these neighborhood maps to include all violent crime categories^[Specifcally homicides, criminal sexual assault, and robbery. [Aggravated assault and aggravated robbery are also defined as violent crimes by the Chicago Police Departmant](http://gis.chicagopolice.org/clearmap_crime_sums/crime_types.html), but the coding system for this data set does not distinguish between ordinary and aggravated types of assault and robbery.] and distinguish each type by `color`:


```r
(violent <- crimes %>%
  filter(`Primary Type` %in% c(
    "HOMICIDE",
    "CRIM SEXUAL ASSAULT",
    "ROBBERY"
  )))
```

```
## # A tibble: 14,146 × 22
##        ID Case …¹ Date  Block IUCR  Prima…² Descr…³ Locat…⁴ Arrest Domes…⁵ Beat 
##     <dbl> <chr>   <chr> <chr> <chr> <chr>   <chr>   <chr>   <lgl>  <lgl>   <chr>
##  1 1.12e7 JA5319… 12/0… 022X… 0265  CRIM S… AGGRAV… STREET  TRUE   FALSE   1221 
##  2 1.10e7 JA3223… 06/2… 003X… 031A  ROBBERY ARMED:… SMALL … TRUE   FALSE   0511 
##  3 1.12e7 JA5459… 12/1… 007X… 031A  ROBBERY ARMED:… SIDEWA… TRUE   FALSE   1221 
##  4 1.12e7 JA5467… 12/1… 007X… 031A  ROBBERY ARMED:… STREET  TRUE   FALSE   1221 
##  5 1.12e7 JB1471… 10/0… 092X… 0281  CRIM S… NON-AG… RESIDE… FALSE  FALSE   2222 
##  6 1.12e7 JB1475… 08/2… 001X… 0281  CRIM S… NON-AG… HOTEL/… FALSE  FALSE   0122 
##  7 2.31e4 JA1496… 02/1… 001X… 0110  HOMICI… FIRST … ALLEY   TRUE   FALSE   1512 
##  8 1.10e7 JA3785… 08/0… 038X… 0313  ROBBERY ARMED:… SIDEWA… TRUE   FALSE   1133 
##  9 1.12e7 JA5386… 12/0… 092X… 031A  ROBBERY ARMED:… SIDEWA… TRUE   FALSE   0633 
## 10 1.12e7 JB1496… 12/2… 005X… 0330  ROBBERY AGGRAV… CONVEN… FALSE  FALSE   0123 
## # … with 14,136 more rows, 11 more variables: District <chr>, Ward <dbl>,
## #   `Community Area` <dbl>, `FBI Code` <chr>, `X Coordinate` <dbl>,
## #   `Y Coordinate` <dbl>, Year <dbl>, `Updated On` <chr>, Latitude <dbl>,
## #   Longitude <dbl>, Location <chr>, and abbreviated variable names
## #   ¹​`Case Number`, ²​`Primary Type`, ³​Description, ⁴​`Location Description`,
## #   ⁵​Domestic
## # ℹ Use `print(n = ...)` to see more rows, and `colnames()` to see all variable names
```
…
