Importing data into R
…
Alternative file formats

CSV files, while common, are not the only type of data storage format you will encounter in the wild. Here is a quick primer on other file formats you may encounter and how to import/export them using R. We’ll use the challenge dataset in readr to demonstrate some of these formats.

challenge <- read_csv(
  readr_example("challenge.csv"), 
  col_types = cols(
    x = col_double(),
    y = col_date()
  )
)

challenge

## # A tibble: 2,000 x 2
##        x      y
##    <dbl> <date>
##  1   404     NA
##  2  4172     NA
##  3  3004     NA
##  4   787     NA
##  5    37     NA
##  6  2332     NA
##  7  2489     NA
##  8  1449     NA
##  9  3665     NA
## 10  3863     NA
## # ... with 1,990 more rows

RDS

RDS is a custom binary format used exclusively by R to store data objects.

# write to csv
write_csv(challenge, here("data", "challenge.csv"))

# write to/read from rds
write_rds(challenge, here("data", "challenge.csv"))
read_rds(here("data", "challenge.csv"))

## # A tibble: 2,000 x 2
##        x y         
##    <dbl> <date>    
##  1   404 NA        
##  2  4172 NA        
##  3  3004 NA        
##  4   787 NA        
##  5    37 NA        
##  6  2332 NA        
##  7  2489 NA        
##  8  1449 NA        
##  9  3665 NA        
## 10  3863 NA        
## # … with 1,990 more rows
…
By default, write_rds() does not compress the .rds file; use the compress argument to implement one of several different compression algorithms. read_rds() is noticably faster than read_csv(), and also has the benefit of preserving column types. The downside is that RDS is only implemented by R; it is not used by any other program so if you need to import/export data files into other languages like Python (or open in Excel), RDS is not a good storage format.

feather

The feather package implements a binary file format that is cross-compatible with many different programming languages:

library(feather)

write_feather(challenge, here("data", "challenge.feather"))
read_feather(here("data", "challenge.feather"))

## # A tibble: 2,000 x 2
##        x y         
##    <dbl> <date>    
##  1   404 NA        
##  2  4172 NA        
##  3  3004 NA        
##  4   787 NA        
##  5    37 NA        
##  6  2332 NA        
##  7  2489 NA        
##  8  1449 NA        
##  9  3665 NA        
## 10  3863 NA        
## # … with 1,990 more rows
…
feather is generally faster than RDS and read_csv().1 Furthermore, it has native support for Python, R, and Julia., so if you develop an analytics pipeline that switches between R and Python, you can import/export data files in .feather without any loss of information.

readxl

readxl enables you to read (but not write) Excel files (.xls and xlsx).2

library(readxl)

xlsx_example <- readxl_example("datasets.xlsx")
read_excel(xlsx_example)

## # A tibble: 150 x 5
##    Sepal.Length Sepal.Width Petal.Length Petal.Width Species
##           <dbl>       <dbl>        <dbl>       <dbl>   <chr>
##  1          5.1         3.5          1.4         0.2  setosa
##  2          4.9         3.0          1.4         0.2  setosa
##  3          4.7         3.2          1.3         0.2  setosa
##  4          4.6         3.1          1.5         0.2  setosa
##  5          5.0         3.6          1.4         0.2  setosa
##  6          5.4         3.9          1.7         0.4  setosa
##  7          4.6         3.4          1.4         0.3  setosa
##  8          5.0         3.4          1.5         0.2  setosa
##  9          4.4         2.9          1.4         0.2  setosa
## 10          4.9         3.1          1.5         0.1  setosa
## # ... with 140 more rows

The nice thing about readxl is that you can access multiple sheets from the workbook. List the sheet names with excel_sheets():

excel_sheets(xlsx_example)

## [1] "iris"     "mtcars"   "chickwts" "quakes"

Then specify which worksheet you want by name or number:

read_excel(xlsx_example, sheet = "chickwts")

## # A tibble: 71 x 2
##    weight      feed
##     <dbl>     <chr>
##  1    179 horsebean
##  2    160 horsebean
##  3    136 horsebean
##  4    227 horsebean
##  5    217 horsebean
##  6    168 horsebean
##  7    108 horsebean
##  8    124 horsebean
##  9    143 horsebean
## 10    140 horsebean
## # ... with 61 more rows

read_excel(xlsx_example, sheet = 2)

## # A tibble: 32 x 11
##      mpg   cyl  disp    hp  drat    wt  qsec    vs    am  gear  carb
##    <dbl> <dbl> <dbl> <dbl> <dbl> <dbl> <dbl> <dbl> <dbl> <dbl> <dbl>
##  1  21.0     6 160.0   110  3.90 2.620 16.46     0     1     4     4
##  2  21.0     6 160.0   110  3.90 2.875 17.02     0     1     4     4
##  3  22.8     4 108.0    93  3.85 2.320 18.61     1     1     4     1
##  4  21.4     6 258.0   110  3.08 3.215 19.44     1     0     3     1
##  5  18.7     8 360.0   175  3.15 3.440 17.02     0     0     3     2
##  6  18.1     6 225.0   105  2.76 3.460 20.22     1     0     3     1
##  7  14.3     8 360.0   245  3.21 3.570 15.84     0     0     3     4
##  8  24.4     4 146.7    62  3.69 3.190 20.00     1     0     4     2
##  9  22.8     4 140.8    95  3.92 3.150 22.90     1     0     4     2
## 10  19.2     6 167.6   123  3.92 3.440 18.30     1     0     4     4
## # ... with 22 more rows

haven

haven allows you to read and write data from other statistical packages such as SAS (.sas7bdat + .sas7bcat), SPSS (.sav + .por), and Stata (.dta).

library(haven)

# SAS
read_sas(system.file("examples", "iris.sas7bdat", package = "haven"))

## # A tibble: 150 x 5
##    Sepal_Length Sepal_Width Petal_Length Petal_Width Species
##           <dbl>       <dbl>        <dbl>       <dbl> <chr>  
##  1          5.1         3.5          1.4         0.2 setosa 
##  2          4.9         3            1.4         0.2 setosa 
##  3          4.7         3.2          1.3         0.2 setosa 
##  4          4.6         3.1          1.5         0.2 setosa 
##  5          5           3.6          1.4         0.2 setosa 
##  6          5.4         3.9          1.7         0.4 setosa 
##  7          4.6         3.4          1.4         0.3 setosa 
##  8          5           3.4          1.5         0.2 setosa 
##  9          4.4         2.9          1.4         0.2 setosa 
## 10          4.9         3.1          1.5         0.1 setosa 
## # … with 140 more rows

write_sas(mtcars, here("data", "mtcars.sas7bdat"))

# SPSS
read_sav(system.file("examples", "iris.sav", package = "haven"))

## # A tibble: 150 x 5
##    Sepal.Length Sepal.Width Petal.Length Petal.Width    Species
##           <dbl>       <dbl>        <dbl>       <dbl>  <dbl+lbl>
##  1          5.1         3.5          1.4         0.2 1 [setosa]
##  2          4.9         3            1.4         0.2 1 [setosa]
##  3          4.7         3.2          1.3         0.2 1 [setosa]
##  4          4.6         3.1          1.5         0.2 1 [setosa]
##  5          5           3.6          1.4         0.2 1 [setosa]
##  6          5.4         3.9          1.7         0.4 1 [setosa]
##  7          4.6         3.4          1.4         0.3 1 [setosa]
##  8          5           3.4          1.5         0.2 1 [setosa]
##  9          4.4         2.9          1.4         0.2 1 [setosa]
## 10          4.9         3.1          1.5         0.1 1 [setosa]
## # … with 140 more rows

write_sav(mtcars, here("data", "mtcars.sav"))

# Stata
read_dta(system.file("examples", "iris.dta", package = "haven"))

## # A tibble: 150 x 5
##    sepallength sepalwidth petallength petalwidth species
##          <dbl>      <dbl>       <dbl>      <dbl> <chr>  
##  1        5.10       3.5         1.40      0.200 setosa 
##  2        4.90       3           1.40      0.200 setosa 
##  3        4.70       3.20        1.30      0.200 setosa 
##  4        4.60       3.10        1.5       0.200 setosa 
##  5        5          3.60        1.40      0.200 setosa 
##  6        5.40       3.90        1.70      0.400 setosa 
##  7        4.60       3.40        1.40      0.300 setosa 
##  8        5          3.40        1.5       0.200 setosa 
##  9        4.40       2.90        1.40      0.200 setosa 
## 10        4.90       3.10        1.5       0.100 setosa 
## # … with 140 more rows
…
