Statistical learning: logistic regression
…
Again, the relationship between age and the probability of survival is only weakly curvilinear, but you can already see that the first difference will depend on your initial starting value for age.

Estimating the parameters

Logistic regression is typically estimated using maximum likelihood estimation.

Generating predicted probabilities using add_predictions()

To visualise the predictions from a model, we start by generating an evenly spaced grid of values that covers the region where our data lies. First we use data_grid() from the modelr package to create a cleaned data frame of potential values:

titanic_age <- titanic %>%
  data_grid(Age)
titanic_age

## # A tibble: 88 × 1
##      Age
##    <dbl>
## 1   0.42
## 2   0.67
## 3   0.75
## 4   0.83
## 5   0.92
## 6   1.00
## 7   2.00
## 8   3.00
## 9   4.00
## 10  5.00
## # ... with 78 more rows

Next we use the add_predictions() function to produce the predicted probabilities. This worked very well for linear models; unfortunately it is not perfect for logistic regression because as you I mentioned above, logistic regression directly estimates the log-odds for the outcome. Instead, we want the plain old predicted probability. To do this, we use this custom function to convert from log-odds to predicted probabilties:7

logit2prob <- function(x){
  exp(x) / (1 + exp(x))
}

library(modelr)

titanic_age <- titanic_age %>%
  add_predictions(survive_age) %>%
  mutate(pred = logit2prob(pred))
titanic_age

## # A tibble: 88 × 2
##      Age      pred
##    <dbl>     <dbl>
## 1   0.42 0.4846727
## 2   0.67 0.4839882
## 3   0.75 0.4837691
## 4   0.83 0.4835501
## 5   0.92 0.4833037
## 6   1.00 0.4830847
## 7   2.00 0.4803475
## 8   3.00 0.4776115
## 9   4.00 0.4748768
## 10  5.00 0.4721436
## # ... with 78 more rows
…
The parameters essentially tell us the relationship between each individual predictor and the response, independent of other predictors. So this model tells us the relationship between age and survival, after controlling for the effects of gender. Likewise, it also tells us the relationship between gender and survival, after controlling for the effects of age. To get a better visualization of this, let’s use data_grid() and add_predictions() again:

titanic_age_sex <- titanic %>%
  data_grid(Age, Sex) %>%
  add_predictions(survive_age_woman) %>%
  mutate(pred = logit2prob(pred))
titanic_age_sex

## # A tibble: 176 × 3
##      Age    Sex      pred
##    <dbl>  <chr>     <dbl>
## 1   0.42 female 0.7815965
## 2   0.42   male 0.2330934
## 3   0.67 female 0.7813649
## 4   0.67   male 0.2328510
## 5   0.75 female 0.7812907
## 6   0.75   male 0.2327735
## 7   0.83 female 0.7812165
## 8   0.83   male 0.2326960
## 9   0.92 female 0.7811330
## 10  0.92   male 0.2326088
## # ... with 166 more rows
…
which reduces to

\[p(\text{Survival}_{male}) = \frac{e^{\beta_0 + \beta_{1}\text{Age} + \beta_{3} \times \text{Age}}}{1 + e^{\beta_0 + \beta_{1}\text{Age} + \beta_{3} \times \text{Age}}}\]

\[p(\text{Survival}_{male}) = \frac{e^{\beta_0 + (\beta_{1} + \beta_{3})\text{Age}}}{1 + e^{\beta_0 + (\beta_{1} + \beta_{3})\text{Age}}}\]

Let’s plot the interactive effects of age and gender by estimating the log-odds and predicted probability of survival.

titanic_age_sex_x <- titanic %>%
  data_grid(Age, Sex) %>%
  add_predictions(survive_age_woman_x) %>%
  mutate(prob = logit2prob(pred))
titanic_age_sex_x

## # A tibble: 176 × 4
##      Age    Sex       pred      prob
##    <dbl>  <chr>      <dbl>     <dbl>
## 1   0.42 female  0.6020758 0.6461311
## 2   0.42   male -0.7329451 0.3245488
## 3   0.67 female  0.6070013 0.6472564
## 4   0.67   male -0.7382992 0.3233762
## 5   0.75 female  0.6085774 0.6476162
## 6   0.75   male -0.7400125 0.3230014
## 7   0.83 female  0.6101536 0.6479758
## 8   0.83   male -0.7417258 0.3226269
## 9   0.92 female  0.6119268 0.6483802
## 10  0.92   male -0.7436533 0.3222058
## # ... with 166 more rows
…
\[p(X) = \frac{1}{1 + e^{-(\beta_0 + \beta_{1}X)}}\]↩

The threshold can be adjusted depending on how conservative or risky of a prediction you wish to make.↩

Given recent history, this will probably occur.↩

Alternatively, we can use broom::augment() to add predicted probabilities for the original dataset:

library(broom)

augment(survive_age, newdata = titanic, type.predict = "response") %>%
  as_tibble()

## # A tibble: 714 x 14
##    PassengerId Survived Pclass
##          <int>    <int>  <int>
##  1           1        0      3
##  2           2        1      1
##  3           3        1      3
##  4           4        1      1
##  5           5        0      3
##  6           7        0      1
##  7           8        0      3
##  8           9        1      3
##  9          10        1      2
## 10          11        1      3
## # ... with 704 more rows, and 11 more variables: Name <chr>, Sex <chr>,
## #   Age <dbl>, SibSp <int>, Parch <int>, Ticket <chr>, Fare <dbl>,
## #   Cabin <chr>, Embarked <chr>, .fitted <dbl>, .se.fit <dbl>
…
