Getting data from the web: API access
…
Lincoln Park Zoo

The data already look to be organized in a data frame! rebird allows us to read these data directly into R.

The ID code for Lincoln Park Zoo is L1573785

ebirdhotspot(locID = "L1573785") %>%
  as_tibble()

## # A tibble: 24 x 11
##          lng                   locName howMany               sciName
##        <dbl>                     <chr>   <int>                 <chr>
##  1 -87.63272 Lincoln Park Zoo, Chicago       2 Nycticorax nycticorax
##  2 -87.63272 Lincoln Park Zoo, Chicago      15    Larus delawarensis
##  3 -87.63272 Lincoln Park Zoo, Chicago      15       Hirundo rustica
##  4 -87.63272 Lincoln Park Zoo, Chicago       2  Poecile atricapillus
##  5 -87.63272 Lincoln Park Zoo, Chicago       1    Sitta carolinensis
##  6 -87.63272 Lincoln Park Zoo, Chicago      15      Sturnus vulgaris
##  7 -87.63272 Lincoln Park Zoo, Chicago      13   Agelaius phoeniceus
##  8 -87.63272 Lincoln Park Zoo, Chicago       8    Quiscalus quiscula
##  9 -87.63272 Lincoln Park Zoo, Chicago       3        Spinus tristis
## 10 -87.63272 Lincoln Park Zoo, Chicago      35     Passer domesticus
## # ... with 14 more rows, and 7 more variables: obsValid <lgl>,
## #   locationPrivate <lgl>, obsDt <chr>, obsReviewed <lgl>, comName <chr>,
## #   lat <dbl>, locID <chr>
…
Accessing data from the Manifesto Project API requires an authentication key. You can create an account and key here. Here I store my key in .Rprofile and retrieve it using mp_setapikey().

library(manifestoR)

# retrieve API key stored in .Rprofile
mp_setapikey(key = getOption("manifesto_key"))

Retrieve the database

(mpds <- mp_maindataset())

## Connecting to Manifesto Project DB API... 
## Connecting to Manifesto Project DB API... corpus version: 2016-6

## # A tibble: 4,121 x 173
##    country countryname oecdmember eumember      edate   date party
##      <dbl>       <chr>      <dbl>    <dbl>     <date>  <dbl> <dbl>
##  1      11      Sweden          0        0 1944-09-17 194409 11220
##  2      11      Sweden          0        0 1944-09-17 194409 11320
##  3      11      Sweden          0        0 1944-09-17 194409 11420
##  4      11      Sweden          0        0 1944-09-17 194409 11620
##  5      11      Sweden          0        0 1944-09-17 194409 11810
##  6      11      Sweden          0        0 1948-09-19 194809 11220
##  7      11      Sweden          0        0 1948-09-19 194809 11320
##  8      11      Sweden          0        0 1948-09-19 194809 11420
##  9      11      Sweden          0        0 1948-09-19 194809 11620
## 10      11      Sweden          0        0 1948-09-19 194809 11810
## # ... with 4,111 more rows, and 166 more variables: partyname <chr>,
## #   partyabbrev <chr>, parfam <dbl>, coderid <dbl>, manual <dbl>,
## #   coderyear <dbl>, testresult <dbl>, testeditsim <dbl>, pervote <dbl>,
## #   voteest <dbl>, presvote <dbl>, absseat <dbl>, totseats <dbl>,
## #   progtype <dbl>, datasetorigin <dbl>, corpusversion <chr>, total <dbl>,
## #   peruncod <dbl>, per101 <dbl>, per102 <dbl>, per103 <dbl>,
## #   per104 <dbl>, per105 <dbl>, per106 <dbl>, per107 <dbl>, per108 <dbl>,
## #   per109 <dbl>, per110 <dbl>, per201 <dbl>, per202 <dbl>, per203 <dbl>,
## #   per204 <dbl>, per301 <dbl>, per302 <dbl>, per303 <dbl>, per304 <dbl>,
…
library(tidycensus)

census_api_key("YOUR API KEY GOES HERE")

Obtaining data

get_decennial() allows you to obtain data from the 1990, 2000, and 2010 decennial US censuses. Let’s look at the number of individuals of Chinese ethnicity by state in 2010:

china10 <- get_decennial(geography = "state", variables = "PCT0060007", year = 2010)

## Getting data from the 2010 decennial Census

china10

## # A tibble: 52 x 4
##    GEOID NAME                 variable     value
##    <chr> <chr>                <chr>        <dbl>
##  1 01    Alabama              PCT0060007    9287
##  2 02    Alaska               PCT0060007    2268
##  3 04    Arizona              PCT0060007   32827
##  4 05    Arkansas             PCT0060007    5101
##  5 06    California           PCT0060007 1241572
##  6 08    Colorado             PCT0060007   25589
##  7 09    Connecticut          PCT0060007   31514
##  8 10    Delaware             PCT0060007    6103
##  9 11    District of Columbia PCT0060007    5166
## 10 12    Florida              PCT0060007   72375
## # ... with 42 more rows
…
Of course this graph is not entirely useful since it is based on the raw frequency of Chinese individuals. California is at the top of the list, but it is also the most populous city. Instead, we could normalize this value as a percentage of the entire state population. To do that, we need to retrieve another variable:

china_pop <- get_decennial(geography = "state",
                           variables = c("PCT0060007", "P0010001"),
                           year = 2010) %>%
  spread(variable, value) %>%
  mutate(pct_chinese = PCT0060007 / P0010001)

## Getting data from the 2010 decennial Census

china_pop

## # A tibble: 52 x 5
##    GEOID NAME                 P0010001 PCT0060007 pct_chinese
##    <chr> <chr>                   <dbl>      <dbl>       <dbl>
##  1 01    Alabama               4779736       9287     0.00194
##  2 02    Alaska                 710231       2268     0.00319
##  3 04    Arizona               6392017      32827     0.00514
##  4 05    Arkansas              2915918       5101     0.00175
##  5 06    California           37253956    1241572     0.0333 
##  6 08    Colorado              5029196      25589     0.00509
##  7 09    Connecticut           3574097      31514     0.00882
##  8 10    Delaware               897934       6103     0.00680
##  9 11    District of Columbia   601723       5166     0.00859
## 10 12    Florida              18801310      72375     0.00385
## # ... with 42 more rows
…
get_acs() retrieves data from the American Community Survey. This survey is administered to a sample of 3 million households on an annual basis, so the data points are estimates characterized by a margin of error. tidycensus returns both the original estimate and margin of error. Let’s get median household income data from the 2012-2016 ACS for counties in Illinois.

usa_inc <- get_acs(geography = "state", 
                   variables = c(medincome = "B19013_001"), 
                   year = 2016)

## Getting data from the 2012-2016 5-year ACS

usa_inc

## # A tibble: 52 x 5
##    GEOID NAME                 variable  estimate   moe
##    <chr> <chr>                <chr>        <dbl> <dbl>
##  1 01    Alabama              medincome    44758   314
##  2 02    Alaska               medincome    74444   809
##  3 04    Arizona              medincome    51340   231
##  4 05    Arkansas             medincome    42336   234
##  5 06    California           medincome    63783   188
##  6 08    Colorado             medincome    62520   287
##  7 09    Connecticut          medincome    71755   473
##  8 10    Delaware             medincome    61017   723
##  9 11    District of Columbia medincome    72935  1164
## 10 12    Florida              medincome    48900   200
## # ... with 42 more rows
…
