Getting data from the web: writing API queries
…
This script requires you to create your own API key for the Microsoft Emotion API and would take about an hour to process the video and retrieve the results. Instead, you can just use the prepped data frame stored in the rcfss package.

# already ran the API and stored the data frame in the rcfss package
data("emotion", package = "rcfss")
emotion

## # A tibble: 128,688 x 11
##    start duration interval      id        x        y    width   height
##    <int>    <int>    <int>   <chr>    <dbl>    <dbl>    <dbl>    <dbl>
##  1     0    60060     1001   Trump 0.185417 0.218519 0.153125 0.272222
##  2     0    60060     1001 Clinton 0.717708 0.296296 0.138542 0.246296
##  3     0    60060     1001   Trump 0.184375 0.216667 0.155208 0.275926
##  4     0    60060     1001 Clinton 0.714583 0.283333 0.139583 0.248148
##  5     0    60060     1001   Trump 0.184375 0.216667 0.155208 0.275926
##  6     0    60060     1001 Clinton 0.712500 0.275926 0.139583 0.248148
##  7     0    60060     1001   Trump 0.184375 0.216667 0.155208 0.275926
##  8     0    60060     1001 Clinton 0.711458 0.274074 0.139583 0.248148
##  9     0    60060     1001   Trump 0.184375 0.216667 0.155208 0.275926
## 10     0    60060     1001 Clinton 0.708333 0.264815 0.141667 0.251852
## # ... with 128,678 more rows, and 3 more variables: row_id <dbl>,
## #   key <chr>, value <dbl>
…
