…
There is a large difference in the geographic density of narcotics crimes relative to the other catgories. While burglaries, motor vehicle thefts, and robberies are reasonably prevalent all across the city, the vast majority of narcotics crimes occur in the west and south sides of the city.

## Locations of murders

While `geom_point()` was not appropriate for graphing a large number of observations in a dense geographic location, it does work rather well for less dense areas. Now let's limit our analysis strictly to reported incidents of homicide in 2017.


```r
(homicides <- crimes %>%
  filter(`Primary Type` == "HOMICIDE"))
```

```
## # A tibble: 671 x 22
##        ID `Case Number` Date  Block IUCR  `Primary Type` Description
##     <dbl> <chr>         <chr> <chr> <chr> <chr>          <chr>      
##  1 2.31e4 JA149608      02/1… 001X… 0110  HOMICIDE       FIRST DEGR…
##  2 2.39e4 JA530946      11/3… 088X… 0110  HOMICIDE       FIRST DEGR…
##  3 2.34e4 JA302423      06/1… 047X… 0110  HOMICIDE       FIRST DEGR…
##  4 2.34e4 JA312425      06/1… 006X… 0110  HOMICIDE       FIRST DEGR…
##  5 2.37e4 JA490016      10/2… 048X… 0110  HOMICIDE       FIRST DEGR…
##  6 2.32e4 JA210752      04/0… 013X… 0110  HOMICIDE       FIRST DEGR…
##  7 2.36e4 JA461918      10/0… 018X… 0110  HOMICIDE       FIRST DEGR…
##  8 2.36e4 JA461918      10/0… 018X… 0110  HOMICIDE       FIRST DEGR…
##  9 1.08e7 JA138326      02/0… 013X… 0142  HOMICIDE       RECKLESS H…
## 10 2.35e4 JA364517      07/2… 047X… 0110  HOMICIDE       FIRST DEGR…
## # … with 661 more rows, and 15 more variables: `Location Description` <chr>,
## #   Arrest <lgl>, Domestic <lgl>, Beat <chr>, District <chr>, Ward <dbl>,
## #   `Community Area` <dbl>, `FBI Code` <chr>, `X Coordinate` <dbl>, `Y
## #   Coordinate` <dbl>, Year <dbl>, `Updated On` <chr>, Latitude <dbl>,
## #   Longitude <dbl>, Location <chr>
```
…
North Lawndale had the most reported homicides in 2017, whereas Kenwood had only a handful. And even though `homicides` contained data for homicides across the entire city, `ggmap()` automatically cropped the graph to keep just the homicides that occurred within the bounding box.

All the other aesthetic customizations of `geom_point()` work with `ggmap`. So we could expand these neighborhood maps to include all violent crime categories^[Specifcally homicides, criminal sexual assault, and robbery. [Aggravated assault and aggravated robbery are also defined as violent crimes by the Chicago Police Departmant](http://gis.chicagopolice.org/clearmap_crime_sums/crime_types.html), but the coding system for this data set does not distinguish between ordinary and aggravated types of assault and robbery.] and distinguish each type by `color`:


```r
(violent <- crimes %>%
  filter(`Primary Type` %in% c("HOMICIDE",
                               "CRIM SEXUAL ASSAULT",
                               "ROBBERY")))
```

```
## # A tibble: 14,146 x 22
##        ID `Case Number` Date  Block IUCR  `Primary Type` Description
##     <dbl> <chr>         <chr> <chr> <chr> <chr>          <chr>      
##  1 1.12e7 JA531910      12/0… 022X… 0265  CRIM SEXUAL A… AGGRAVATED…
##  2 1.10e7 JA322389      06/2… 003X… 031A  ROBBERY        ARMED: HAN…
##  3 1.12e7 JA545986      12/1… 007X… 031A  ROBBERY        ARMED: HAN…
##  4 1.12e7 JA546734      12/1… 007X… 031A  ROBBERY        ARMED: HAN…
##  5 1.12e7 JB147188      10/0… 092X… 0281  CRIM SEXUAL A… NON-AGGRAV…
##  6 1.12e7 JB147599      08/2… 001X… 0281  CRIM SEXUAL A… NON-AGGRAV…
##  7 2.31e4 JA149608      02/1… 001X… 0110  HOMICIDE       FIRST DEGR…
##  8 1.10e7 JA378592      08/0… 038X… 0313  ROBBERY        ARMED: OTH…
##  9 1.12e7 JA538651      12/0… 092X… 031A  ROBBERY        ARMED: HAN…
## 10 1.12e7 JB149656      12/2… 005X… 0330  ROBBERY        AGGRAVATED 
## # … with 14,136 more rows, and 15 more variables: `Location Description` <chr>,
## #   Arrest <lgl>, Domestic <lgl>, Beat <chr>, District <chr>, Ward <dbl>,
## #   `Community Area` <dbl>, `FBI Code` <chr>, `X Coordinate` <dbl>, `Y
## #   Coordinate` <dbl>, Year <dbl>, `Updated On` <chr>, Latitude <dbl>,
## #   Longitude <dbl>, Location <chr>
```
…
