…
```r
crimes <- here("data", "nyc-crimes.csv") %>%
  read_csv()
```


```r
crimes_homicide <- filter(.data = crimes, ofns_desc == "MURDER & NON-NEGL. MANSLAUGHTER")
crimes_homicide
```

```
## # A tibble: 269 × 7
##    cmplnt_num    boro_nm   cmplnt_fr_dt        law_cat…¹ ofns_…² latit…³ longi…⁴
##    <chr>         <chr>     <dttm>              <chr>     <chr>     <dbl>   <dbl>
##  1 240954923H1   BROOKLYN  1977-12-20 05:00:00 FELONY    MURDER…    40.7   -74.0
##  2 245958045H1   BROOKLYN  2001-08-13 04:00:00 FELONY    MURDER…    40.7   -73.9
##  3 8101169H6113  MANHATTAN 2005-03-06 05:00:00 FELONY    MURDER…    40.8   -73.9
##  4 8101169H6113  MANHATTAN 2005-03-06 05:00:00 FELONY    MURDER…    40.8   -73.9
##  5 16631466H8909 BROOKLYN  2006-05-24 04:00:00 FELONY    MURDER…    40.7   -73.9
##  6 246056367H1   QUEENS    2015-05-13 04:00:00 FELONY    MURDER…    40.6   -73.7
##  7 243507594H1   MANHATTAN 2020-06-19 04:00:00 FELONY    MURDER…    40.8   -74.0
##  8 243688124H1   BROOKLYN  2021-01-31 05:00:00 FELONY    MURDER…    40.7   -73.9
##  9 240767513H1   BROOKLYN  2021-02-17 05:00:00 FELONY    MURDER…    40.6   -74.0
## 10 240767512H1   BROOKLYN  2021-05-24 04:00:00 FELONY    MURDER…    40.6   -74.0
## # … with 259 more rows, and abbreviated variable names ¹​law_cat_cd, ²​ofns_desc,
## #   ³​latitude, ⁴​longitude
## # ℹ Use `print(n = ...)` to see more rows
```
…
```r
crimes_homicide_sf <- st_as_sf(x = crimes_homicide, coords = c("longitude", "latitude"))
st_crs(crimes_homicide_sf) <- 4326 # set the coordinate reference system
crimes_homicide_sf
```

```
## Simple feature collection with 269 features and 5 fields
## Geometry type: POINT
## Dimension:     XY
## Bounding box:  xmin: -74.1 ymin: 40.6 xmax: -73.7 ymax: 40.9
## Geodetic CRS:  WGS 84
## # A tibble: 269 × 6
##    cmpln…¹ boro_nm cmplnt_fr_dt        law_c…² ofns_…³     geometry
##  * <chr>   <chr>   <dttm>              <chr>   <chr>    <POINT [°]>
##  1 240954… BROOKL… 1977-12-20 05:00:00 FELONY  MURDER…   (-74 40.7)
##  2 245958… BROOKL… 2001-08-13 04:00:00 FELONY  MURDER… (-73.9 40.7)
##  3 810116… MANHAT… 2005-03-06 05:00:00 FELONY  MURDER… (-73.9 40.8)
##  4 810116… MANHAT… 2005-03-06 05:00:00 FELONY  MURDER… (-73.9 40.8)
##  5 166314… BROOKL… 2006-05-24 04:00:00 FELONY  MURDER… (-73.9 40.7)
##  6 246056… QUEENS  2015-05-13 04:00:00 FELONY  MURDER… (-73.7 40.6)
##  7 243507… MANHAT… 2020-06-19 04:00:00 FELONY  MURDER…   (-74 40.8)
##  8 243688… BROOKL… 2021-01-31 05:00:00 FELONY  MURDER… (-73.9 40.7)
##  9 240767… BROOKL… 2021-02-17 05:00:00 FELONY  MURDER…   (-74 40.6)
## 10 240767… BROOKL… 2021-05-24 04:00:00 FELONY  MURDER…   (-74 40.6)
## # … with 259 more rows, and abbreviated variable names ¹​cmplnt_num,
## #   ²​law_cat_cd, ³​ofns_desc
## # ℹ Use `print(n = ...)` to see more rows
```
…
## Fill (choropleths)

**Choropleth maps** encode information by assigning shades of colors to defined areas on a map (e.g. countries, states, counties, zip codes). There are lots of ways to tweak and customize these graphs, which is generally a good idea because remember that color is one of the harder-to-decode channels.

We will continue to use the `usa_48` simple features data frame and draw a choropleth for the number of foreign-born individuals in each state. We get those files from the `census_bureau` folder. Let's also normalize our measure by the total population to get the rate of foreign-born individuals in the population:


```r
fb_state <- read_csv(file = here("static", "data", "foreign-born.csv"))
fb_state
```

```
## # A tibble: 52 × 6
##    GEOID NAME                    total   native  foreign pct_foreign
##    <chr> <chr>                   <dbl>    <dbl>    <dbl>       <dbl>
##  1 01    Alabama               4876250  4703303   172947      0.0355
##  2 02    Alaska                 737068   679401    57667      0.0782
##  3 04    Arizona               7050299  6109648   940651      0.133 
##  4 05    Arkansas              2999370  2854323   145047      0.0484
##  5 06    California           39283497 28736287 10547210      0.268 
##  6 08    Colorado              5610349  5063836   546513      0.0974
##  7 10    Delaware               957248   865775    91473      0.0956
##  8 11    District of Columbia   692683   597618    95065      0.137 
##  9 09    Connecticut           3575074  3054123   520951      0.146 
## 10 12    Florida              20901636 16576836  4324800      0.207 
## # … with 42 more rows
## # ℹ Use `print(n = ...)` to see more rows
```
…
