…
(congress <- as_tibble(USCongress) %>%
  mutate(text = as.character(text)) %>%
  left_join(major_topics))
```

```
## Joining, by = "major"
```

```
## # A tibble: 4,449 × 7
##       ID  cong billnum h_or_sen major text                        label         
##    <dbl> <dbl>   <dbl> <chr>    <dbl> <chr>                       <chr>         
##  1     1   107    4499 HR          18 To suspend temporarily the… Foreign trade 
##  2     2   107    4500 HR          18 To suspend temporarily the… Foreign trade 
##  3     3   107    4501 HR          18 To suspend temporarily the… Foreign trade 
##  4     4   107    4502 HR          18 To reduce temporarily the … Foreign trade 
##  5     5   107    4503 HR           5 To amend the Immigration a… Labor and emp…
##  6     6   107    4504 HR          21 To amend title 38, United … Public lands …
##  7     7   107    4505 HR          15 To repeal subtitle B of ti… Banking, fina…
##  8     8   107    4506 HR          18 To suspend temporarily the… Foreign trade 
##  9     9   107    4507 HR          18 To suspend temporarily the… Foreign trade 
## 10    10   107    4508 HR          18 To suspend temporarily the… Foreign trade 
## # … with 4,439 more rows
```
…
