…
# combine together
tidy_lyrics <- bind_rows(lyrics_unigrams, lyrics_bigrams)
tidy_lyrics
```

```
## # A tibble: 3,201,465 × 6
##     Rank Song        Artist                         Year Source word         
##    <dbl> <chr>       <chr>                         <dbl>  <dbl> <chr>        
##  1     1 wooly bully sam the sham and the pharaohs  1965      3 sam          
##  2     1 wooly bully sam the sham and the pharaohs  1965      3 the          
##  3     1 wooly bully sam the sham and the pharaohs  1965      3 sham         
##  4     1 wooly bully sam the sham and the pharaohs  1965      3 miscellaneous
##  5     1 wooly bully sam the sham and the pharaohs  1965      3 wooly        
##  6     1 wooly bully sam the sham and the pharaohs  1965      3 bully        
##  7     1 wooly bully sam the sham and the pharaohs  1965      3 wooly        
##  8     1 wooly bully sam the sham and the pharaohs  1965      3 bully        
##  9     1 wooly bully sam the sham and the pharaohs  1965      3 sam          
## 10     1 wooly bully sam the sham and the pharaohs  1965      3 the          
## # … with 3,201,455 more rows
## # ℹ Use `print(n = ...)` to see more rows
```
…
{{< /spoiler >}}

## Find all the state names occurring in the song lyrics

First create a data frame that meets this criteria, then save a new data frame that only includes one observation for each matching song. That is, if the song is ["New York, New York"](https://www.youtube.com/watch?v=btFfXgUdIzY), there should only be one row in the resulting table for that song.

{{< spoiler text="Click for the solution" >}}


```r
inner_join(tidy_lyrics, pop_df, by = c("word" = "state_name"))
```

```
## # A tibble: 526 × 8
##     Rank Song               Artist          Year Source word       GEOID popul…¹
##    <dbl> <chr>              <chr>          <dbl>  <dbl> <chr>      <chr>   <dbl>
##  1    12 king of the road   roger miller    1965      1 maine      23     1.33e6
##  2    29 eve of destruction barry mcguire   1965      1 alabama    01     4.84e6
##  3    49 california girls   the beach boys  1965      3 california 06     3.87e7
##  4    49 california girls   the beach boys  1965      3 california 06     3.87e7
##  5    49 california girls   the beach boys  1965      3 california 06     3.87e7
##  6    49 california girls   the beach boys  1965      3 california 06     3.87e7
##  7    49 california girls   the beach boys  1965      3 california 06     3.87e7
##  8    49 california girls   the beach boys  1965      3 california 06     3.87e7
##  9    49 california girls   the beach boys  1965      3 california 06     3.87e7
## 10    49 california girls   the beach boys  1965      3 california 06     3.87e7
## # … with 516 more rows, and abbreviated variable name ¹​population
## # ℹ Use `print(n = ...)` to see more rows
```

Let's only count each state once per song that it is mentioned in.


```r
tidy_lyrics <- inner_join(tidy_lyrics, pop_df, by = c("word" = "state_name")) %>%
  distinct(Rank, Song, Artist, Year, word, .keep_all = TRUE)
tidy_lyrics
```

```
## # A tibble: 253 × 8
##     Rank Song                          Artist    Year Source word  GEOID popul…¹
##    <dbl> <chr>                         <chr>    <dbl>  <dbl> <chr> <chr>   <dbl>
##  1    12 king of the road              roger m…  1965      1 maine 23     1.33e6
##  2    29 eve of destruction            barry m…  1965      1 alab… 01     4.84e6
##  3    49 california girls              the bea…  1965      3 cali… 06     3.87e7
##  4    10 california dreamin            the mam…  1966      3 cali… 06     3.87e7
##  5    77 message to michael            dionne …  1966      1 kent… 21     4.41e6
##  6    61 california nights             lesley …  1967      1 cali… 06     3.87e7
##  7     4 sittin on the dock of the bay otis re…  1968      1 geor… 13     1.01e7
##  8    10 tighten up                    archie …  1968      3 texas 48     2.70e7
##  9    25 get back                      the bea…  1969      3 ariz… 04     6.73e6
## 10    25 get back                      the bea…  1969      3 cali… 06     3.87e7
## # … with 243 more rows, and abbreviated variable name ¹​population
## # ℹ Use `print(n = ...)` to see more rows
```
{{< /spoiler >}}

## Calculate the frequency for each state's mention in a song and create a new column for the frequency adjusted by the state's population

{{< spoiler text="Click for the solution" >}}


```r
(state_counts <- tidy_lyrics %>%
  count(word) %>%
  arrange(desc(n)))
```

```
## # A tibble: 33 × 2
##    word            n
##    <chr>       <int>
##  1 new york       64
##  2 california     34
##  3 georgia        22
##  4 tennessee      14
##  5 texas          14
##  6 alabama        12
##  7 mississippi    10
##  8 kentucky        7
##  9 hawaii          6
## 10 illinois        6
## # … with 23 more rows
## # ℹ Use `print(n = ...)` to see more rows
```
…
