Visualizations and the Grammar of Graphics
…
---

# Building Minard's map in R

.pull-left[

## `troops`

```
## # A tibble: 51 x 4
##     long   lat survivors direction
##    <dbl> <dbl>     <dbl> <chr>    
##  1  24    54.9    340000 A        
##  2  24.5  55      340000 A        
##  3  25.5  54.5    340000 A        
##  4  26    54.7    320000 A        
##  5  27    54.8    300000 A        
##  6  28    54.9    280000 A        
##  7  28.5  55      240000 A        
##  8  29    55.1    210000 A        
##  9  30    55.2    180000 A        
## 10  30.3  55.3    175000 A        
## # … with 41 more rows
```

]

.pull-right[

## `cities`

```
## # A tibble: 20 x 3
##     long   lat city      
##    <dbl> <dbl> <chr>     
##  1  24    55   Kowno     
##  2  25.3  54.7 Wilna     
##  3  26.4  54.4 Smorgoni  
##  4  26.8  54.3 Moiodexno 
##  5  27.7  55.2 Gloubokoe 
##  6  27.6  53.9 Minsk     
##  7  28.5  54.3 Studienska
##  8  28.7  55.5 Polotzk   
##  9  29.2  54.4 Bobr      
## 10  30.2  55.3 Witebsk   
## # … with 10 more rows
```
…
