Build a better workflow
…
---

<img src="index_files/figure-html/unnamed-chunk-6-1.png" width="80%" style="display: block; margin: auto;" />

---

.pull-left[

## Before recipe

```
## # A tibble: 14 × 2
##    genre         n
##    <chr>     <int>
##  1 Action      334
##  2 Comedy      286
##  3 Drama       236
##  4 Adventure    86
##  5 Animation    82
##  6 Crime        77
##  7 Horror       67
##  8 Biography    58
##  9 Mystery      10
## 10 Fantasy       6
## # … with 4 more rows
## # ℹ Use `print(n = ...)` to see more rows
```
…
]

.right-column[

```
# A tibble: 1,394 × 5
       R `PG-13`    PG     G `NC-17`
   <dbl>   <dbl> <dbl> <dbl>   <dbl>
 1     1       0     0     0       0
 2     1       0     0     0       0
 3     0       1     0     0       0
 4     0       1     0     0       0
 5     1       0     0     0       0
 6     1       0     0     0       0
 7     0       1     0     0       0
 8     0       1     0     0       0
 9     1       0     0     0       0
10     1       0     0     0       0
# … with 1,384 more rows
# ℹ Use `print(n = ...)` to see more rows
```
…
