…
{{% /callout %}}

## Exercise: linear regression with `scorecard`

Recall the `scorecard` data set which contains information on U.S. institutions of higher learning.


```r
scorecard
```

```
## # A tibble: 1,732 × 14
##    unitid name  state type  admrate satavg  cost netcost avgfa…¹ pctpell compr…²
##     <dbl> <chr> <chr> <fct>   <dbl>  <dbl> <dbl>   <dbl>   <dbl>   <dbl>   <dbl>
##  1 100654 Alab… AL    Publ…   0.918    939 23053   14990   69381   0.702   0.297
##  2 100663 Univ… AL    Publ…   0.737   1234 24495   16953   99441   0.351   0.634
##  3 100706 Univ… AL    Publ…   0.826   1319 23917   15860   87192   0.254   0.577
##  4 100724 Alab… AL    Publ…   0.969    946 21866   13650   64989   0.763   0.328
##  5 100751 The … AL    Publ…   0.827   1261 29872   22597   92619   0.177   0.711
##  6 100830 Aubu… AL    Publ…   0.904   1082 19849   13987   71343   0.464   0.340
##  7 100858 Aubu… AL    Publ…   0.807   1300 31590   24104   96642   0.146   0.791
##  8 100937 Birm… AL    Priv…   0.538   1230 32095   22107   56646   0.236   0.691
##  9 101189 Faul… AL    Priv…   0.783   1066 34317   20715   54009   0.488   0.329
## 10 101365 Herz… AL    Priv…   0.783     NA 30119   26680   54684   0.706   0.28 
## # … with 1,722 more rows, 3 more variables: firstgen <dbl>, debt <dbl>,
## #   locale <fct>, and abbreviated variable names ¹​avgfacsal, ²​comprate
## # ℹ Use `print(n = ...)` to see more rows, and `colnames()` to see all variable names
```
…
    {{< /spoiler >}}

## Exercise: logistic regression with `mental_health`

Why do some people vote in elections while others do not? Typical explanations focus on a resource model of participation -- individuals with greater resources, such as time, money, and civic skills, are more likely to participate in politics. An emerging theory assesses an individual's mental health and its effect on political participation.[^ojeda] Depression increases individuals' feelings of hopelessness and political efficacy, so depressed individuals will have less desire to participate in politics. More importantly to our resource model of participation, individuals with depression suffer physical ailments such as a lack of energy, headaches, and muscle soreness which drain an individual's energy and requires time and money to receive treatment. For these reasons, we should expect that individuals with depression are less likely to participate in election than those without symptoms of depression.

Use the `mental_health` data set in `library(rcis)` and logistic regression to predict whether or not an individual voted in the 1996 presidential election.


```r
mental_health
```

```
## # A tibble: 1,317 × 5
##    vote96   age  educ female mhealth
##     <dbl> <dbl> <dbl>  <dbl>   <dbl>
##  1      1    60    12      0       0
##  2      1    36    12      0       1
##  3      0    21    13      0       7
##  4      0    29    13      0       6
##  5      1    39    18      1       2
##  6      1    41    15      1       1
##  7      1    48    20      0       2
##  8      0    20    12      1       9
##  9      0    27    11      1       9
## 10      0    34     7      1       2
## # … with 1,307 more rows
## # ℹ Use `print(n = ...)` to see more rows
```
…
