…
{{% /callout %}}

## Exercise: linear regression with `scorecard`

Recall the `scorecard` data set which contains information on U.S. institutions of higher learning.


```r
scorecard
```

```
## # A tibble: 1,753 x 15
##    unitid name  state type  admrate satavg  cost netcost avgfacsal pctpell
##     <int> <chr> <chr> <fct>   <dbl>  <dbl> <int>   <dbl>     <dbl>   <dbl>
##  1 420325 Yesh… NY    Priv…  0.531      NA 14874    4018     26253   0.958
##  2 430485 The … NE    Priv…  0.667      NA 41627   39020     54000   0.529
##  3 100654 Alab… AL    Publ…  0.899     957 22489   14444     63909   0.707
##  4 102234 Spri… AL    Priv…  0.658    1130 51969   19718     60048   0.342
##  5 100724 Alab… AL    Publ…  0.977     972 21476   13043     69786   0.745
##  6 106467 Arka… AR    Publ…  0.902      NA 18627   12362     61497   0.396
##  7 106704 Univ… AR    Publ…  0.911    1186 21350   14723     63360   0.430
##  8 109651 Art … CA    Priv…  0.676      NA 64097   43010     69984   0.307
##  9 110404 Cali… CA    Priv…  0.0662   1566 68901   23820    179937   0.142
## 10 112394 Cogs… CA    Priv…  0.579      NA 35351   31537     66636   0.461
## # … with 1,743 more rows, and 5 more variables: comprate <dbl>, firstgen <dbl>,
## #   debt <dbl>, locale <fct>, openadmp <fct>
```
…
Use the `mental_health` data set in `library(rcfss)` and logistic regression to predict whether or not an individual voted in the 1996 presidential election.


```r
mental_health
```

```
## # A tibble: 1,317 x 5
##    vote96   age  educ female mhealth
##     <dbl> <dbl> <dbl>  <dbl>   <dbl>
##  1      1    60    12      0       0
##  2      1    36    12      0       1
##  3      0    21    13      0       7
##  4      0    29    13      0       6
##  5      1    39    18      1       2
##  6      1    41    15      1       1
##  7      1    48    20      0       2
##  8      0    20    12      1       9
##  9      0    27    11      1       9
## 10      0    34     7      1       2
## # … with 1,307 more rows
```
…
