Geospatial visualization: vector maps
…
<img src="index_files/figure-html/albersusa-1.png" width="80%" style="display: block; margin: auto;" />

---

# Points

```r
library(nycflights13)
airports
```

```
## # A tibble: 1,458 × 8
##    faa   name                             lat    lon   alt    tz dst   tzone    
##    <chr> <chr>                          <dbl>  <dbl> <dbl> <dbl> <chr> <chr>    
##  1 04G   Lansdowne Airport               41.1  -80.6  1044    -5 A     America/…
##  2 06A   Moton Field Municipal Airport   32.5  -85.7   264    -6 A     America/…
##  3 06C   Schaumburg Regional             42.0  -88.1   801    -6 A     America/…
##  4 06N   Randall Airport                 41.4  -74.4   523    -5 A     America/…
##  5 09J   Jekyll Island Airport           31.1  -81.4    11    -5 A     America/…
##  6 0A9   Elizabethton Municipal Airport  36.4  -82.2  1593    -5 A     America/…
##  7 0G6   Williams County Airport         41.5  -84.5   730    -5 A     America/…
##  8 0G7   Finger Lakes Regional Airport   42.9  -76.8   492    -5 A     America/…
##  9 0P2   Shoestring Aviation Airfield    39.8  -76.6  1000    -5 U     America/…
## 10 0S9   Jefferson County Intl           48.1 -123.    108    -8 A     America/…
## # … with 1,448 more rows
## # ℹ Use `print(n = ...)` to see more rows
```
…
# Converting to `sf` data frame

```r
airports_sf <- st_as_sf(airports, coords = c("lon", "lat"))
st_crs(airports_sf) <- 4326 # set the coordinate reference system
airports_sf
```

```
## Simple feature collection with 1458 features and 6 fields
## Geometry type: POINT
## Dimension:     XY
## Bounding box:  xmin: -176.646 ymin: 19.72137 xmax: 174.1136 ymax: 72.27083
## Geodetic CRS:  WGS 84
## # A tibble: 1,458 × 7
##    faa   name                    alt    tz dst   tzone             geometry
##  * <chr> <chr>                 <dbl> <dbl> <chr> <chr>          <POINT [°]>
##  1 04G   Lansdowne Airport      1044    -5 A     Amer… (-80.61958 41.13047)
##  2 06A   Moton Field Municipa…   264    -6 A     Amer… (-85.68003 32.46057)
##  3 06C   Schaumburg Regional     801    -6 A     Amer… (-88.10124 41.98934)
##  4 06N   Randall Airport         523    -5 A     Amer… (-74.39156 41.43191)
##  5 09J   Jekyll Island Airport    11    -5 A     Amer… (-81.42778 31.07447)
##  6 0A9   Elizabethton Municip…  1593    -5 A     Amer… (-82.17342 36.37122)
##  7 0G6   Williams County Airp…   730    -5 A     Amer… (-84.50678 41.46731)
##  8 0G7   Finger Lakes Regiona…   492    -5 A     Amer… (-76.78123 42.88356)
##  9 0P2   Shoestring Aviation …  1000    -5 U     Amer… (-76.64719 39.79482)
## 10 0S9   Jefferson County Intl   108    -8 A     Amer… (-122.8106 48.05381)
## # … with 1,448 more rows
## # ℹ Use `print(n = ...)` to see more rows
```
…
---

# Fill (choropleths)

```r
(fb_state <- here(
  "static", "data", "census_bureau",
  "ACS_13_5YR_B05012_state", "ACS_13_5YR_B05012.csv"
) %>%
  read_csv() %>%
  mutate(rate = HD01_VD03 / HD01_VD01))
```

```
## # A tibble: 51 × 10
##    GEO.id GEO.id2 GEO.d…¹ HD01_…² HD02_…³ HD01_…⁴ HD02_…⁵ HD01_…⁶ HD02_…⁷   rate
##    <chr>  <chr>   <chr>     <dbl> <lgl>     <dbl>   <dbl>   <dbl>   <dbl>  <dbl>
##  1 04000… 01      Alabama  4.80e6 NA       4.63e6    2881  1.68e5    2881 0.0351
##  2 04000… 02      Alaska   7.20e5 NA       6.70e5    1262  5.04e4    1262 0.0699
##  3 04000… 04      Arizona  6.48e6 NA       5.61e6    7725  8.70e5    7725 0.134 
##  4 04000… 05      Arkans…  2.93e6 NA       2.80e6    2568  1.33e5    2568 0.0455
##  5 04000… 06      Califo…  3.77e7 NA       2.75e7   30666  1.02e7   30666 0.270 
##  6 04000… 08      Colora…  5.12e6 NA       4.62e6    5778  4.96e5    5779 0.0968
##  7 04000… 09      Connec…  3.58e6 NA       3.10e6    5553  4.87e5    5553 0.136 
##  8 04000… 10      Delawa…  9.08e5 NA       8.32e5    2039  7.68e4    2039 0.0845
##  9 04000… 11      Distri…  6.19e5 NA       5.34e5    2017  8.52e4    2017 0.138 
## 10 04000… 12      Florida  1.91e7 NA       1.54e7   16848  3.70e6   16848 0.194 
## # … with 41 more rows, and abbreviated variable names ¹​`GEO.display-label`,
## #   ²​HD01_VD01, ³​HD02_VD01, ⁴​HD01_VD02, ⁵​HD02_VD02, ⁶​HD01_VD03, ⁷​HD02_VD03
## # ℹ Use `print(n = ...)` to see more rows
```
…
