…
Along with the lyrics, we also know the singer (`speaker`) of each line of dialogue. This will be helpful if we want to perform analysis on a subset of singers.

## Convert to tidytext format

Currently, `hamilton` is stored as one-row-per-line of lyrics. The definition of a single "line" is somewhat arbitrary. For substantial analysis, we will convert the corpus to a tidy-text data frame of one-row-per-token. Initially, we will use `unnest_tokens()` to tokenize all unigrams.


```r
hamilton_tidy <- hamilton %>%
  unnest_tokens(output = word, input = line)
hamilton_tidy
```

```
## # A tibble: 21,142 × 5
##    song_number song_name          line_num speaker    word   
##          <dbl> <fct>                 <dbl> <chr>      <chr>  
##  1           1 Alexander Hamilton        1 Aaron Burr how    
##  2           1 Alexander Hamilton        1 Aaron Burr does   
##  3           1 Alexander Hamilton        1 Aaron Burr a      
##  4           1 Alexander Hamilton        1 Aaron Burr bastard
##  5           1 Alexander Hamilton        1 Aaron Burr orphan 
##  6           1 Alexander Hamilton        1 Aaron Burr son    
##  7           1 Alexander Hamilton        1 Aaron Burr of     
##  8           1 Alexander Hamilton        1 Aaron Burr a      
##  9           1 Alexander Hamilton        1 Aaron Burr whore  
## 10           1 Alexander Hamilton        1 Aaron Burr and    
## # … with 21,132 more rows
## # ℹ Use `print(n = ...)` to see more rows
```
…
As a function of number of words, Non-Stop is the longest song in the musical.

## Stop words

Of course not all words are equally important. Consider the 10 most frequent words in the lyrics:


```r
hamilton_tidy %>%
  count(word) %>%
  arrange(desc(n))
```

```
## # A tibble: 2,929 × 2
##    word      n
##    <chr> <int>
##  1 the     848
##  2 i       639
##  3 you     578
##  4 to      544
##  5 a       471
##  6 and     383
##  7 in      317
##  8 it      294
##  9 of      274
## 10 my      259
## # … with 2,919 more rows
## # ℹ Use `print(n = ...)` to see more rows
```
…
## Sentiment analysis

**Sentiment analysis** utilizes the text of the lyrics to classify content as positive or negative. Dictionary-based methods use pre-generated lexicons of words independently coded as positive/negative. We can combine one of these dictionaries with the Hamilton tidy-text data frame using `inner_join()` to identify words with sentimental affect, and further analyze trends.

Here we use the `afinn` dictionary which classifies 2,477 words on a scale of $[-5, +5]$.


```r
# afinn dictionary
get_sentiments(lexicon = "afinn")
```

```
## # A tibble: 2,477 × 2
##    word       value
##    <chr>      <dbl>
##  1 abandon       -2
##  2 abandoned     -2
##  3 abandons      -2
##  4 abducted      -2
##  5 abduction     -2
##  6 abductions    -2
##  7 abhor         -3
##  8 abhorred      -3
##  9 abhorrent     -3
## 10 abhors        -3
## # … with 2,467 more rows
## # ℹ Use `print(n = ...)` to see more rows
```
…
```
## Joining, by = "word"
```

```r
hamilton_afinn
```

```
## # A tibble: 1,159 × 8
##    song_number song_name          line_num speaker     word  value cum_s…¹    id
##          <dbl> <fct>                 <dbl> <chr>       <chr> <dbl>   <dbl> <int>
##  1           1 Alexander Hamilton        1 Aaron Burr  bast…    -5      -5     1
##  2           1 Alexander Hamilton        1 Aaron Burr  whore    -4      -9     2
##  3           1 Alexander Hamilton        2 Aaron Burr  forg…    -1     -10     3
##  4           1 Alexander Hamilton        4 Aaron Burr  hero      2      -8     4
##  5           1 Alexander Hamilton        7 John Laure… smar…     2      -6     5
##  6           1 Alexander Hamilton       11 Thomas Jef… stru…    -2      -8     6
##  7           1 Alexander Hamilton       12 Thomas Jef… long…    -1      -9     7
##  8           1 Alexander Hamilton       13 Thomas Jef… steal    -2     -11     8
##  9           1 Alexander Hamilton       17 James Madi… pain     -2     -13     9
## 10           1 Alexander Hamilton       18 Burr        insa…    -2     -15    10
## # … with 1,149 more rows, and abbreviated variable name ¹​cum_sent
## # ℹ Use `print(n = ...)` to see more rows
```
…
