Pipes and functions in R
…
Conditional execution and cut()

diamonds %>%
  select(carat) %>%
  mutate(carat_autobin = cut(carat, breaks = 5),
         carat_manbin = cut(carat,
                            breaks = c(0, 1, 2, 3, 6),
                            labels = c("Small", "Medium",
                                       "Large", "Huge")))

## # A tibble: 53,940 x 3
##    carat carat_autobin carat_manbin
##    <dbl>        <fctr>       <fctr>
##  1  0.23  (0.195,1.16]        Small
##  2  0.21  (0.195,1.16]        Small
##  3  0.23  (0.195,1.16]        Small
##  4  0.29  (0.195,1.16]        Small
##  5  0.31  (0.195,1.16]        Small
##  6  0.24  (0.195,1.16]        Small
##  7  0.24  (0.195,1.16]        Small
##  8  0.26  (0.195,1.16]        Small
##  9  0.22  (0.195,1.16]        Small
## 10  0.23  (0.195,1.16]        Small
## # ... with 53,930 more rows

if() versus if_else()

library(rcfss)
data("gun_deaths")

(educ <- select(gun_deaths, education))

## # A tibble: 100,798 x 1
##       education
##          <fctr>
##  1          BA+
##  2 Some college
##  3          BA+
##  4          BA+
##  5       HS/GED
##  6 Less than HS
##  7       HS/GED
##  8       HS/GED
##  9 Some college
## 10         <NA>
## # ... with 100,788 more rows

if() versus if_else()

(educ_if <- educ %>%
  mutate(hsPlus = if(education == "Less than HS"){
    "Less than HS"
  } else{
    "HS+"
  }))
## # A tibble: 100,798 x 2
##       education hsPlus
##          <fctr>  <chr>
##  1          BA+    HS+
##  2 Some college    HS+
##  3          BA+    HS+
##  4          BA+    HS+
##  5       HS/GED    HS+
##  6 Less than HS    HS+
##  7       HS/GED    HS+
##  8       HS/GED    HS+
##  9 Some college    HS+
## 10         <NA>    HS+
## # ... with 100,788 more rows

count(educ_if, hsPlus)
## # A tibble: 1 x 2
##   hsPlus      n
##    <chr>  <int>
## 1    HS+ 100798

if() versus if_else()

(educ_ifelse <- educ %>%
  mutate(hsPlus = if_else(education == "Less than HS",
                          "Less than HS",
                          "HS+")))
## # A tibble: 100,798 x 2
##       education       hsPlus
##          <fctr>        <chr>
##  1          BA+          HS+
##  2 Some college          HS+
##  3          BA+          HS+
##  4          BA+          HS+
##  5       HS/GED          HS+
##  6 Less than HS Less than HS
##  7       HS/GED          HS+
##  8       HS/GED          HS+
##  9 Some college          HS+
## 10         <NA>         <NA>
## # ... with 100,788 more rows
…
