Text analysis: classification and topic modeling
…
Set of hand-coded bills from US Congress

Text description

Major policy topic

Create tidy text data frame

(congress_tokens <- congress %>%
   unnest_tokens(output = word, input = text) %>%
   filter(!str_detect(word, "^[0-9]*$")) %>%
   anti_join(stop_words) %>%
   mutate(word = SnowballC::wordStem(word)))

## # A tibble: 58,820 x 6
##       ID  cong billnum h_or_sen major        word
##    <int> <int>   <int>   <fctr> <int>       <chr>
##  1     1   107    4499       HR    18     suspend
##  2     1   107    4499       HR    18 temporarili
##  3     1   107    4499       HR    18        duti
##  4     1   107    4499       HR    18        fast
##  5     1   107    4499       HR    18     magenta
##  6     1   107    4499       HR    18       stage
##  7     2   107    4500       HR    18     suspend
##  8     2   107    4500       HR    18 temporarili
##  9     2   107    4500       HR    18        duti
## 10     2   107    4500       HR    18        fast
## # ... with 58,810 more rows
…
The War of the Worlds
0
0
22561
7

Twenty Thousand Leagues under the Sea
0
5
0
39629

Most commonly mistaken words

## # A tibble: 3,551 x 4
##                 title             consensus     term     n
##                 <chr>                 <chr>    <chr> <dbl>
##  1 Great Expectations   Pride and Prejudice     love    44
##  2 Great Expectations   Pride and Prejudice sergeant    37
##  3 Great Expectations   Pride and Prejudice     lady    32
##  4 Great Expectations   Pride and Prejudice     miss    26
##  5 Great Expectations The War of the Worlds     boat    25
##  6 Great Expectations The War of the Worlds     tide    20
##  7 Great Expectations The War of the Worlds    water    20
##  8 Great Expectations   Pride and Prejudice   father    19
##  9 Great Expectations   Pride and Prejudice     baby    18
## 10 Great Expectations   Pride and Prejudice  flopson    18
## # ... with 3,541 more rows
…
