Text analysis: fundamentals and sentiment analysis
…
Get text corpa

library(janeaustenr)

books <- austen_books() %>%
  group_by(book) %>%
  mutate(linenumber = row_number(),
         chapter = cumsum(str_detect(text,
                                     regex("^chapter [\\divxlc]",
                                           ignore_case = TRUE)))) %>%
  ungroup()
books

## # A tibble: 73,422 x 4
##    text                  book                linenumber chapter
##    <chr>                 <fct>                    <int>   <int>
##  1 SENSE AND SENSIBILITY Sense & Sensibility          1       0
##  2 ""                    Sense & Sensibility          2       0
##  3 by Jane Austen        Sense & Sensibility          3       0
##  4 ""                    Sense & Sensibility          4       0
##  5 (1811)                Sense & Sensibility          5       0
##  6 ""                    Sense & Sensibility          6       0
##  7 ""                    Sense & Sensibility          7       0
##  8 ""                    Sense & Sensibility          8       0
##  9 ""                    Sense & Sensibility          9       0
## 10 CHAPTER 1             Sense & Sensibility         10       1
## # ... with 73,412 more rows

Tokenize text

tidy_books <- books %>%
  unnest_tokens(output = word, input = text)
tidy_books

## # A tibble: 725,055 x 4
##    book                linenumber chapter word       
##    <fct>                    <int>   <int> <chr>      
##  1 Sense & Sensibility          1       0 sense      
##  2 Sense & Sensibility          1       0 and        
##  3 Sense & Sensibility          1       0 sensibility
##  4 Sense & Sensibility          3       0 by         
##  5 Sense & Sensibility          3       0 jane       
##  6 Sense & Sensibility          3       0 austen     
##  7 Sense & Sensibility          5       0 1811       
##  8 Sense & Sensibility         10       1 chapter    
##  9 Sense & Sensibility         10       1 1          
## 10 Sense & Sensibility         13       1 the        
## # ... with 725,045 more rows
…
Use tidytext to create a data frame with one row for each token in each song

Use tidytext to create a data frame with one row for each token in each song

tidy_lyrics <- bind_rows(song_lyrics %>% 
                           unnest_tokens(output = state_name,
                                         input = Lyrics),
                         song_lyrics %>% 
                           unnest_tokens(output = state_name,
                                         input = Lyrics, 
                                         token = "ngrams", n = 2))
tidy_lyrics

## # A tibble: 3,201,465 x 6
##     Rank Song        Artist                       Year Source state_name  
##    <int> <chr>       <chr>                       <int>  <int> <chr>       
##  1     1 wooly bully sam the sham and the phara  1965      3 sam         
##  2     1 wooly bully sam the sham and the phara  1965      3 the         
##  3     1 wooly bully sam the sham and the phara  1965      3 sham        
##  4     1 wooly bully sam the sham and the phara  1965      3 miscellaneo
##  5     1 wooly bully sam the sham and the phara  1965      3 wooly       
##  6     1 wooly bully sam the sham and the phara  1965      3 bully       
##  7     1 wooly bully sam the sham and the phara  1965      3 wooly       
##  8     1 wooly bully sam the sham and the phara  1965      3 bully       
##  9     1 wooly bully sam the sham and the phara  1965      3 sam         
## 10     1 wooly bully sam the sham and the phara  1965      3 the         
## # ... with 3,201,455 more rows

Find all the state names occurring in the song lyrics

Find all the state names occurring in the song lyrics

tidy_lyrics <- inner_join(tidy_lyrics, pop_df) %>%
  distinct(Rank, Song, Artist, Year, state_name, .keep_all = TRUE)
tidy_lyrics

## # A tibble: 253 x 8
##     Rank Song        Artist        Year Source state_name GEOID population
##    <int> <chr>       <chr>        <int>  <int> <chr>      <chr>      <int>
##  1    12 king of th roger miller  1965      1 maine      23       1329923
##  2    29 eve of des barry mcgui  1965      1 alabama    01       4841164
##  3    49 california the beach b  1965      3 california 06      38654206
##  4    10 california the mamas    1966      3 california 06      38654206
##  5    77 message to dionne warw  1966      1 kentucky   21       4411989
##  6    61 california lesley gore   1967      1 california 06      38654206
##  7     4 sittin on  otis redding  1968      1 georgia    13      10099320
##  8    10 tighten up  archie bell  1968      3 texas      48      26956435
##  9    25 get back    the beatles  1969      3 arizona    04       6728577
## 10    25 get back    the beatles  1969      3 california 06      38654206
## # ... with 243 more rows

Calculate the frequency for each states mention in a song and create a new column for the frequency adjusted by the states population

Calculate the frequency for each states mention in a song and create a new column for the frequency adjusted by the states population

(state_counts <- tidy_lyrics %>% 
   count(state_name) %>% 
   arrange(desc(n)))

## # A tibble: 33 x 2
##    state_name      n
##    <chr>       <int>
##  1 new york       64
##  2 california     34
##  3 georgia        22
##  4 tennessee      14
##  5 texas          14
##  6 alabama        12
##  7 mississippi    10
##  8 kentucky        7
##  9 hawaii          6
## 10 illinois        6
## # ... with 23 more rows
…
Sentiment analysis

I am happy

Dictionaries

get_sentiments("bing")

## # A tibble: 6,788 x 2
##    word        sentiment
##    <chr>       <chr>    
##  1 2-faced     negative 
##  2 2-faces     negative 
##  3 a+          positive 
##  4 abnormal    negative 
##  5 abolish     negative 
##  6 abominable  negative 
##  7 abominably  negative 
##  8 abominate   negative 
##  9 abomination negative 
## 10 abort       negative 
## # ... with 6,778 more rows

Dictionaries

get_sentiments("afinn")

## # A tibble: 2,476 x 2
##    word       score
##    <chr>      <int>
##  1 abandon       -2
##  2 abandoned     -2
##  3 abandons      -2
##  4 abducted      -2
##  5 abduction     -2
##  6 abductions    -2
##  7 abhor         -3
##  8 abhorred      -3
##  9 abhorrent     -3
## 10 abhors        -3
## # ... with 2,466 more rows

Dictionaries

get_sentiments("nrc")

## # A tibble: 13,901 x 2
##    word        sentiment
##    <chr>       <chr>    
##  1 abacus      trust    
##  2 abandon     fear     
##  3 abandon     negative 
##  4 abandon     sadness  
##  5 abandoned   anger    
##  6 abandoned   fear     
##  7 abandoned   negative 
##  8 abandoned   sadness  
##  9 abandonment anger    
## 10 abandonment fear     
## # ... with 13,891 more rows
…
Calculate sentiment

tidy_books %>%
  inner_join(get_sentiments("bing"))

## # A tibble: 52,287 x 5
##    book                linenumber chapter word        sentiment
##    <fct>                    <int>   <int> <chr>       <chr>    
##  1 Sense & Sensibility         16       1 respectable positive 
##  2 Sense & Sensibility         16       1 good        positive 
##  3 Sense & Sensibility         18       1 advanced    positive 
##  4 Sense & Sensibility         20       1 death       negative 
##  5 Sense & Sensibility         20       1 great       positive 
##  6 Sense & Sensibility         21       1 loss        negative 
##  7 Sense & Sensibility         25       1 comfortably positive 
##  8 Sense & Sensibility         28       1 goodness    positive 
##  9 Sense & Sensibility         28       1 solid       positive 
## 10 Sense & Sensibility         29       1 comfort     positive 
## # ... with 52,277 more rows

tidy_books %>%
  inner_join(get_sentiments("bing")) %>%
  count(book, index = linenumber %/% 80, sentiment)

## # A tibble: 1,840 x 4
##    book                index sentiment     n
##    <fct>               <dbl> <chr>     <int>
##  1 Sense & Sensibility     0 negative     16
##  2 Sense & Sensibility     0 positive     32
##  3 Sense & Sensibility     1 negative     19
##  4 Sense & Sensibility     1 positive     53
##  5 Sense & Sensibility     2 negative     12
##  6 Sense & Sensibility     2 positive     31
##  7 Sense & Sensibility     3 negative     15
##  8 Sense & Sensibility     3 positive     31
##  9 Sense & Sensibility     4 negative     16
## 10 Sense & Sensibility     4 positive     34
## # ... with 1,830 more rows

tidy_books %>%
  inner_join(get_sentiments("bing")) %>%
  count(book, index = linenumber %/% 80, sentiment) %>%
  spread(sentiment, n, fill = 0)

## # A tibble: 920 x 4
##    book                index negative positive
##    <fct>               <dbl>    <dbl>    <dbl>
##  1 Sense & Sensibility     0       16       32
##  2 Sense & Sensibility     1       19       53
##  3 Sense & Sensibility     2       12       31
##  4 Sense & Sensibility     3       15       31
##  5 Sense & Sensibility     4       16       34
##  6 Sense & Sensibility     5       16       51
##  7 Sense & Sensibility     6       24       40
##  8 Sense & Sensibility     7       23       51
##  9 Sense & Sensibility     8       30       40
## 10 Sense & Sensibility     9       15       19
## # ... with 910 more rows

tidy_books %>%
  inner_join(get_sentiments("bing")) %>%
  count(book, index = linenumber %/% 80, sentiment) %>%
  spread(sentiment, n, fill = 0) %>%
  mutate(sentiment = positive - negative)

## # A tibble: 920 x 5
##    book                index negative positive sentiment
##    <fct>               <dbl>    <dbl>    <dbl>     <dbl>
##  1 Sense & Sensibility     0       16       32        16
##  2 Sense & Sensibility     1       19       53        34
##  3 Sense & Sensibility     2       12       31        19
##  4 Sense & Sensibility     3       15       31        16
##  5 Sense & Sensibility     4       16       34        18
##  6 Sense & Sensibility     5       16       51        35
##  7 Sense & Sensibility     6       24       40        16
##  8 Sense & Sensibility     7       23       51        28
##  9 Sense & Sensibility     8       30       40        10
## 10 Sense & Sensibility     9       15       19         4
## # ... with 910 more rows
…
Load Harry Potter text

## # A tibble: 1,089,386 x 3
## # Groups:   book [7]
##    book               chapter word   
##    <fct>                <int> <chr>  
##  1 philosophers_stone       1 the    
##  2 philosophers_stone       1 boy    
##  3 philosophers_stone       1 who    
##  4 philosophers_stone       1 lived  
##  5 philosophers_stone       1 mr     
##  6 philosophers_stone       1 and    
##  7 philosophers_stone       1 mrs    
##  8 philosophers_stone       1 dursley
##  9 philosophers_stone       1 of     
## 10 philosophers_stone       1 number 
## # ... with 1,089,376 more rows
…
